{
  "objects": [
    {
      "name": "RawNewUserDaily",
      "id": "ActivityId_vTkhg",
      "schedule": {
        "ref": "DefaultSchedule"
      },
      "maxActiveInstances": "1",
      "command": "/home/hadoop/hive/bin/hive -i s3://com.funplus.datawarehouse/sql_logs/bv/app=bv.global.prod/init-bv.global.prod-reports-#{format(minusHours(@scheduledStartTime,2),'YYYYMMddHHmmss')}.hql -f s3://com.funplusgame.bidata/dev/hive/bv_1_2/raw_new_user_daily.hql",
      "lateAfterTimeout": "1 Hour",
      "onFail": {
        "ref": "ActionId_zo69P"
      },
      "workerGroup": "wg-emr-fruitscoot",
      "type": "ShellCommandActivity",
      "dependsOn": {
        "ref": "ActivityId_vpD6N"
      },
      "onLateAction": {
        "ref": "ActionId_NAcg4"
      }
    },
    {
      "name": "EventsDailyDependencyCheck-AllRawEvents",
      "id": "PreconditionId_cRajL",
      "retryDelay": "5 Minutes",
      "lateAfterTimeout": "5 Hours",
      "role": "DataPipelineDefaultRole",
      "onFail": {
        "ref": "ActionId_AGrl7"
      },
      "s3Prefix": "s3://com.funplus.datawarehouse/semaphores/bv/app=bv.global.prod/job=raw_events/year=#{format(minusHours(@scheduledStartTime,2),'YYYY')}/month=#{format(minusHours(@scheduledStartTime,2),'MM')}/day=#{format(minusHours(@scheduledStartTime,2),'dd')}/hour=#{format(minusHours(@scheduledStartTime,2),'HH')}",
      "type": "S3PrefixNotEmpty",
      "onLateAction": {
        "ref": "ActionId_AGrl7"
      }
    },
    {
      "name": "SemaphoreEnd",
      "id": "ActivityId_1Ueaa",
      "schedule": {
        "ref": "DefaultSchedule"
      },
      "maxActiveInstances": "1",
      "command": "if hadoop fs -test -d s3://com.funplus.datawarehouse/semaphores/bv/app=bv.global.prod/job=reports_kpi/year=#{format(minusHours(@scheduledStartTime,2),'YYYY')}/month=#{format(minusHours(@scheduledStartTime,2),'MM')}/day=#{format(minusHours(@scheduledStartTime,2),'dd')}; then hadoop fs -rmr s3://com.funplus.datawarehouse/semaphores/bv/app=bv.global.prod/job=reports_kpi/year=#{format(minusHours(@scheduledStartTime,2),'YYYY')}/month=#{format(minusHours(@scheduledStartTime,2),'MM')}/day=#{format(minusHours(@scheduledStartTime,2),'dd')}; fi;\necho \"1\" >SUCCESS;\nhadoop fs -mkdir -p s3://com.funplus.datawarehouse/semaphores/bv/app=bv.global.prod/job=reports_kpi/year=#{format(minusHours(@scheduledStartTime,2),'YYYY')}/month=#{format(minusHours(@scheduledStartTime,2),'MM')}/day=#{format(minusHours(@scheduledStartTime,2),'dd')};\nhadoop dfs -put SUCCESS s3://com.funplus.datawarehouse/semaphores/bv/app=bv.global.prod/job=reports_kpi/year=#{format(minusHours(@scheduledStartTime,2),'YYYY')}/month=#{format(minusHours(@scheduledStartTime,2),'MM')}/day=#{format(minusHours(@scheduledStartTime,2),'dd')}/;\n",
      "lateAfterTimeout": "5 Hours",
      "onSuccess": {
        "ref": "ActionId_oZACc"
      },
      "onFail": {
        "ref": "ActionId_zo69P"
      },
      "workerGroup": "wg-emr-fruitscoot",
      "dependsOn": [
        {
          "ref": "ActivityId_yWHtg"
        },
        {
          "ref": "ActivityId_MG8CV"
        },
        {
          "ref": "ActivityId_jtmWQ"
        },
        {
          "ref": "ActivityId_SEw9X"
        },
        {
          "ref": "ActivityId_8TNZN"
        },
        {
          "ref": "ActivityId_zWO1s"
        },
        {
          "ref": "ActivityId_7jMov"
        },
        {
          "ref": "ActivityId_jOlhb"
        },
        {
          "ref": "ActivityId_zxtrV"
        },
        {
          "ref": "ActivityId_w1qFX"
        },
        {
          "ref": "ActivityId_dAitq"
        },
        {
          "ref": "ActivityId_dDaWX"
        },
        {
          "ref": "ActivityId_YdTeB"
        },
        {
          "ref": "ActivityId_5z715"
        },
        {
          "ref": "ActivityId_Rekh5"
        },
        {
          "ref": "ActivityId_Kjxz2"
        },
        {
          "ref": "ActivityId_G18H1"
        }
      ],
      "type": "ShellCommandActivity",
      "onLateAction": {
        "ref": "ActionId_NAcg4"
      }
    },
    {
      "name": "ExecuteAggKPISql",
      "id": "ActivityId_7jMov",
      "schedule": {
        "ref": "DefaultSchedule"
      },
      "scriptUri": "s3://com.funplusgame.bidata/dev/sql1.2/bv/agg_kpi.sql",
      "maxActiveInstances": "1",
      "runsOn": {
        "ref": "ResourceId_DKg17"
      },
      "onFail": {
        "ref": "ActionId_zo69P"
      },
      "dependsOn": {
        "ref": "ActivityId_Y0a33"
      },
      "type": "SqlActivity",
      "database": {
        "ref": "RedshiftDatabaseId_XrVon"
      }
    },
    {
      "name": "DimUserPostStep",
      "id": "ActivityId_zxtrV",
      "schedule": {
        "ref": "DefaultSchedule"
      },
      "command": "if hadoop fs -test -d s3://com.funplus.datawarehouse/semaphores/bv/app=bv.global.prod/job=dim_user/year=#{format(minusHours(@scheduledStartTime,2),'YYYY')}/month=#{format(minusHours(@scheduledStartTime,2),'MM')}/day=#{format(minusHours(@scheduledStartTime,2),'dd')}; then hadoop fs -rmr s3://com.funplus.datawarehouse/semaphores/bv/app=bv.global.prod/job=dim_user/year=#{format(minusHours(@scheduledStartTime,2),'YYYY')}/month=#{format(minusHours(@scheduledStartTime,2),'MM')}/day=#{format(minusHours(@scheduledStartTime,2),'dd')}; fi\\necho \\\"1\\\" > SUCCESS;\\nhadoop fs -mkdir -p s3://com.funplus.datawarehouse/semaphores/bv/app=bv.global.prod/job=dim_user/year=#{format(minusHours(@scheduledStartTime,2),'YYYY')}/month=#{format(minusHours(@scheduledStartTime,2),'MM')}/day=#{format(minusHours(@scheduledStartTime,2),'dd')};\\nhadoop fs -put SUCCESS s3://com.funplus.datawarehouse/semaphores/bv/app=bv.global.prod/job=dim_user/year=#{format(minusHours(@scheduledStartTime,2),'YYYY')}/month=#{format(minusHours(@scheduledStartTime,2),'MM')}/day=#{format(minusHours(@scheduledStartTime,2),'dd')}/;",
      "workerGroup": "wg-emr-fruitscoot",
      "dependsOn": {
        "ref": "ActivityId_dkwO2"
      },
      "type": "ShellCommandActivity"
    },
    {
      "name": "FactPlayerResources",
      "id": "ActivityId_W8h6y",
      "schedule": {
        "ref": "DefaultSchedule"
      },
      "maxActiveInstances": "1",
      "command": "/home/hadoop/hive/bin/hive -i s3://com.funplus.datawarehouse/sql_logs/bv/app=bv.global.prod/init-bv.global.prod-reports-#{format(minusHours(@scheduledStartTime,2),'YYYYMMddHHmmss')}.hql -f s3://com.funplusgame.bidata/dev/hive/bv_1_2/fact_player_resources.hql",
      "lateAfterTimeout": "5 Hours",
      "onFail": {
        "ref": "ActionId_zo69P"
      },
      "workerGroup": "wg-emr-fruitscoot",
      "dependsOn": [
        {
          "ref": "ActivityId_mkwtxC"
        },
        {
          "ref": "ActivityId_jytYf"
        },
        {
          "ref": "ActivityId_IW3sD"
        }
      ],
      "type": "ShellCommandActivity",
      "onLateAction": {
        "ref": "ActionId_NAcg4"
      }
    },
    {
      "name": "TimeoutNotification",
      "id": "ActionId_NAcg4",
      "message": "Task: #{node.name} is timedout",
      "subject": "TIMEOUT: bv.global.prod-ALL-REPORTS-DAILY #{node.name} #{format(minusHours(node.@scheduledStartTime,2),\"YYYY-MM-dd\")}\n",
      "topicArn": "arn:aws:sns:us-west-2:921287511715:data-notification",
      "role": "DataPipelineDefaultRole",
      "type": "SnsAlarm"
    },
    {
      "name": "FactLevelup2Redshift",
      "id": "ActivityId_5z715",
      "schedule": {
        "ref": "DefaultSchedule"
      },
      "command": "/usr/bin/python /mnt/funplus/analytics/python/copy_to_redshift.py  -c=/mnt/funplus/analytics/python/conf/bv_1_2.yaml  --table=processed.fact_levelup --s3path=s3://com.funplus.datawarehouse/bv_1_2/copy/fact_levelup/app=bv.all.prod/dt=#{format(minusHours(@scheduledStartTime,2),'YYYY-MM-dd')}/ --command-options=\"EMPTYASNULL DELIMITER '\\t' GZIP\" --pre-sql=\"delete from processed.fact_levelup where levelup_date = '#{format(minusHours(@scheduledStartTime,2),\"YYYY-MM-dd\")}' and app_id like '%bv%';\"",
      "maxActiveInstances": "1",
      "lateAfterTimeout": "5 Hours",
      "onFail": {
        "ref": "ActionId_zo69P"
      },
      "workerGroup": "wg-ec2-bv",
      "dependsOn": {
        "ref": "ActivityId_mMX5X"
      },
      "type": "ShellCommandActivity",
      "onLateAction": {
        "ref": "ActionId_NAcg4"
      }
    },
    {
      "name": "SuccessNotification",
      "id": "ActionId_oZACc",
      "message": "Start Time: #{node.@actualStartTime}\nEnd Time: #{node.@actualEndTime}",
      "subject": "SUCCESS: bv.global.prod-ALL-REPORTS-DAILY #{node.name} #{format(minusHours(node.@scheduledStartTime,2),\"YYYY-MM-dd\")}\n",
      "topicArn": "arn:aws:sns:us-west-2:921287511715:data-notification",
      "role": "DataPipelineDefaultRole",
      "type": "SnsAlarm"
    },
    {
      "name": "ExecuteAggIAPSql",
      "id": "ActivityId_dAitq",
      "schedule": {
        "ref": "DefaultSchedule"
      },
      "scriptUri": "s3://com.funplusgame.bidata/dev/sql1.2/bv/agg_iap.sql",
      "maxActiveInstances": "1",
      "runsOn": {
        "ref": "ResourceId_DKg17"
      },
      "onFail": {
        "ref": "ActionId_zo69P"
      },
      "dependsOn": {
        "ref": "ActivityId_Y0a33"
      },
      "type": "SqlActivity",
      "database": {
        "ref": "RedshiftDatabaseId_XrVon"
      }
    },
    {
      "name": "FactSession2Redshift",
      "id": "ActivityId_YdTeB",
      "schedule": {
        "ref": "DefaultSchedule"
      },
      "command": "/usr/bin/python /mnt/funplus/analytics/python/copy_to_redshift.py  -c=/mnt/funplus/analytics/python/conf/bv_1_2.yaml  --table=processed.fact_session --s3path=s3://com.funplus.datawarehouse/bv_1_2/copy/fact_session/app=bv.all.prod/dt=#{format(minusHours(@scheduledStartTime,2),'YYYY-MM-dd')}/ --command-options=\"EMPTYASNULL DELIMITER '\\t' GZIP\" --pre-sql=\"delete from processed.fact_session where date_start = '#{format(minusHours(@scheduledStartTime,2),\"YYYY-MM-dd\")}' and app_id like '%bv%';\"",
      "maxActiveInstances": "1",
      "lateAfterTimeout": "5 Hours",
      "onFail": {
        "ref": "ActionId_zo69P"
      },
      "workerGroup": "wg-ec2-bv",
      "dependsOn": {
        "ref": "ActivityId_Fgzy2"
      },
      "type": "ShellCommandActivity",
      "onLateAction": {
        "ref": "ActionId_NAcg4"
      }
    },
    {
      "name": "DimUser2Redshift",
      "id": "ActivityId_Rekh5",
      "schedule": {
        "ref": "DefaultSchedule"
      },
      "command": "/usr/bin/python /mnt/funplus/analytics/python/copy_to_redshift.py  -c=/mnt/funplus/analytics/python/conf/bv_1_2.yaml  --table=processed.dim_user --s3path=s3://com.funplus.datawarehouse/bv_1_2/copy/dim_user/app=bv.all.prod/dt=#{format(minusHours(@scheduledStartTime,2),'YYYY-MM-dd')}/ --command-options=\"EMPTYASNULL DELIMITER '\\t' GZIP\" --pre-sql=\"delete from processed.dim_user where app_id like '%bv%';\"",
      "maxActiveInstances": "1",
      "lateAfterTimeout": "5 Hours",
      "onFail": {
        "ref": "ActionId_zo69P"
      },
      "workerGroup": "wg-ec2-bv",
      "dependsOn": {
        "ref": "ActivityId_dkwO2"
      },
      "type": "ShellCommandActivity",
      "onLateAction": {
        "ref": "ActionId_NAcg4"
      }
    },
    {
      "name": "ScriptSetup",
      "id": "ActivityId_vpD6N",
      "schedule": {
        "ref": "DefaultSchedule"
      },
      "scriptUri": "s3://com.funplusgame.bidata/dev/scripts/reports_script_generator.sh",
      "maxActiveInstances": "1",
      "lateAfterTimeout": "5 Hours",
      "onFail": {
        "ref": "ActionId_zo69P"
      },
      "scriptArgument": [
        "-a bv.global.prod",
        "-f s3://com.funplusgame.bidata/dev/sql/init.sql",
        "-d #{format(minusHours(@scheduledStartTime,2),'YYYY-MM-dd HH:mm:ss')}",
        "-o s3://com.funplus.datawarehouse/sql_logs/bv/app=bv.global.prod/init-bv.global.prod-reports-#{format(minusHours(@scheduledStartTime,2),'YYYYMMddHHmmss')}.hql",
        "-b 7",
        "-A bv.all.prod"
      ],
      "workerGroup": "wg-emr-fruitscoot",
      "dependsOn": {
        "ref": "ActivityId_KQsvt1C"
      },
      "type": "ShellCommandActivity",
      "onLateAction": {
        "ref": "ActionId_NAcg4"
      }
    },
    {
      "name": "FactMissionCollections",
      "id": "ActivityId_x5g22",
      "schedule": {
        "ref": "DefaultSchedule"
      },
      "maxActiveInstances": "1",
      "command": "/home/hadoop/hive/bin/hive -i s3://com.funplus.datawarehouse/sql_logs/bv/app=bv.global.prod/init-bv.global.prod-reports-#{format(minusHours(@scheduledStartTime,2),'YYYYMMddHHmmss')}.hql -f s3://com.funplusgame.bidata/dev/hive/bv_1_2/fact_mission_collections.hql",
      "lateAfterTimeout": "5 Hours",
      "onFail": {
        "ref": "ActionId_zo69P"
      },
      "workerGroup": "wg-emr-fruitscoot",
      "dependsOn": {
        "ref": "ActivityId_qFyfv"
      },
      "type": "ShellCommandActivity",
      "onLateAction": {
        "ref": "ActionId_NAcg4"
      }
    },
    {
      "name": "Default",
      "id": "Default",
      "failureAndRerunMode": "CASCADE",
      "scheduleType": "CRON",
      "schedule": {
        "ref": "DefaultSchedule"
      },
      "pipelineLogUri": "s3://com.funplus.emr/logs/",
      "role": "DataPipelineDefaultRole",
      "resourceRole": "DataPipelineDefaultResourceRole"
    },
    {
      "name": "FactDauSnapshot2Redshift",
      "id": "ActivityId_Kjxz2",
      "schedule": {
        "ref": "DefaultSchedule"
      },
      "command": "/usr/bin/python /mnt/funplus/analytics/python/copy_to_redshift.py  -c=/mnt/funplus/analytics/python/conf/bv_1_2.yaml  --table=processed.fact_dau_snapshot --s3path=s3://com.funplus.datawarehouse/bv_1_2/copy/fact_dau_snapshot/app=bv.all.prod/dt=#{format(minusHours(@scheduledStartTime,2),'YYYY-MM-dd')}/ --command-options=\"EMPTYASNULL DELIMITER '\\t' GZIP\" --pre-sql=\"delete from processed.fact_dau_snapshot where date > ('#{format(minusHours(@scheduledStartTime,2),\"YYYY-MM-dd\")}' - 7) and app_id like '%bv%';\"",
      "maxActiveInstances": "1",
      "lateAfterTimeout": "5 Hours",
      "onFail": {
        "ref": "ActionId_zo69P"
      },
      "workerGroup": "wg-ec2-bv",
      "dependsOn": {
        "ref": "ActivityId_otiRD"
      },
      "type": "ShellCommandActivity",
      "onLateAction": {
        "ref": "ActionId_NAcg4"
      }
    },
    {
      "name": "TmpUserLevelup",
      "id": "ActivityId_wFhRn",
      "schedule": {
        "ref": "DefaultSchedule"
      },
      "maxActiveInstances": "1",
      "command": "/home/hadoop/hive/bin/hive -i s3://com.funplus.datawarehouse/sql_logs/bv/app=bv.global.prod/init-bv.global.prod-reports-#{format(minusHours(@scheduledStartTime,2),'YYYYMMddHHmmss')}.hql -f s3://com.funplusgame.bidata/dev/hive/bv_1_2/tmp_user_level.hql",
      "lateAfterTimeout": "5 Hours",
      "onFail": {
        "ref": "ActionId_zo69P"
      },
      "workerGroup": "wg-emr-fruitscoot",
      "dependsOn": {
        "ref": "ActivityId_mMX5X"
      },
      "type": "ShellCommandActivity",
      "onLateAction": {
        "ref": "ActionId_NAcg4"
      }
    },
    {
      "name": "FactTutorial",
      "id": "ActivityId_EvRbq",
      "schedule": {
        "ref": "DefaultSchedule"
      },
      "maxActiveInstances": "1",
      "command": "/home/hadoop/hive/bin/hive -i s3://com.funplus.datawarehouse/sql_logs/bv/app=bv.global.prod/init-bv.global.prod-reports-#{format(minusHours(@scheduledStartTime,2),'YYYYMMddHHmmss')}.hql -f s3://com.funplusgame.bidata/dev/hive/bv_1_2/fact_tutorial.hql",
      "lateAfterTimeout": "5 Hours",
      "onFail": {
        "ref": "ActionId_zo69P"
      },
      "workerGroup": "wg-emr-fruitscoot",
      "dependsOn": {
        "ref": "ActivityId_n4GgK"
      },
      "type": "ShellCommandActivity",
      "onLateAction": {
        "ref": "ActionId_NAcg4"
      }
    },
    {
      "name": "RawLevelupDaily",
      "id": "ActivityId_mkwtxC",
      "schedule": {
        "ref": "DefaultSchedule"
      },
      "maxActiveInstances": "1",
      "command": "/home/hadoop/hive/bin/hive -i s3://com.funplus.datawarehouse/sql_logs/bv/app=bv.global.prod/init-bv.global.prod-reports-#{format(minusHours(@scheduledStartTime,2),'YYYYMMddHHmmss')}.hql -f s3://com.funplusgame.bidata/dev/hive/bv_1_2/raw_level_up_daily.hql",
      "lateAfterTimeout": "1 Hour",
      "onFail": {
        "ref": "ActionId_zo69P"
      },
      "workerGroup": "wg-emr-fruitscoot",
      "type": "ShellCommandActivity",
      "dependsOn": {
        "ref": "ActivityId_vpD6N"
      },
      "onLateAction": {
        "ref": "ActionId_NAcg4"
      }
    },
    {
      "name": "DimUser",
      "id": "ActivityId_dkwO2",
      "precondition": {
        "ref": "PreconditionId_0uWai"
      },
      "schedule": {
        "ref": "DefaultSchedule"
      },
      "maxActiveInstances": "1",
      "command": "/home/hadoop/hive/bin/hive -i s3://com.funplus.datawarehouse/sql_logs/bv/app=bv.global.prod/init-bv.global.prod-reports-#{format(minusHours(@scheduledStartTime,2),'YYYYMMddHHmmss')}.hql --hiveconf rpt_geo=de -f s3://com.funplusgame.bidata/dev/hive/bv_1_2/dim_user.hql",
      "lateAfterTimeout": "5 Hours",
      "onFail": {
        "ref": "ActionId_zo69P"
      },
      "workerGroup": "wg-emr-fruitscoot",
      "dependsOn": [
        {
          "ref": "ActivityId_wFhRn"
        },
        {
          "ref": "ActivityId_KLJAm"
        },
        {
          "ref": "ActivityId_EDFMn"
        }
      ],
      "type": "ShellCommandActivity",
      "onLateAction": {
        "ref": "ActionId_NAcg4"
      }
    },
    {
      "name": "RawPaymentDaily",
      "id": "ActivityId_jytYf",
      "schedule": {
        "ref": "DefaultSchedule"
      },
      "maxActiveInstances": "1",
      "command": "/home/hadoop/hive/bin/hive -i s3://com.funplus.datawarehouse/sql_logs/bv/app=bv.global.prod/init-bv.global.prod-reports-#{format(minusHours(@scheduledStartTime,2),'YYYYMMddHHmmss')}.hql -f s3://com.funplusgame.bidata/dev/hive/bv_1_2/raw_payment_daily.hql",
      "lateAfterTimeout": "1 Hour",
      "onFail": {
        "ref": "ActionId_zo69P"
      },
      "workerGroup": "wg-emr-fruitscoot",
      "type": "ShellCommandActivity",
      "dependsOn": {
        "ref": "ActivityId_vpD6N"
      },
      "onLateAction": {
        "ref": "ActionId_NAcg4"
      }
    },
    {
      "name": "FactMissionStatistic2Redshift",
      "id": "ActivityId_jtmWQ",
      "schedule": {
        "ref": "DefaultSchedule"
      },
      "maxActiveInstances": "1",
      "command": "/usr/bin/python /mnt/funplus/analytics/python/copy_to_redshift.py  -c=/mnt/funplus/analytics/python/conf/bv_1_2.yaml  --table=processed.fact_mission_statistic --s3path=s3://com.funplus.datawarehouse/bv_1_2/copy/fact_mission_statistic/app=bv.all.prod/dt=#{format(minusHours(@scheduledStartTime,2),'YYYY-MM-dd')}/ --command-options=\"EMPTYASNULL DELIMITER '\\t' GZIP\" --pre-sql=\"delete from processed.fact_mission_statistic where date = '#{format(minusHours(@scheduledStartTime,2),\"YYYY-MM-dd\")}' and app_id like '%bv%';\"",
      "lateAfterTimeout": "5 Hours",
      "onFail": {
        "ref": "ActionId_zo69P"
      },
      "workerGroup": "wg-ec2-bv",
      "dependsOn": {
        "ref": "ActivityId_x5g22"
      },
      "type": "ShellCommandActivity",
      "onLateAction": {
        "ref": "ActionId_NAcg4"
      }
    },
    {
      "name": "FactMissionParameter2Redshift",
      "id": "ActivityId_SEw9X",
      "schedule": {
        "ref": "DefaultSchedule"
      },
      "maxActiveInstances": "1",
      "command": "/usr/bin/python /mnt/funplus/analytics/python/copy_to_redshift.py  -c=/mnt/funplus/analytics/python/conf/bv_1_2.yaml  --table=processed.fact_mission_parameter --s3path=s3://com.funplus.datawarehouse/bv_1_2/copy/fact_mission_parameter/app=bv.all.prod/dt=#{format(minusHours(@scheduledStartTime,2),'YYYY-MM-dd')}/ --command-options=\"EMPTYASNULL DELIMITER '\\t' GZIP\" --pre-sql=\"delete from processed.fact_mission_parameter where date = '#{format(minusHours(@scheduledStartTime,2),\"YYYY-MM-dd\")}' and app_id like '%bv%';\"",
      "lateAfterTimeout": "5 Hours",
      "onFail": {
        "ref": "ActionId_zo69P"
      },
      "workerGroup": "wg-ec2-bv",
      "dependsOn": {
        "ref": "ActivityId_x5g22"
      },
      "type": "ShellCommandActivity",
      "onLateAction": {
        "ref": "ActionId_zo69P"
      }
    },
    {
      "name": "FactMission",
      "id": "ActivityId_PqlrT",
      "schedule": {
        "ref": "DefaultSchedule"
      },
      "maxActiveInstances": "1",
      "command": "/home/hadoop/hive/bin/hive -i s3://com.funplus.datawarehouse/sql_logs/bv/app=bv.global.prod/init-bv.global.prod-reports-#{format(minusHours(@scheduledStartTime,2),'YYYYMMddHHmmss')}.hql -f s3://com.funplusgame.bidata/dev/hive/bv_1_2/fact_mission.hql",
      "lateAfterTimeout": "5 Hours",
      "onFail": {
        "ref": "ActionId_zo69P"
      },
      "workerGroup": "wg-emr-fruitscoot",
      "dependsOn": {
        "ref": "ActivityId_qFyfv"
      },
      "type": "ShellCommandActivity",
      "onLateAction": {
        "ref": "ActionId_NAcg4"
      }
    },
    {
      "name": "SemaphoreStart",
      "id": "ActivityId_KQsvt1C",
      "precondition": {
        "ref": "PreconditionId_cRajL"
      },
      "schedule": {
        "ref": "DefaultSchedule"
      },
      "maxActiveInstances": "1",
      "command": "if hadoop fs -test -d s3://com.funplus.datawarehouse/semaphores/bv/app=bv.global.prod/job=fuitscoot-reports/year=#{format(minusHours(@scheduledStartTime,2),'YYYY')}/month=#{format(minusHours(@scheduledStartTime,2),'MM')}/day=#{format(minusHours(@scheduledStartTime,2),'dd')}; then hadoop fs -rmr s3://com.funplus.datawarehouse/semaphores/bv/app=bv.global.prod/job=bv-reports/year=#{format(minusHours(@scheduledStartTime,2),'YYYY')}/month=#{format(minusHours(@scheduledStartTime,2),'MM')}/day=#{format(minusHours(@scheduledStartTime,2),'dd')}; fi",
      "lateAfterTimeout": "5 Hours",
      "onFail": {
        "ref": "ActionId_zo69P"
      },
      "workerGroup": "wg-emr-fruitscoot",
      "type": "ShellCommandActivity",
      "onLateAction": {
        "ref": "ActionId_NAcg4"
      }
    },
    {
      "name": "TmpUserDailyLogin",
      "id": "ActivityId_KLJAm",
      "schedule": {
        "ref": "DefaultSchedule"
      },
      "maxActiveInstances": "1",
      "command": "/home/hadoop/hive/bin/hive -i s3://com.funplus.datawarehouse/sql_logs/bv/app=bv.global.prod/init-bv.global.prod-reports-#{format(minusHours(@scheduledStartTime,2),'YYYYMMddHHmmss')}.hql -f s3://com.funplusgame.bidata/dev/hive/bv_1_2/tmp_user_daily_login.hql",
      "lateAfterTimeout": "5 Hours",
      "onFail": {
        "ref": "ActionId_zo69P"
      },
      "workerGroup": "wg-emr-fruitscoot",
      "dependsOn": [
        {
          "ref": "ActivityId_Fgzy2"
        },
        {
          "ref": "ActivityId_RUNZH"
        }
      ],
      "type": "ShellCommandActivity",
      "onLateAction": {
        "ref": "ActionId_NAcg4"
      }
    },
    {
      "name": "FactRevenue",
      "id": "ActivityId_RUNZH",
      "schedule": {
        "ref": "DefaultSchedule"
      },
      "maxActiveInstances": "1",
      "command": "/home/hadoop/hive/bin/hive -i s3://com.funplus.datawarehouse/sql_logs/bv/app=bv.global.prod/init-bv.global.prod-reports-#{format(minusHours(@scheduledStartTime,2),'YYYYMMddHHmmss')}.hql -f s3://com.funplusgame.bidata/dev/hive/bv_1_2/fact_revenue.hql",
      "lateAfterTimeout": "5 Hours",
      "onFail": {
        "ref": "ActionId_zo69P"
      },
      "workerGroup": "wg-emr-fruitscoot",
      "type": "ShellCommandActivity",
      "dependsOn": {
        "ref": "ActivityId_jytYf"
      },
      "onLateAction": {
        "ref": "ActionId_NAcg4"
      }
    },
    {
      "name": "SemaphoreFailureNotification",
      "id": "ActionId_PJpcO",
      "message": "Pipeline Schedule Run Time: #{node.@scheduledStartTime}\nPipeline Execution Start Time: #{node.@actualStartTime}\nPipeline Execution End Time: #{node.@actualEndTime}\nError Message:\n#{node.errorMessage}\nError StackTrace:\n#{node.errorStackTrace}",
      "subject": "FAILURE: bv.global.prod-ALL-REPORTS-DAILY - SEMAPHORE #{node.name} #{format(minusHours(node.@scheduledStartTime,2),\"YYYY-MM-dd\")}\n",
      "topicArn": "arn:aws:sns:us-west-2:921287511715:data-notification",
      "role": "DataPipelineDefaultRole",
      "type": "SnsAlarm"
    },
    {
      "name": "FactDauSnapshot",
      "id": "ActivityId_otiRD",
      "schedule": {
        "ref": "DefaultSchedule"
      },
      "maxActiveInstances": "1",
      "command": "/home/hadoop/hive/bin/hive -i s3://com.funplus.datawarehouse/sql_logs/bv/app=bv.global.prod/init-bv.global.prod-reports-#{format(minusHours(@scheduledStartTime,2),'YYYYMMddHHmmss')}.hql -f s3://com.funplusgame.bidata/dev/hive/bv_1_2/fact_dau_snapshot.hql",
      "lateAfterTimeout": "5 Hours",
      "onFail": {
        "ref": "ActionId_zo69P"
      },
      "workerGroup": "wg-emr-fruitscoot",
      "dependsOn": [
        {
          "ref": "ActivityId_EDFMn"
        },
        {
          "ref": "ActivityId_KLJAm"
        },
        {
          "ref": "ActivityId_wFhRn"
        }
      ],
      "type": "ShellCommandActivity",
      "onLateAction": {
        "ref": "ActionId_NAcg4"
      }
    },
    {
      "name": "Failure Notification",
      "id": "ActionId_zo69P",
      "message": "Start Time: #{node.@actualStartTime}\nEnd Time: #{node.@actualEndTime}",
      "subject": "SUCCESS: bv.global.prod-ALL-REPORTS-DAILY - #{node.name} #{format(minusHours(node.@scheduledStartTime,2),\"YYYY-MM-dd\")}",
      "topicArn": "arn:aws:sns:us-west-2:921287511715:data-notification",
      "role": "DataPipelineDefaultRole",
      "type": "SnsAlarm"
    },
    {
      "name": "ExecuteAggRetentionSql",
      "id": "ActivityId_zWO1s",
      "schedule": {
        "ref": "DefaultSchedule"
      },
      "scriptUri": "s3://com.funplusgame.bidata/dev/sql1.2/bv/agg_retention.sql",
      "maxActiveInstances": "1",
      "runsOn": {
        "ref": "ResourceId_DKg17"
      },
      "onFail": {
        "ref": "ActionId_zo69P"
      },
      "dependsOn": {
        "ref": "ActivityId_Y0a33"
      },
      "type": "SqlActivity",
      "database": {
        "ref": "RedshiftDatabaseId_XrVon"
      }
    },
    {
      "name": "ExecuteTabMarketingSql",
      "id": "ActivityId_w1qFX",
      "schedule": {
        "ref": "DefaultSchedule"
      },
      "scriptUri": "s3://com.funplusgame.bidata/dev/sql1.2/bv/tab_marketing.sql",
      "maxActiveInstances": "1",
      "runsOn": {
        "ref": "ResourceId_DKg17"
      },
      "onFail": {
        "ref": "ActionId_zo69P"
      },
      "dependsOn": {
        "ref": "ActivityId_Y0a33"
      },
      "type": "SqlActivity",
      "database": {
        "ref": "RedshiftDatabaseId_XrVon"
      }
    },
    {
      "name": "RawTutorialDaily",
      "id": "ActivityId_n4GgK",
      "schedule": {
        "ref": "DefaultSchedule"
      },
      "maxActiveInstances": "1",
      "command": "/home/hadoop/hive/bin/hive -i s3://com.funplus.datawarehouse/sql_logs/bv/app=bv.global.prod/init-bv.global.prod-reports-#{format(minusHours(@scheduledStartTime,2),'YYYYMMddHHmmss')}.hql -f s3://com.funplusgame.bidata/dev/hive/bv_1_2/raw_tutorial_daily.hql",
      "lateAfterTimeout": "1 Hour",
      "onFail": {
        "ref": "ActionId_zo69P"
      },
      "workerGroup": "wg-emr-fruitscoot",
      "dependsOn": {
        "ref": "ActivityId_vpD6N"
      },
      "type": "ShellCommandActivity",
      "onLateAction": {
        "ref": "ActionId_NAcg4"
      }
    },
    {
      "name": "FactLevelup",
      "id": "ActivityId_mMX5X",
      "schedule": {
        "ref": "DefaultSchedule"
      },
      "maxActiveInstances": "1",
      "command": "/home/hadoop/hive/bin/hive -i s3://com.funplus.datawarehouse/sql_logs/bv/app=bv.global.prod/init-bv.global.prod-reports-#{format(minusHours(@scheduledStartTime,2),'YYYYMMddHHmmss')}.hql -f s3://com.funplusgame.bidata/dev/hive/bv_1_2/fact_levelup.hql",
      "lateAfterTimeout": "5 Hours",
      "onFail": {
        "ref": "ActionId_zo69P"
      },
      "workerGroup": "wg-emr-fruitscoot",
      "dependsOn": {
        "ref": "ActivityId_mkwtxC"
      },
      "type": "ShellCommandActivity",
      "onLateAction": {
        "ref": "ActionId_NAcg4"
      }
    },
    {
      "name": "ExecuteAggTutorial",
      "id": "ActivityId_dDaWX",
      "schedule": {
        "ref": "DefaultSchedule"
      },
      "scriptUri": "s3://com.funplusgame.bidata/dev/sql1.2/bv/agg_tutorial.sql",
      "maxActiveInstances": "1",
      "runsOn": {
        "ref": "ResourceId_DKg17"
      },
      "onFail": {
        "ref": "ActionId_zo69P"
      },
      "dependsOn": {
        "ref": "ActivityId_8TNZN"
      },
      "type": "SqlActivity",
      "database": {
        "ref": "RedshiftDatabaseId_XrVon"
      }
    },
    {
      "name": "FactRevenue2Redshift",
      "id": "ActivityId_jOlhb",
      "schedule": {
        "ref": "DefaultSchedule"
      },
      "command": "/usr/bin/python /mnt/funplus/analytics/python/copy_to_redshift.py  -c=/mnt/funplus/analytics/python/conf/bv_1_2.yaml  --table=processed.fact_revenue --s3path=s3://com.funplus.datawarehouse/bv_1_2/copy/fact_revenue/app=bv.all.prod/dt=#{format(minusHours(@scheduledStartTime,2),'YYYY-MM-dd')}/ --command-options=\"EMPTYASNULL DELIMITER '\\t' GZIP\" --pre-sql=\"delete from processed.fact_revenue where date = '#{format(minusHours(@scheduledStartTime,2),\"YYYY-MM-dd\")}' AND app_id like '%bv%';\"",
      "maxActiveInstances": "1",
      "lateAfterTimeout": "5 Hours",
      "onFail": {
        "ref": "ActionId_zo69P"
      },
      "workerGroup": "wg-ec2-bv",
      "dependsOn": {
        "ref": "ActivityId_RUNZH"
      },
      "type": "ShellCommandActivity",
      "onLateAction": {
        "ref": "ActionId_NAcg4"
      }
    },
    {
      "name": "RawAdjustDaily",
      "id": "ActivityId_xqGEH",
      "schedule": {
        "ref": "DefaultSchedule"
      },
      "maxActiveInstances": "1",
      "command": "/home/hadoop/hive/bin/hive -i s3://com.funplus.datawarehouse/sql_logs/bv/app=bv.global.prod/init-bv.global.prod-reports-#{format(minusHours(@scheduledStartTime,2),'YYYYMMddHHmmss')}.hql -f s3://com.funplusgame.bidata/dev/hive/bv_1_2/raw_adjust_daily.hql",
      "lateAfterTimeout": "1 Hour",
      "onFail": {
        "ref": "ActionId_zo69P"
      },
      "workerGroup": "wg-emr-fruitscoot",
      "dependsOn": {
        "ref": "ActivityId_vpD6N"
      },
      "type": "ShellCommandActivity",
      "onLateAction": {
        "ref": "ActionId_NAcg4"
      }
    },
    {
      "name": "ExecuteAggPrepareSql",
      "id": "ActivityId_Y0a33",
      "schedule": {
        "ref": "DefaultSchedule"
      },
      "scriptUri": "s3://com.funplusgame.bidata/dev/sql1.2/bv/agg_prepare.sql",
      "maxActiveInstances": "1",
      "runsOn": {
        "ref": "ResourceId_DKg17"
      },
      "onFail": {
        "ref": "ActionId_zo69P"
      },
      "scriptArgument": "'#{format(minusHours(@scheduledStartTime,2),\"YYYY-MM-dd\")}'",
      "dependsOn": [
        {
          "ref": "ActivityId_Kjxz2"
        },
        {
          "ref": "ActivityId_Rekh5"
        }
      ],
      "type": "SqlActivity",
      "database": {
        "ref": "RedshiftDatabaseId_XrVon"
      }
    },
    {
      "name": "RawMissionDaily",
      "id": "ActivityId_qFyfv",
      "schedule": {
        "ref": "DefaultSchedule"
      },
      "maxActiveInstances": "1",
      "command": "/home/hadoop/hive/bin/hive -i s3://com.funplus.datawarehouse/sql_logs/bv/app=bv.global.prod/init-bv.global.prod-reports-#{format(minusHours(@scheduledStartTime,2),'YYYYMMddHHmmss')}.hql -f s3://com.funplusgame.bidata/dev/hive/bv_1_2/raw_mission_daily.hql",
      "lateAfterTimeout": "1 Hour",
      "onFail": {
        "ref": "ActionId_zo69P"
      },
      "workerGroup": "wg-emr-fruitscoot",
      "dependsOn": {
        "ref": "ActivityId_vpD6N"
      },
      "type": "ShellCommandActivity",
      "onLateAction": {
        "ref": "ActionId_NAcg4"
      }
    },
    {
      "name": "FactPlayerResources2Reshift",
      "id": "ActivityId_G18H1",
      "schedule": {
        "ref": "DefaultSchedule"
      },
      "maxActiveInstances": "1",
      "command": "/usr/bin/python /mnt/funplus/analytics/python/copy_to_redshift.py  -c=/mnt/funplus/analytics/python/conf/bv_1_2.yaml  --table=processed.fact_player_resources --s3path=s3://com.funplus.datawarehouse/bv_1_2/copy/fact_player_resources/app=bv.all.prod/dt=#{format(minusHours(@scheduledStartTime,2),'YYYY-MM-dd')}/ --command-options=\"EMPTYASNULL DELIMITER '\\t' GZIP\" --pre-sql=\"delete from processed.fact_player_resources where date = '#{format(minusHours(@scheduledStartTime,2),\"YYYY-MM-dd\")}' and app_id like '%bv%';\"",
      "lateAfterTimeout": "5 Hours",
      "onFail": {
        "ref": "ActionId_zo69P"
      },
      "workerGroup": "wg-ec2-bv",
      "dependsOn": {
        "ref": "ActivityId_W8h6y"
      },
      "type": "ShellCommandActivity",
      "onLateAction": {
        "ref": "ActionId_NAcg4"
      }
    },
    {
      "name": "Hourly",
      "id": "DefaultSchedule",
      "startDateTime": "2015-03-13T01:45:00",
      "period": "2 Hours",
      "type": "Schedule"
    },
    {
      "name": "FactMissionObjective2Redshift",
      "id": "ActivityId_MG8CV",
      "schedule": {
        "ref": "DefaultSchedule"
      },
      "maxActiveInstances": "1",
      "command": "/usr/bin/python /mnt/funplus/analytics/python/copy_to_redshift.py  -c=/mnt/funplus/analytics/python/conf/bv_1_2.yaml  --table=processed.fact_mission_objective --s3path=s3://com.funplus.datawarehouse/bv_1_2/copy/fact_mission_objective/app=bv.all.prod/dt=#{format(minusHours(@scheduledStartTime,2),'YYYY-MM-dd')}/ --command-options=\"EMPTYASNULL DELIMITER '\\t' GZIP\" --pre-sql=\"delete from processed.fact_mission_objective where date = '#{format(minusHours(@scheduledStartTime,2),\"YYYY-MM-dd\")}' and app_id like '%bv%';\"",
      "lateAfterTimeout": "5 Hours",
      "onFail": {
        "ref": "ActionId_zo69P"
      },
      "workerGroup": "wg-ec2-bv",
      "dependsOn": {
        "ref": "ActivityId_x5g22"
      },
      "type": "ShellCommandActivity",
      "onLateAction": {
        "ref": "ActionId_NAcg4"
      }
    },
    {
      "name": "RawSessionStartDaily",
      "id": "ActivityId_IW3sD",
      "schedule": {
        "ref": "DefaultSchedule"
      },
      "maxActiveInstances": "1",
      "command": "/home/hadoop/hive/bin/hive -i s3://com.funplus.datawarehouse/sql_logs/bv/app=bv.global.prod/init-bv.global.prod-reports-#{format(minusHours(@scheduledStartTime,2),'YYYYMMddHHmmss')}.hql -f s3://com.funplusgame.bidata/dev/hive/bv_1_2/raw_session_start_daily.hql",
      "lateAfterTimeout": "1 Hour",
      "onFail": {
        "ref": "ActionId_zo69P"
      },
      "workerGroup": "wg-emr-fruitscoot",
      "type": "ShellCommandActivity",
      "dependsOn": {
        "ref": "ActivityId_vpD6N"
      },
      "onLateAction": {
        "ref": "ActionId_NAcg4"
      }
    },
    {
      "name": "RedshiftDatabase",
      "id": "RedshiftDatabaseId_XrVon",
      "databaseName": "bv",
      "username": "biadmin",
      "*password": "Halfquest_2014",
      "clusterId": "bicluster-funplus",
      "type": "RedshiftDatabase"
    },
    {
      "name": "RawAdjustDaily2Redshift",
      "id": "ActivityId_UBlkr",
      "schedule": {
        "ref": "DefaultSchedule"
      },
      "maxActiveInstances": "1",
      "command": "/usr/bin/python /mnt/funplus/analytics/python/copy_to_redshift.py  -c=/mnt/funplus/analytics/python/conf/bv_1_2.yaml  --table=raw_data.raw_adjust_daily --s3path=s3://com.funplus.datawarehouse/bv_1_2/copy/raw_adjust_daily/app=bv.all.prod/dt=#{format(minusHours(@scheduledStartTime,2),'YYYY-MM-dd')}/ --command-options=\"EMPTYASNULL DELIMITER '\\t' GZIP\" --pre-sql=\"delete from raw_data.raw_adjust_daily where trunc(timestamp) > ('#{format(minusHours(@scheduledStartTime,2),\"YYYY-MM-dd\")}' - 7) and app_id like '%bv%';\"",
      "lateAfterTimeout": "5 Hours",
      "onFail": {
        "ref": "ActionId_zo69P"
      },
      "workerGroup": "wg-ec2-bv",
      "dependsOn": {
        "ref": "ActivityId_xqGEH"
      },
      "type": "ShellCommandActivity",
      "onLateAction": {
        "ref": "ActionId_NAcg4"
      }
    },
    {
      "name": "FactTutorial2Redshift",
      "id": "ActivityId_8TNZN",
      "schedule": {
        "ref": "DefaultSchedule"
      },
      "maxActiveInstances": "1",
      "command": "/usr/bin/python /mnt/funplus/analytics/python/copy_to_redshift.py  -c=/mnt/funplus/analytics/python/conf/bv_1_2.yaml  --table=processed.fact_tutorial --s3path=s3://com.funplus.datawarehouse/bv_1_2/copy/fact_tutorial/app=bv.all.prod/dt=#{format(minusHours(@scheduledStartTime,2),'YYYY-MM-dd')}/ --command-options=\"EMPTYASNULL DELIMITER '\\t' GZIP\" --pre-sql=\"delete from processed.fact_tutorial where date = '#{format(minusHours(@scheduledStartTime,2),\"YYYY-MM-dd\")}' and app_id like '%bv%';\"",
      "lateAfterTimeout": "5 Hours",
      "onFail": {
        "ref": "ActionId_zo69P"
      },
      "workerGroup": "wg-ec2-bv",
      "dependsOn": {
        "ref": "ActivityId_EvRbq"
      },
      "type": "ShellCommandActivity",
      "onLateAction": {
        "ref": "ActionId_NAcg4"
      }
    },
    {
      "name": "DependencyFailureNotification",
      "id": "ActionId_AGrl7",
      "message": "s3://com.funplus.datawarehouse/semaphores/bv/app=bv.global.prod/job=raw_events/year=#{format(minusHours(node.@scheduledStartTime,2),'YYYY')}/month=#{format(minusHours(node.@scheduledStartTime,2),'MM')}/day=#{format(minusHours(node.@scheduledStartTime,2),'dd')}/hour=#{format(minusHours(node.@scheduledStartTime,2),'HH')}/SUCCESS does not exist.\nStart Time: #{node.@actualStartTime}\nEnd Time: #{node.@actualEndTime}\n#{node.errorMessage}\n#{node.errorStackTrace}",
      "subject": "FAILURE: bv.global.prod-ALL-REPORTS-DAILY - DEPENDENCY NOT COMPLETED #{node.name} #{format(minusHours(node.@scheduledStartTime,2),\"YYYY-MM-dd\")}\n",
      "topicArn": "arn:aws:sns:us-west-2:921287511715:data-notification",
      "role": "DataPipelineDefaultRole",
      "type": "SnsAlarm"
    },
    {
      "name": "TmpUserPayment",
      "id": "ActivityId_EDFMn",
      "schedule": {
        "ref": "DefaultSchedule"
      },
      "maxActiveInstances": "1",
      "command": "/home/hadoop/hive/bin/hive -i s3://com.funplus.datawarehouse/sql_logs/bv/app=bv.global.prod/init-bv.global.prod-reports-#{format(minusHours(@scheduledStartTime,2),'YYYYMMddHHmmss')}.hql -f s3://com.funplusgame.bidata/dev/hive/bv_1_2/tmp_user_payment.hql",
      "lateAfterTimeout": "5 Hours",
      "onFail": {
        "ref": "ActionId_zo69P"
      },
      "workerGroup": "wg-emr-fruitscoot",
      "dependsOn": {
        "ref": "ActivityId_RUNZH"
      },
      "type": "ShellCommandActivity",
      "onLateAction": {
        "ref": "ActionId_NAcg4"
      }
    },
    {
      "name": "FactMission2Redshift",
      "id": "ActivityId_yWHtg",
      "schedule": {
        "ref": "DefaultSchedule"
      },
      "maxActiveInstances": "1",
      "command": "/usr/bin/python /mnt/funplus/analytics/python/copy_to_redshift.py  -c=/mnt/funplus/analytics/python/conf/bv_1_2.yaml  --table=processed.fact_mission --s3path=s3://com.funplus.datawarehouse/bv_1_2/copy/fact_mission/app=bv.all.prod/dt=#{format(minusHours(@scheduledStartTime,2),'YYYY-MM-dd')}/ --command-options=\"EMPTYASNULL DELIMITER '\\t' GZIP\" --pre-sql=\"delete from processed.fact_mission where date = '#{format(minusHours(@scheduledStartTime,2),\"YYYY-MM-dd\")}' and app_id like '%bv%';\"",
      "lateAfterTimeout": "5 Hours",
      "onFail": {
        "ref": "ActionId_zo69P"
      },
      "workerGroup": "wg-ec2-bv",
      "dependsOn": {
        "ref": "ActivityId_PqlrT"
      },
      "type": "ShellCommandActivity",
      "onLateAction": {
        "ref": "ActionId_NAcg4"
      }
    },
    {
      "name": "DimUserYesterdayCheck",
      "id": "PreconditionId_0uWai",
      "retryDelay": "5 Minutes",
      "lateAfterTimeout": "5 Hours",
      "role": "DataPipelineDefaultRole",
      "onFail": {
        "ref": "ActionId_zo69P"
      },
      "s3Prefix": "s3://com.funplus.datawarehouse/semaphores/bv/app=bv.global.prod/job=dim_user/year=#{format(minusHours(@scheduledStartTime,24),'YYYY')}/month=#{format(minusHours(@scheduledStartTime,24),'MM')}/day=#{format(minusHours(@scheduledStartTime,24),'dd')}",
      "type": "S3PrefixNotEmpty",
      "onLateAction": {
        "ref": "ActionId_NAcg4"
      }
    },
    {
      "name": "EC2Resource",
      "id": "ResourceId_DKg17",
      "terminateAfter": "1 Hour",
      "instanceType": "m1.medium",
      "keyPair": "bidev-keypair",
      "schedule": {
        "ref": "DefaultSchedule"
      },
      "maxActiveInstances": "1",
      "role": "DataPipelineDefaultRole",
      "resourceRole": "DataPipelineDefaultResourceRole",
      "type": "Ec2Resource"
    },
    {
      "name": "FactSession",
      "id": "ActivityId_Fgzy2",
      "schedule": {
        "ref": "DefaultSchedule"
      },
      "maxActiveInstances": "1",
      "command": "/home/hadoop/hive/bin/hive -i s3://com.funplus.datawarehouse/sql_logs/bv/app=bv.global.prod/init-bv.global.prod-reports-#{format(minusHours(@scheduledStartTime,2),'YYYYMMddHHmmss')}.hql -f s3://com.funplusgame.bidata/dev/hive/bv_1_2/fact_session.hql",
      "lateAfterTimeout": "5 Hours",
      "onFail": {
        "ref": "ActionId_zo69P"
      },
      "workerGroup": "wg-emr-fruitscoot",
      "type": "ShellCommandActivity",
      "dependsOn": [
        {
          "ref": "ActivityId_vTkhg"
        },
        {
          "ref": "ActivityId_IW3sD"
        },
        {
          "ref": "ActivityId_zBAbr"
        }
      ],
      "onLateAction": {
        "ref": "ActionId_NAcg4"
      }
    },
    {
      "name": "RawSessionEndDaily",
      "id": "ActivityId_zBAbr",
      "schedule": {
        "ref": "DefaultSchedule"
      },
      "maxActiveInstances": "1",
      "command": "/home/hadoop/hive/bin/hive -i s3://com.funplus.datawarehouse/sql_logs/bv/app=bv.global.prod/init-bv.global.prod-reports-#{format(minusHours(@scheduledStartTime,2),'YYYYMMddHHmmss')}.hql -f s3://com.funplusgame.bidata/dev/hive/bv_1_2/raw_session_end_daily.hql",
      "lateAfterTimeout": "1 Hour",
      "onFail": {
        "ref": "ActionId_zo69P"
      },
      "workerGroup": "wg-emr-fruitscoot",
      "dependsOn": {
        "ref": "ActivityId_vpD6N"
      },
      "type": "ShellCommandActivity",
      "onLateAction": {
        "ref": "ActionId_NAcg4"
      }
    }
  ]
}
