{
    "jsonpaths": [
        "$.app",
        "$.guid",
        "$.uid",
        "$.ref",
        "$.create_time",
        "$.lang",
        "$.cash",
        "$.coins",
        "$.email",
        "$.gender",
        "$.first_name",
        "$.birthday",
        "$.friends_total_count"
    ]
}
