{
  "objects": [
    {
      "name": "ExportOrderTable",
      "id": "ActivityId_oxwNv",
      "schedule": {
        "ref": "DefaultSchedule"
      },
      "maxActiveInstances": "1",
      "onFail": {
        "ref": "ActionId_zo69P"
      },
      "workerGroup": "wg-ec2-bv",
      "dependsOn": {
        "ref": "ActivityId_tekX8"
      },
      "script": "UNLOAD ('SELECT * FROM processed.order_table') TO 's3://com.funplus.analyst/fruitscoot/export/order_table/#{format(minusDays(@scheduledStartTime,1),'YYYYMMdd')}/#{format(minusDays(@scheduledStartTime,1),'YYYYMMdd')}.csv.' CREDENTIALS 'aws_access_key_id=AKIAJRKDNC52OAINDWKA;aws_secret_access_key=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' DELIMITER ',' GZIP ADDQUOTES  ALLOWOVERWRITE PARALLEL OFF",
      "type": "SqlActivity",
      "database": {
        "ref": "RedshiftDatabaseId_d6B0Z"
      }
    },
    {
      "name": "DimUserDevice2Redshift",
      "id": "ActivityId_fkl9h",
      "schedule": {
        "ref": "DefaultSchedule"
      },
      "command": "/usr/bin/python /mnt/funplus/analytics/python/copy_to_redshift.py  -c=/mnt/funplus/analytics/python/conf/fruitscoot_1_2.yaml  --table=processed.dim_user_device --s3path=s3://com.funplus.datawarehouse/fruitscoot_1_2/copy/dim_user_device/app=fruitscoot.all.prod/dt=#{format(minusDays(@scheduledStartTime,1),'YYYY-MM-dd')}/ --command-options=\"EMPTYASNULL DELIMITER '\\t' GZIP\" --pre-sql=\"delete from processed.dim_user_device where app_id like '%fruitscoot%';\"",
      "maxActiveInstances": "1",
      "onFail": {
        "ref": "ActionId_zo69P"
      },
      "workerGroup": "wg-ec2-bv",
      "dependsOn": {
        "ref": "ActivityId_Lg2WS"
      },
      "type": "ShellCommandActivity"
    },
    {
      "name": "FactTutorial2Redshift",
      "id": "ActivityId_8TNZN",
      "schedule": {
        "ref": "DefaultSchedule"
      },
      "maxActiveInstances": "1",
      "command": "/usr/bin/python /mnt/funplus/analytics/python/copy_to_redshift.py  -c=/mnt/funplus/analytics/python/conf/fruitscoot_1_2.yaml  --table=processed.fact_tutorial --s3path=s3://com.funplus.datawarehouse/fruitscoot_1_2/copy/fact_tutorial/app=fruitscoot.all.prod/dt=#{format(minusDays(@scheduledStartTime,1),'YYYY-MM-dd')}/ --command-options=\"EMPTYASNULL DELIMITER '\\t' GZIP\" --pre-sql=\"delete from processed.fact_tutorial where date > ('#{format(minusDays(@scheduledStartTime,1),\"YYYY-MM-dd\")}' - 30) and app_id like '%fruitscoot%';\"",
      "lateAfterTimeout": "5 Hours",
      "onFail": {
        "ref": "ActionId_zo69P"
      },
      "workerGroup": "wg-ec2-bv",
      "dependsOn": {
        "ref": "ActivityId_EvRbq"
      },
      "type": "ShellCommandActivity",
      "onLateAction": {
        "ref": "ActionId_NAcg4"
      }
    },
    {
      "name": "FactMission",
      "id": "ActivityId_PqlrT",
      "schedule": {
        "ref": "DefaultSchedule"
      },
      "maxActiveInstances": "1",
      "command": "/home/hadoop/hive/bin/hive -i s3://com.funplus.datawarehouse/sql_logs/fruitscoot/app=fruitscoot.global.prod/init-fruitscoot.global.prod-reports-#{format(minusDays(@scheduledStartTime,1),'YYYYMMddHHmmss')}.hql -f s3://com.funplusgame.bidata/dev/hive/fruitscoot_1_2/fact_mission_dml.hql",
      "onFail": {
        "ref": "ActionId_zo69P"
      },
      "workerGroup": "wg-emr-fruitscoot",
      "dependsOn": {
        "ref": "ActivityId_qFyfv"
      },
      "type": "ShellCommandActivity"
    },
    {
      "name": "RawLevelupDaily",
      "id": "ActivityId_mkwtxC",
      "schedule": {
        "ref": "DefaultSchedule"
      },
      "maxActiveInstances": "1",
      "command": "/home/hadoop/hive/bin/hive -i s3://com.funplus.datawarehouse/sql_logs/fruitscoot/app=fruitscoot.global.prod/init-fruitscoot.global.prod-reports-#{format(minusDays(@scheduledStartTime,1),'YYYYMMddHHmmss')}.hql -f s3://com.funplusgame.bidata/dev/hive/fruitscoot_1_2/raw_level_up_daily_dml.hql",
      "lateAfterTimeout": "1 Hour",
      "onFail": {
        "ref": "ActionId_zo69P"
      },
      "workerGroup": "wg-emr-fruitscoot",
      "type": "ShellCommandActivity",
      "dependsOn": {
        "ref": "ActivityId_vpD6N"
      },
      "onLateAction": {
        "ref": "ActionId_NAcg4"
      }
    },
    {
      "name": "FactSession",
      "id": "ActivityId_Fgzy2",
      "schedule": {
        "ref": "DefaultSchedule"
      },
      "maxActiveInstances": "1",
      "command": "/home/hadoop/hive/bin/hive -i s3://com.funplus.datawarehouse/sql_logs/fruitscoot/app=fruitscoot.global.prod/init-fruitscoot.global.prod-reports-#{format(minusDays(@scheduledStartTime,1),'YYYYMMddHHmmss')}.hql -f s3://com.funplusgame.bidata/dev/hive/fruitscoot_1_2/fact_session_dml.hql",
      "lateAfterTimeout": "5 Hours",
      "onFail": {
        "ref": "ActionId_zo69P"
      },
      "workerGroup": "wg-emr-fruitscoot",
      "type": "ShellCommandActivity",
      "dependsOn": [
        {
          "ref": "ActivityId_vTkhg"
        },
        {
          "ref": "ActivityId_IW3sD"
        },
        {
          "ref": "ActivityId_zBAbr"
        }
      ],
      "onLateAction": {
        "ref": "ActionId_NAcg4"
      }
    },
    {
      "name": "FactDauSnapshot",
      "id": "ActivityId_otiRD",
      "schedule": {
        "ref": "DefaultSchedule"
      },
      "maxActiveInstances": "1",
      "command": "/home/hadoop/hive/bin/hive -i s3://com.funplus.datawarehouse/sql_logs/fruitscoot/app=fruitscoot.global.prod/init-fruitscoot.global.prod-reports-#{format(minusDays(@scheduledStartTime,1),'YYYYMMddHHmmss')}.hql -f s3://com.funplusgame.bidata/dev/hive/fruitscoot_1_2/fact_dau_snapshot_dml.hql",
      "lateAfterTimeout": "5 Hours",
      "onFail": {
        "ref": "ActionId_zo69P"
      },
      "workerGroup": "wg-emr-fruitscoot",
      "dependsOn": [
        {
          "ref": "ActivityId_EDFMn"
        },
        {
          "ref": "ActivityId_KLJAm"
        },
        {
          "ref": "ActivityId_wFhRn"
        }
      ],
      "type": "ShellCommandActivity",
      "onLateAction": {
        "ref": "ActionId_NAcg4"
      }
    },
    {
      "name": "RawNewUserDaily",
      "id": "ActivityId_vTkhg",
      "schedule": {
        "ref": "DefaultSchedule"
      },
      "maxActiveInstances": "1",
      "command": "/home/hadoop/hive/bin/hive -i s3://com.funplus.datawarehouse/sql_logs/fruitscoot/app=fruitscoot.global.prod/init-fruitscoot.global.prod-reports-#{format(minusDays(@scheduledStartTime,1),'YYYYMMddHHmmss')}.hql -f s3://com.funplusgame.bidata/dev/hive/fruitscoot_1_2/raw_new_user_daily_dml.hql",
      "onFail": {
        "ref": "ActionId_zo69P"
      },
      "workerGroup": "wg-emr-fruitscoot",
      "type": "ShellCommandActivity",
      "dependsOn": {
        "ref": "ActivityId_vpD6N"
      }
    },
    {
      "name": "TmpUserPayment",
      "id": "ActivityId_EDFMn",
      "schedule": {
        "ref": "DefaultSchedule"
      },
      "maxActiveInstances": "1",
      "command": "/home/hadoop/hive/bin/hive -i s3://com.funplus.datawarehouse/sql_logs/fruitscoot/app=fruitscoot.global.prod/init-fruitscoot.global.prod-reports-#{format(minusDays(@scheduledStartTime,1),'YYYYMMddHHmmss')}.hql -f s3://com.funplusgame.bidata/dev/hive/fruitscoot_1_2/tmp_user_payment_dml.hql",
      "lateAfterTimeout": "5 Hours",
      "onFail": {
        "ref": "ActionId_zo69P"
      },
      "workerGroup": "wg-emr-fruitscoot",
      "dependsOn": {
        "ref": "ActivityId_RUNZH"
      },
      "type": "ShellCommandActivity",
      "onLateAction": {
        "ref": "ActionId_NAcg4"
      }
    },
    {
      "name": "TmpUserDailyLogin",
      "id": "ActivityId_KLJAm",
      "schedule": {
        "ref": "DefaultSchedule"
      },
      "maxActiveInstances": "1",
      "command": "/home/hadoop/hive/bin/hive -i s3://com.funplus.datawarehouse/sql_logs/fruitscoot/app=fruitscoot.global.prod/init-fruitscoot.global.prod-reports-#{format(minusDays(@scheduledStartTime,1),'YYYYMMddHHmmss')}.hql -f s3://com.funplusgame.bidata/dev/hive/fruitscoot_1_2/tmp_user_daily_login_dml.hql",
      "onFail": {
        "ref": "ActionId_zo69P"
      },
      "workerGroup": "wg-emr-fruitscoot",
      "dependsOn": [
        {
          "ref": "ActivityId_Fgzy2"
        },
        {
          "ref": "ActivityId_RUNZH"
        }
      ],
      "type": "ShellCommandActivity"
    },
    {
      "name": "DimUser2Redshift",
      "id": "ActivityId_Rekh5",
      "schedule": {
        "ref": "DefaultSchedule"
      },
      "command": "/usr/bin/python /mnt/funplus/analytics/python/copy_to_redshift.py  -c=/mnt/funplus/analytics/python/conf/fruitscoot_1_2.yaml  --table=processed.dim_user --s3path=s3://com.funplus.datawarehouse/fruitscoot_1_2/copy/dim_user/app=fruitscoot.all.prod/dt=#{format(minusDays(@scheduledStartTime,1),'YYYY-MM-dd')}/ --command-options=\"EMPTYASNULL DELIMITER '\\t' GZIP\" --pre-sql=\"delete from processed.dim_user where app_id like '%fruitscoot%';\"",
      "maxActiveInstances": "1",
      "lateAfterTimeout": "5 Hours",
      "onFail": {
        "ref": "ActionId_zo69P"
      },
      "workerGroup": "wg-ec2-bv",
      "dependsOn": {
        "ref": "ActivityId_dkwO2"
      },
      "type": "ShellCommandActivity",
      "onLateAction": {
        "ref": "ActionId_NAcg4"
      }
    },
    {
      "name": "DimUser",
      "id": "ActivityId_dkwO2",
      "precondition": {
        "ref": "PreconditionId_0uWai"
      },
      "schedule": {
        "ref": "DefaultSchedule"
      },
      "maxActiveInstances": "1",
      "command": "/home/hadoop/hive/bin/hive -i s3://com.funplus.datawarehouse/sql_logs/fruitscoot/app=fruitscoot.global.prod/init-fruitscoot.global.prod-reports-#{format(minusDays(@scheduledStartTime,1),'YYYYMMddHHmmss')}.hql --hiveconf rpt_geo=de -f s3://com.funplusgame.bidata/dev/hive/fruitscoot_1_2/dim_user_dml.hql",
      "lateAfterTimeout": "5 Hours",
      "onFail": {
        "ref": "ActionId_zo69P"
      },
      "workerGroup": "wg-emr-fruitscoot",
      "dependsOn": [
        {
          "ref": "ActivityId_wFhRn"
        },
        {
          "ref": "ActivityId_KLJAm"
        },
        {
          "ref": "ActivityId_EDFMn"
        }
      ],
      "type": "ShellCommandActivity",
      "onLateAction": {
        "ref": "ActionId_NAcg4"
      }
    },
    {
      "name": "FactRevenue",
      "id": "ActivityId_RUNZH",
      "schedule": {
        "ref": "DefaultSchedule"
      },
      "maxActiveInstances": "1",
      "command": "/home/hadoop/hive/bin/hive -i s3://com.funplus.datawarehouse/sql_logs/fruitscoot/app=fruitscoot.global.prod/init-fruitscoot.global.prod-reports-#{format(minusDays(@scheduledStartTime,1),'YYYYMMddHHmmss')}.hql -f s3://com.funplusgame.bidata/dev/hive/fruitscoot_1_2/fact_revenue_dml.hql",
      "onFail": {
        "ref": "ActionId_zo69P"
      },
      "workerGroup": "wg-emr-fruitscoot",
      "type": "ShellCommandActivity",
      "dependsOn": {
        "ref": "ActivityId_jytYf"
      }
    },
    {
      "name": "DimUserDivice",
      "id": "ActivityId_Lg2WS",
      "schedule": {
        "ref": "DefaultSchedule"
      },
      "maxActiveInstances": "1",
      "command": "/home/hadoop/hive/bin/hive -i s3://com.funplus.datawarehouse/sql_logs/fruitscoot/app=fruitscoot.global.prod/init-fruitscoot.global.prod-reports-#{format(minusDays(@scheduledStartTime,1),'YYYYMMddHHmmss')}.hql -f s3://com.funplusgame.bidata/dev/hive/fruitscoot_1_2/dim_user_device_dml.hql",
      "onFail": {
        "ref": "ActionId_zo69P"
      },
      "workerGroup": "wg-emr-fruitscoot",
      "dependsOn": {
        "ref": "ActivityId_Fgzy2"
      },
      "type": "ShellCommandActivity"
    },
    {
      "name": "SuccessNotification",
      "id": "ActionId_oZACc",
      "message": "Start Time: #{node.@actualStartTime}\nEnd Time: #{node.@actualEndTime}",
      "subject": "SUCCESS: fruitscoot.global.prod-ALL-REPORTS-DAILY #{node.name} #{format(minusDays(node.@scheduledStartTime,1),\"YYYY-MM-dd\")}\n",
      "topicArn": "arn:aws:sns:us-west-2:921287511715:report-notification",
      "role": "DataPipelineDefaultRole",
      "type": "SnsAlarm"
    },
    {
      "name": "RawMissionDaily",
      "id": "ActivityId_qFyfv",
      "schedule": {
        "ref": "DefaultSchedule"
      },
      "maxActiveInstances": "1",
      "command": "/home/hadoop/hive/bin/hive -i s3://com.funplus.datawarehouse/sql_logs/fruitscoot/app=fruitscoot.global.prod/init-fruitscoot.global.prod-reports-#{format(minusDays(@scheduledStartTime,1),'YYYYMMddHHmmss')}.hql -f s3://com.funplusgame.bidata/dev/hive/fruitscoot_1_2/raw_mission_daily_dml.hql",
      "onFail": {
        "ref": "ActionId_zo69P"
      },
      "workerGroup": "wg-emr-fruitscoot",
      "dependsOn": {
        "ref": "ActivityId_vpD6N"
      },
      "type": "ShellCommandActivity"
    },
    {
      "name": "SemaphoreEnd",
      "id": "ActivityId_1Ueaa",
      "schedule": {
        "ref": "DefaultSchedule"
      },
      "maxActiveInstances": "1",
      "command": "if hadoop fs -test -d s3://com.funplus.datawarehouse/semaphores/fruitscoot/app=fruitscoot.global.prod/job=reports_kpi/year=#{format(minusDays(@scheduledStartTime,1),'YYYY')}/month=#{format(minusDays(@scheduledStartTime,1),'MM')}/day=#{format(minusDays(@scheduledStartTime,1),'dd')}; then hadoop fs -rmr s3://com.funplus.datawarehouse/semaphores/fruitscoot/app=fruitscoot.global.prod/job=reports_kpi/year=#{format(minusDays(@scheduledStartTime,1),'YYYY')}/month=#{format(minusDays(@scheduledStartTime,1),'MM')}/day=#{format(minusDays(@scheduledStartTime,1),'dd')}; fi;\necho \"1\" >SUCCESS;\nhadoop fs -mkdir -p s3://com.funplus.datawarehouse/semaphores/fruitscoot/app=fruitscoot.global.prod/job=reports_kpi/year=#{format(minusDays(@scheduledStartTime,1),'YYYY')}/month=#{format(minusDays(@scheduledStartTime,1),'MM')}/day=#{format(minusDays(@scheduledStartTime,1),'dd')};\nhadoop dfs -put SUCCESS s3://com.funplus.datawarehouse/semaphores/fruitscoot/app=fruitscoot.global.prod/job=reports_kpi/year=#{format(minusDays(@scheduledStartTime,1),'YYYY')}/month=#{format(minusDays(@scheduledStartTime,1),'MM')}/day=#{format(minusDays(@scheduledStartTime,1),'dd')}/;\n",
      "lateAfterTimeout": "10 Hours",
      "onSuccess": {
        "ref": "ActionId_oZACc"
      },
      "onFail": {
        "ref": "ActionId_zo69P"
      },
      "workerGroup": "wg-emr-fruitscoot",
      "dependsOn": [
        {
          "ref": "ActivityId_yWHtg"
        },
        {
          "ref": "ActivityId_MG8CV"
        },
        {
          "ref": "ActivityId_jtmWQ"
        },
        {
          "ref": "ActivityId_SEw9X"
        },
        {
          "ref": "ActivityId_8TNZN"
        },
        {
          "ref": "ActivityId_zWO1s"
        },
        {
          "ref": "ActivityId_7jMov"
        },
        {
          "ref": "ActivityId_jOlhb"
        },
        {
          "ref": "ActivityId_zxtrV"
        },
        {
          "ref": "ActivityId_w1qFX"
        },
        {
          "ref": "ActivityId_dAitq"
        },
        {
          "ref": "ActivityId_dDaWX"
        },
        {
          "ref": "ActivityId_YdTeB"
        },
        {
          "ref": "ActivityId_5z715"
        },
        {
          "ref": "ActivityId_Rekh5"
        },
        {
          "ref": "ActivityId_Kjxz2"
        },
        {
          "ref": "ActivityId_G18H1"
        },
        {
          "ref": "ActivityId_fkl9h"
        },
        {
          "ref": "ActivityId_KPeju"
        },
        {
          "ref": "ActivityId_vZPS3"
        },
        {
          "ref": "ActivityId_oxwNv"
        }
      ],
      "type": "ShellCommandActivity",
      "onLateAction": {
        "ref": "ActionId_NAcg4"
      }
    },
    {
      "name": "SemaphoreStart",
      "id": "ActivityId_KQsvt1C",
      "precondition": {
        "ref": "PreconditionId_cRajL"
      },
      "schedule": {
        "ref": "DefaultSchedule"
      },
      "maxActiveInstances": "1",
      "command": "if hadoop fs -test -d s3://com.funplus.datawarehouse/semaphores/fruitscoot/app=fruitscoot.global.prod/job=fuitscoot-reports/year=#{format(minusDays(@scheduledStartTime,1),'YYYY')}/month=#{format(minusDays(@scheduledStartTime,1),'MM')}/day=#{format(minusDays(@scheduledStartTime,1),'dd')}; then hadoop fs -rmr s3://com.funplus.datawarehouse/semaphores/fruitscoot/app=fruitscoot.global.prod/job=fruitscoot-reports//year=#{format(minusDays(@scheduledStartTime,1),'YYYY')}/month=#{format(minusDays(@scheduledStartTime,1),'MM')}/day=#{format(minusDays(@scheduledStartTime,1),'dd')}; fi",
      "onFail": {
        "ref": "ActionId_zo69P"
      },
      "workerGroup": "wg-emr-fruitscoot",
      "type": "ShellCommandActivity"
    },
    {
      "name": "TmpUserLevelup",
      "id": "ActivityId_wFhRn",
      "schedule": {
        "ref": "DefaultSchedule"
      },
      "maxActiveInstances": "1",
      "command": "/home/hadoop/hive/bin/hive -i s3://com.funplus.datawarehouse/sql_logs/fruitscoot/app=fruitscoot.global.prod/init-fruitscoot.global.prod-reports-#{format(minusDays(@scheduledStartTime,1),'YYYYMMddHHmmss')}.hql -f s3://com.funplusgame.bidata/dev/hive/fruitscoot_1_2/tmp_user_level_dml.hql",
      "onFail": {
        "ref": "ActionId_zo69P"
      },
      "workerGroup": "wg-emr-fruitscoot",
      "dependsOn": {
        "ref": "ActivityId_mMX5X"
      },
      "type": "ShellCommandActivity"
    },
    {
      "name": "FunplusRedshiftDatabase",
      "id": "RedshiftDatabaseId_d6B0Z",
      "region": "us-west-2",
      "databaseName": "fruitscoot",
      "username": "biadmin",
      "*password": "Halfquest_2014",
      "clusterId": "bicluster-funplus",
      "type": "RedshiftDatabase"
    },
    {
      "name": "FactMissionParameter2Redshift",
      "id": "ActivityId_SEw9X",
      "schedule": {
        "ref": "DefaultSchedule"
      },
      "maxActiveInstances": "1",
      "command": "/usr/bin/python /mnt/funplus/analytics/python/copy_to_redshift.py  -c=/mnt/funplus/analytics/python/conf/fruitscoot_1_2.yaml  --table=processed.fact_mission_parameter --s3path=s3://com.funplus.datawarehouse/fruitscoot_1_2/copy/fact_mission_parameter/app=fruitscoot.all.prod/dt=#{format(minusDays(@scheduledStartTime,1),'YYYY-MM-dd')}/ --command-options=\"EMPTYASNULL DELIMITER '\\t' GZIP\" --pre-sql=\"delete from processed.fact_mission_parameter where date > ('#{format(minusDays(@scheduledStartTime,1),\"YYYY-MM-dd\")}' - 30) and app_id like '%fruitscoot%';\"",
      "lateAfterTimeout": "5 Hours",
      "onFail": {
        "ref": "ActionId_zo69P"
      },
      "workerGroup": "wg-ec2-bv",
      "dependsOn": {
        "ref": "ActivityId_x5g22"
      },
      "type": "ShellCommandActivity",
      "onLateAction": {
        "ref": "ActionId_zo69P"
      }
    },
    {
      "name": "EventsDailyDependencyCheck-AllRawEvents",
      "id": "PreconditionId_cRajL",
      "retryDelay": "5 Minutes",
      "lateAfterTimeout": "5 Hours",
      "role": "DataPipelineDefaultRole",
      "onFail": {
        "ref": "ActionId_AGrl7"
      },
      "s3Prefix": "s3://com.funplus.datawarehouse/semaphores/fruitscoot/app=fruitscoot.global.prod/job=raw_events/year=#{format(minusDays(@scheduledStartTime,1),'YYYY')}/month=#{format(minusDays(@scheduledStartTime,1),'MM')}/day=#{format(minusDays(@scheduledStartTime,1),'dd')}/hour=#{format(minusDays(@scheduledStartTime,1),'HH')}",
      "type": "S3PrefixNotEmpty",
      "onLateAction": {
        "ref": "ActionId_AGrl7"
      }
    },
    {
      "name": "SemaphoreFailureNotification",
      "id": "ActionId_PJpcO",
      "message": "Pipeline Schedule Run Time: #{node.@scheduledStartTime}\nPipeline Execution Start Time: #{node.@actualStartTime}\nPipeline Execution End Time: #{node.@actualEndTime}\nError Message:\n#{node.errorMessage}\nError StackTrace:\n#{node.errorStackTrace}",
      "subject": "FAILURE: fruitscoot.global.prod-ALL-REPORTS-DAILY - SEMAPHORE #{node.name} #{format(minusDays(node.@scheduledStartTime,1),\"YYYY-MM-dd\")}\n",
      "topicArn": "arn:aws:sns:us-west-2:921287511715:report-notification",
      "role": "DataPipelineDefaultRole",
      "type": "SnsAlarm"
    },
    {
      "name": "ExecuteAggRetentionSql",
      "id": "ActivityId_zWO1s",
      "schedule": {
        "ref": "DefaultSchedule"
      },
      "scriptUri": "s3://com.funplusgame.bidata/dev/sql1.2/fruitscoot/agg_retention.sql",
      "maxActiveInstances": "1",
      "onFail": {
        "ref": "ActionId_zo69P"
      },
      "workerGroup": "wg-ec2-bv",
      "dependsOn": {
        "ref": "ActivityId_Y0a33"
      },
      "type": "SqlActivity",
      "database": {
        "ref": "RedshiftDatabaseId_d6B0Z"
      }
    },
    {
      "name": "ExecuteAggKPISql",
      "id": "ActivityId_7jMov",
      "schedule": {
        "ref": "DefaultSchedule"
      },
      "scriptUri": "s3://com.funplusgame.bidata/dev/sql1.2/fruitscoot/agg_kpi.sql",
      "maxActiveInstances": "1",
      "onFail": {
        "ref": "ActionId_zo69P"
      },
      "workerGroup": "wg-ec2-bv",
      "dependsOn": [
        {
          "ref": "ActivityId_Y0a33"
        },
        {
          "ref": "ActivityId_6u6jn"
        }
      ],
      "type": "SqlActivity",
      "database": {
        "ref": "RedshiftDatabaseId_d6B0Z"
      }
    },
    {
      "name": "Daily",
      "id": "DefaultSchedule",
      "startDateTime": "2015-03-25T03:15:00",
      "period": "1 Day",
      "type": "Schedule"
    },
    {
      "name": "RawAdjustDaily2Redshift",
      "id": "ActivityId_UBlkr",
      "schedule": {
        "ref": "DefaultSchedule"
      },
      "maxActiveInstances": "1",
      "command": "/usr/bin/python /mnt/funplus/analytics/python/copy_to_redshift.py  -c=/mnt/funplus/analytics/python/conf/fruitscoot_1_2.yaml  --table=raw_data.raw_adjust_daily --s3path=s3://com.funplus.datawarehouse/fruitscoot_1_2/copy/raw_adjust_daily/app=fruitscoot.all.prod/dt=#{format(minusDays(@scheduledStartTime,1),'YYYY-MM-dd')}/ --command-options=\"EMPTYASNULL DELIMITER '\\t' GZIP\" --pre-sql=\"delete from raw_data.raw_adjust_daily where trunc(timestamp) > ('#{format(minusDays(@scheduledStartTime,1),\"YYYY-MM-dd\")}' - 30);\"",
      "onFail": {
        "ref": "ActionId_zo69P"
      },
      "workerGroup": "wg-ec2-bv",
      "dependsOn": {
        "ref": "ActivityId_xqGEH"
      },
      "type": "ShellCommandActivity"
    },
    {
      "name": "FactTutorial",
      "id": "ActivityId_EvRbq",
      "schedule": {
        "ref": "DefaultSchedule"
      },
      "maxActiveInstances": "1",
      "command": "/home/hadoop/hive/bin/hive -i s3://com.funplus.datawarehouse/sql_logs/fruitscoot/app=fruitscoot.global.prod/init-fruitscoot.global.prod-reports-#{format(minusDays(@scheduledStartTime,1),'YYYYMMddHHmmss')}.hql -f s3://com.funplusgame.bidata/dev/hive/fruitscoot_1_2/fact_tutorial_dml.hql",
      "lateAfterTimeout": "5 Hours",
      "onFail": {
        "ref": "ActionId_zo69P"
      },
      "workerGroup": "wg-emr-fruitscoot",
      "dependsOn": {
        "ref": "ActivityId_n4GgK"
      },
      "type": "ShellCommandActivity",
      "onLateAction": {
        "ref": "ActionId_NAcg4"
      }
    },
    {
      "name": "TimeoutNotification",
      "id": "ActionId_NAcg4",
      "message": "Task: #{node.name} is timedout",
      "subject": "TIMEOUT: fruitscoot.global.prod-ALL-REPORTS-DAILY #{node.name} #{format(minusDays(node.@scheduledStartTime,1),\"YYYY-MM-dd\")}\n",
      "topicArn": "arn:aws:sns:us-west-2:921287511715:report-notification",
      "role": "DataPipelineDefaultRole",
      "type": "SnsAlarm"
    },
    {
      "name": "FactPlayerResources",
      "id": "ActivityId_W8h6y",
      "schedule": {
        "ref": "DefaultSchedule"
      },
      "maxActiveInstances": "1",
      "command": "/home/hadoop/hive/bin/hive -i s3://com.funplus.datawarehouse/sql_logs/fruitscoot/app=fruitscoot.global.prod/init-fruitscoot.global.prod-reports-#{format(minusDays(@scheduledStartTime,1),'YYYYMMddHHmmss')}.hql -f s3://com.funplusgame.bidata/dev/hive/fruitscoot_1_2/fact_player_resources_dml.hql",
      "onFail": {
        "ref": "ActionId_zo69P"
      },
      "workerGroup": "wg-emr-fruitscoot",
      "dependsOn": [
        {
          "ref": "ActivityId_mkwtxC"
        },
        {
          "ref": "ActivityId_jytYf"
        },
        {
          "ref": "ActivityId_IW3sD"
        }
      ],
      "type": "ShellCommandActivity"
    },
    {
      "name": "DimUserPostStep",
      "id": "ActivityId_zxtrV",
      "schedule": {
        "ref": "DefaultSchedule"
      },
      "command": "if hadoop fs -test -d s3://com.funplus.datawarehouse/semaphores/fruitscoot/app=fruitscoot.global.prod/job=dim_user/year=#{format(minusDays(@scheduledStartTime,1),'YYYY')}/month=#{format(minusDays(@scheduledStartTime,1),'MM')}/day=#{format(minusDays(@scheduledStartTime,1),'dd')}; then hadoop fs -rmr s3://com.funplus.datawarehouse/semaphores/fruitscoot/app=fruitscoot.global.prod/job=dim_user/year=#{format(minusDays(@scheduledStartTime,1),'YYYY')}/month=#{format(minusDays(@scheduledStartTime,1),'MM')}/day=#{format(minusDays(@scheduledStartTime,1),'dd')}; fi\\necho \\\"1\\\" > SUCCESS;\\nhadoop fs -mkdir -p s3://com.funplus.datawarehouse/semaphores/fruitscoot/app=fruitscoot.global.prod/job=dim_user/year=#{format(minusDays(@scheduledStartTime,1),'YYYY')}/month=#{format(minusDays(@scheduledStartTime,1),'MM')}/day=#{format(minusDays(@scheduledStartTime,1),'dd')};\\nhadoop fs -put SUCCESS s3://com.funplus.datawarehouse/semaphores/fruitscoot/app=fruitscoot.global.prod/job=dim_user/year=#{format(minusDays(@scheduledStartTime,1),'YYYY')}/month=#{format(minusDays(@scheduledStartTime,1),'MM')}/day=#{format(minusDays(@scheduledStartTime,1),'dd')}/;",
      "workerGroup": "wg-emr-fruitscoot",
      "dependsOn": {
        "ref": "ActivityId_dkwO2"
      },
      "type": "ShellCommandActivity"
    },
    {
      "name": "RawSessionEndDaily",
      "id": "ActivityId_zBAbr",
      "schedule": {
        "ref": "DefaultSchedule"
      },
      "maxActiveInstances": "1",
      "command": "/home/hadoop/hive/bin/hive -i s3://com.funplus.datawarehouse/sql_logs/fruitscoot/app=fruitscoot.global.prod/init-fruitscoot.global.prod-reports-#{format(minusDays(@scheduledStartTime,1),'YYYYMMddHHmmss')}.hql -f s3://com.funplusgame.bidata/dev/hive/fruitscoot_1_2/raw_session_end_daily_dml.hql",
      "onFail": {
        "ref": "ActionId_zo69P"
      },
      "workerGroup": "wg-emr-fruitscoot",
      "dependsOn": {
        "ref": "ActivityId_vpD6N"
      },
      "type": "ShellCommandActivity"
    },
    {
      "name": "DependencyFailureNotification",
      "id": "ActionId_AGrl7",
      "message": "s3://com.funplus.datawarehouse/semaphores/fruitscoot/app=fruitscoot.global.prod/job=raw_events/year=#{format(minusDays(node.@scheduledStartTime,1),'YYYY')}/month=#{format(minusDays(node.@scheduledStartTime,1),'MM')}/day=#{format(minusDays(node.@scheduledStartTime,1),'dd')}/hour=#{format(minusDays(node.@scheduledStartTime,1),'HH')}/SUCCESS does not exist.\nStart Time: #{node.@actualStartTime}\nEnd Time: #{node.@actualEndTime}\n#{node.errorMessage}\n#{node.errorStackTrace}",
      "subject": "FAILURE: fruitscoot.global.prod-ALL-REPORTS-DAILY - DEPENDENCY NOT COMPLETED #{node.name} #{format(minusDays(node.@scheduledStartTime,1),\"YYYY-MM-dd\")}\n",
      "topicArn": "arn:aws:sns:us-west-2:921287511715:report-notification",
      "role": "DataPipelineDefaultRole",
      "type": "SnsAlarm"
    },
    {
      "name": "FactMissionCollections",
      "id": "ActivityId_x5g22",
      "schedule": {
        "ref": "DefaultSchedule"
      },
      "maxActiveInstances": "1",
      "command": "/home/hadoop/hive/bin/hive -i s3://com.funplus.datawarehouse/sql_logs/fruitscoot/app=fruitscoot.global.prod/init-fruitscoot.global.prod-reports-#{format(minusDays(@scheduledStartTime,1),'YYYYMMddHHmmss')}.hql -f s3://com.funplusgame.bidata/dev/hive/fruitscoot_1_2/fact_mission_collections_dml.hql",
      "onFail": {
        "ref": "ActionId_zo69P"
      },
      "workerGroup": "wg-emr-fruitscoot",
      "dependsOn": {
        "ref": "ActivityId_qFyfv"
      },
      "type": "ShellCommandActivity"
    },
    {
      "name": "FactRevenue2Redshift",
      "id": "ActivityId_jOlhb",
      "schedule": {
        "ref": "DefaultSchedule"
      },
      "command": "/usr/bin/python /mnt/funplus/analytics/python/copy_to_redshift.py  -c=/mnt/funplus/analytics/python/conf/fruitscoot_1_2.yaml  --table=processed.fact_revenue --s3path=s3://com.funplus.datawarehouse/fruitscoot_1_2/copy/fact_revenue/app=fruitscoot.all.prod/dt=#{format(minusDays(@scheduledStartTime,1),'YYYY-MM-dd')}/ --command-options=\"EMPTYASNULL DELIMITER '\\t' GZIP\" --pre-sql=\"delete from processed.fact_revenue where date > ('#{format(minusDays(@scheduledStartTime,1),\"YYYY-MM-dd\")}' - 30) AND app_id like '%fruitscoot%';\"",
      "maxActiveInstances": "1",
      "onFail": {
        "ref": "ActionId_zo69P"
      },
      "workerGroup": "wg-ec2-bv",
      "dependsOn": {
        "ref": "ActivityId_RUNZH"
      },
      "type": "ShellCommandActivity"
    },
    {
      "name": "FactMission2Redshift",
      "id": "ActivityId_yWHtg",
      "schedule": {
        "ref": "DefaultSchedule"
      },
      "maxActiveInstances": "1",
      "command": "/usr/bin/python /mnt/funplus/analytics/python/copy_to_redshift.py  -c=/mnt/funplus/analytics/python/conf/fruitscoot_1_2.yaml  --table=processed.fact_mission --s3path=s3://com.funplus.datawarehouse/fruitscoot_1_2/copy/fact_mission/app=fruitscoot.all.prod/dt=#{format(minusDays(@scheduledStartTime,1),'YYYY-MM-dd')}/ --command-options=\"EMPTYASNULL DELIMITER '\\t' GZIP\" --pre-sql=\"delete from processed.fact_mission where date > ('#{format(minusDays(@scheduledStartTime,1),\"YYYY-MM-dd\")}' - 30) and app_id like '%fruitscoot%';\"",
      "onFail": {
        "ref": "ActionId_zo69P"
      },
      "workerGroup": "wg-ec2-bv",
      "dependsOn": {
        "ref": "ActivityId_PqlrT"
      },
      "type": "ShellCommandActivity"
    },
    {
      "name": "RawSessionStartDaily",
      "id": "ActivityId_IW3sD",
      "schedule": {
        "ref": "DefaultSchedule"
      },
      "maxActiveInstances": "1",
      "command": "/home/hadoop/hive/bin/hive -i s3://com.funplus.datawarehouse/sql_logs/fruitscoot/app=fruitscoot.global.prod/init-fruitscoot.global.prod-reports-#{format(minusDays(@scheduledStartTime,1),'YYYYMMddHHmmss')}.hql -f s3://com.funplusgame.bidata/dev/hive/fruitscoot_1_2/raw_session_start_daily_dml.hql",
      "onFail": {
        "ref": "ActionId_zo69P"
      },
      "workerGroup": "wg-emr-fruitscoot",
      "type": "ShellCommandActivity",
      "dependsOn": {
        "ref": "ActivityId_vpD6N"
      }
    },
    {
      "name": "FactLevelup2Redshift",
      "id": "ActivityId_5z715",
      "schedule": {
        "ref": "DefaultSchedule"
      },
      "command": "/usr/bin/python /mnt/funplus/analytics/python/copy_to_redshift.py  -c=/mnt/funplus/analytics/python/conf/fruitscoot_1_2.yaml  --table=processed.fact_levelup --s3path=s3://com.funplus.datawarehouse/fruitscoot_1_2/copy/fact_levelup/app=fruitscoot.all.prod/dt=#{format(minusDays(@scheduledStartTime,1),'YYYY-MM-dd')}/ --command-options=\"EMPTYASNULL DELIMITER '\\t' GZIP\" --pre-sql=\"delete from processed.fact_levelup where levelup_date > ('#{format(minusDays(@scheduledStartTime,1),\"YYYY-MM-dd\")}' - 30) and app_id like '%fruitscoot%';\"",
      "maxActiveInstances": "1",
      "onFail": {
        "ref": "ActionId_zo69P"
      },
      "workerGroup": "wg-ec2-bv",
      "dependsOn": {
        "ref": "ActivityId_mMX5X"
      },
      "type": "ShellCommandActivity"
    },
    {
      "name": "RawAdjustDaily",
      "id": "ActivityId_xqGEH",
      "schedule": {
        "ref": "DefaultSchedule"
      },
      "maxActiveInstances": "1",
      "command": "/home/hadoop/hive/bin/hive -i s3://com.funplus.datawarehouse/sql_logs/fruitscoot/app=fruitscoot.global.prod/init-fruitscoot.global.prod-reports-#{format(minusDays(@scheduledStartTime,1),'YYYYMMddHHmmss')}.hql -f s3://com.funplusgame.bidata/dev/hive/fruitscoot_1_2/raw_adjust_daily_dml.hql",
      "onFail": {
        "ref": "ActionId_zo69P"
      },
      "workerGroup": "wg-emr-fruitscoot",
      "dependsOn": {
        "ref": "ActivityId_vpD6N"
      },
      "type": "ShellCommandActivity"
    },
    {
      "name": "ExecuteAggPrepareSql",
      "id": "ActivityId_Y0a33",
      "schedule": {
        "ref": "DefaultSchedule"
      },
      "scriptUri": "s3://com.funplusgame.bidata/dev/sql1.2/fruitscoot/agg_prepare.sql",
      "maxActiveInstances": "1",
      "onFail": {
        "ref": "ActionId_zo69P"
      },
      "scriptArgument": "'#{format(minusDays(@scheduledStartTime,1),\"YYYY-MM-dd\")}'",
      "workerGroup": "wg-ec2-bv",
      "dependsOn": [
        {
          "ref": "ActivityId_Kjxz2"
        },
        {
          "ref": "ActivityId_Rekh5"
        },
        {
          "ref": "ActivityId_6u6jn"
        }
      ],
      "type": "SqlActivity",
      "database": {
        "ref": "RedshiftDatabaseId_d6B0Z"
      }
    },
    {
      "name": "ScriptSetup",
      "id": "ActivityId_vpD6N",
      "schedule": {
        "ref": "DefaultSchedule"
      },
      "scriptUri": "s3://com.funplusgame.bidata/dev/scripts/reports_script_generator.sh",
      "maxActiveInstances": "1",
      "lateAfterTimeout": "5 Hours",
      "onFail": {
        "ref": "ActionId_zo69P"
      },
      "scriptArgument": [
        "-a fruitscoot.global.prod",
        "-f s3://com.funplusgame.bidata/dev/sql/init.sql",
        "-d #{format(minusDays(@scheduledStartTime,1),'YYYY-MM-dd HH:mm:ss')}",
        "-o s3://com.funplus.datawarehouse/sql_logs/fruitscoot/app=fruitscoot.global.prod/init-fruitscoot.global.prod-reports-#{format(minusDays(@scheduledStartTime,1),'YYYYMMddHHmmss')}.hql",
        "-b 30",
        "-A fruitscoot.all.prod"
      ],
      "workerGroup": "wg-emr-fruitscoot",
      "dependsOn": {
        "ref": "ActivityId_KQsvt1C"
      },
      "type": "ShellCommandActivity",
      "onLateAction": {
        "ref": "ActionId_NAcg4"
      }
    },
    {
      "name": "FactMissionObjective2Redshift",
      "id": "ActivityId_MG8CV",
      "schedule": {
        "ref": "DefaultSchedule"
      },
      "maxActiveInstances": "1",
      "command": "/usr/bin/python /mnt/funplus/analytics/python/copy_to_redshift.py  -c=/mnt/funplus/analytics/python/conf/fruitscoot_1_2.yaml  --table=processed.fact_mission_objective --s3path=s3://com.funplus.datawarehouse/fruitscoot_1_2/copy/fact_mission_objective/app=fruitscoot.all.prod/dt=#{format(minusDays(@scheduledStartTime,1),'YYYY-MM-dd')}/ --command-options=\"EMPTYASNULL DELIMITER '\\t' GZIP\" --pre-sql=\"delete from processed.fact_mission_objective where date > ('#{format(minusDays(@scheduledStartTime,1),\"YYYY-MM-dd\")}' - 30) and app_id like '%fruitscoot%';\"",
      "onFail": {
        "ref": "ActionId_zo69P"
      },
      "workerGroup": "wg-ec2-bv",
      "dependsOn": {
        "ref": "ActivityId_x5g22"
      },
      "type": "ShellCommandActivity"
    },
    {
      "name": "ExecuteTabMissionCompletion",
      "id": "ActivityId_vZPS3",
      "schedule": {
        "ref": "DefaultSchedule"
      },
      "scriptUri": "s3://com.funplusgame.bidata/dev/sql1.2/fruitscoot/tab_mission_completion.sql",
      "maxActiveInstances": "1",
      "onFail": {
        "ref": "ActionId_zo69P"
      },
      "workerGroup": "wg-ec2-bv",
      "dependsOn": {
        "ref": "ActivityId_Y0a33"
      },
      "type": "SqlActivity",
      "database": {
        "ref": "RedshiftDatabaseId_d6B0Z"
      }
    },
    {
      "name": "ExecuteOrderTable",
      "id": "ActivityId_tekX8",
      "schedule": {
        "ref": "DefaultSchedule"
      },
      "scriptUri": "s3://com.funplusgame.bidata/dev/sql1.2/fruitscoot/order_table.sql",
      "maxActiveInstances": "1",
      "onFail": {
        "ref": "ActionId_zo69P"
      },
      "workerGroup": "wg-ec2-bv",
      "dependsOn": {
        "ref": "ActivityId_Y0a33"
      },
      "type": "SqlActivity",
      "database": {
        "ref": "RedshiftDatabaseId_d6B0Z"
      }
    },
    {
      "name": "Failure Notification",
      "id": "ActionId_zo69P",
      "message": "Start Time: #{node.@actualStartTime}\nEnd Time: #{node.@actualEndTime}",
      "subject": "FAILURE: fruitscoot.global.prod-ALL-REPORTS-DAILY - #{node.name} #{format(minusDays(node.@scheduledStartTime,1),\"YYYY-MM-dd\")}",
      "topicArn": "arn:aws:sns:us-west-2:921287511715:report-notification",
      "role": "DataPipelineDefaultRole",
      "type": "SnsAlarm"
    },
    {
      "name": "FactPlayerResources2Reshift",
      "id": "ActivityId_G18H1",
      "schedule": {
        "ref": "DefaultSchedule"
      },
      "maxActiveInstances": "1",
      "command": "/usr/bin/python /mnt/funplus/analytics/python/copy_to_redshift.py  -c=/mnt/funplus/analytics/python/conf/fruitscoot_1_2.yaml  --table=processed.fact_player_resources --s3path=s3://com.funplus.datawarehouse/fruitscoot_1_2/copy/fact_player_resources/app=fruitscoot.all.prod/dt=#{format(minusDays(@scheduledStartTime,1),'YYYY-MM-dd')}/ --command-options=\"EMPTYASNULL DELIMITER '\\t' GZIP\" --pre-sql=\"delete from processed.fact_player_resources where date > ('#{format(minusDays(@scheduledStartTime,1),\"YYYY-MM-dd\")}' - 30) and app_id like '%fruitscoot%';\"",
      "onFail": {
        "ref": "ActionId_zo69P"
      },
      "workerGroup": "wg-ec2-bv",
      "dependsOn": {
        "ref": "ActivityId_W8h6y"
      },
      "type": "ShellCommandActivity"
    },
    {
      "name": "ExecuteTabLevelProgression",
      "id": "ActivityId_KPeju",
      "schedule": {
        "ref": "DefaultSchedule"
      },
      "scriptUri": "s3://com.funplusgame.bidata/dev/sql1.2/fruitscoot/tab_level_progression.sql",
      "maxActiveInstances": "1",
      "onFail": {
        "ref": "ActionId_zo69P"
      },
      "workerGroup": "wg-ec2-bv",
      "dependsOn": {
        "ref": "ActivityId_Y0a33"
      },
      "type": "SqlActivity",
      "database": {
        "ref": "RedshiftDatabaseId_d6B0Z"
      }
    },
    {
      "name": "ExecuteAggIAPSql",
      "id": "ActivityId_dAitq",
      "schedule": {
        "ref": "DefaultSchedule"
      },
      "scriptUri": "s3://com.funplusgame.bidata/dev/sql1.2/fruitscoot/agg_iap.sql",
      "maxActiveInstances": "1",
      "onFail": {
        "ref": "ActionId_zo69P"
      },
      "workerGroup": "wg-ec2-bv",
      "dependsOn": {
        "ref": "ActivityId_Y0a33"
      },
      "type": "SqlActivity",
      "database": {
        "ref": "RedshiftDatabaseId_d6B0Z"
      }
    },
    {
      "name": "FactLevelup",
      "id": "ActivityId_mMX5X",
      "schedule": {
        "ref": "DefaultSchedule"
      },
      "maxActiveInstances": "1",
      "command": "/home/hadoop/hive/bin/hive -i s3://com.funplus.datawarehouse/sql_logs/fruitscoot/app=fruitscoot.global.prod/init-fruitscoot.global.prod-reports-#{format(minusDays(@scheduledStartTime,1),'YYYYMMddHHmmss')}.hql -f s3://com.funplusgame.bidata/dev/hive/fruitscoot_1_2/fact_levelup_dml.hql",
      "onFail": {
        "ref": "ActionId_zo69P"
      },
      "workerGroup": "wg-emr-fruitscoot",
      "dependsOn": {
        "ref": "ActivityId_mkwtxC"
      },
      "type": "ShellCommandActivity"
    },
    {
      "name": "FactDauSnapshot2Redshift",
      "id": "ActivityId_Kjxz2",
      "schedule": {
        "ref": "DefaultSchedule"
      },
      "command": "/usr/bin/python /mnt/funplus/analytics/python/copy_to_redshift.py  -c=/mnt/funplus/analytics/python/conf/fruitscoot_1_2.yaml  --table=processed.fact_dau_snapshot --s3path=s3://com.funplus.datawarehouse/fruitscoot_1_2/copy/fact_dau_snapshot/app=fruitscoot.all.prod/dt=#{format(minusDays(@scheduledStartTime,1),'YYYY-MM-dd')}/ --command-options=\"EMPTYASNULL DELIMITER '\\t' GZIP\" --pre-sql=\"delete from processed.fact_dau_snapshot where date > ('#{format(minusDays(@scheduledStartTime,1),\"YYYY-MM-dd\")}' - 30) and app_id like '%fruitscoot%';\"",
      "maxActiveInstances": "1",
      "lateAfterTimeout": "5 Hours",
      "onFail": {
        "ref": "ActionId_zo69P"
      },
      "workerGroup": "wg-ec2-bv",
      "dependsOn": {
        "ref": "ActivityId_otiRD"
      },
      "type": "ShellCommandActivity",
      "onLateAction": {
        "ref": "ActionId_NAcg4"
      }
    },
    {
      "name": "FactMissionStatistic2Redshift",
      "id": "ActivityId_jtmWQ",
      "schedule": {
        "ref": "DefaultSchedule"
      },
      "maxActiveInstances": "1",
      "command": "/usr/bin/python /mnt/funplus/analytics/python/copy_to_redshift.py  -c=/mnt/funplus/analytics/python/conf/fruitscoot_1_2.yaml  --table=processed.fact_mission_statistic --s3path=s3://com.funplus.datawarehouse/fruitscoot_1_2/copy/fact_mission_statistic/app=fruitscoot.all.prod/dt=#{format(minusDays(@scheduledStartTime,1),'YYYY-MM-dd')}/ --command-options=\"EMPTYASNULL DELIMITER '\\t' GZIP\" --pre-sql=\"delete from processed.fact_mission_statistic where date > ('#{format(minusDays(@scheduledStartTime,1),\"YYYY-MM-dd\")}' - 30) and app_id like '%fruitscoot%';\"",
      "lateAfterTimeout": "5 Hours",
      "onFail": {
        "ref": "ActionId_zo69P"
      },
      "workerGroup": "wg-ec2-bv",
      "dependsOn": {
        "ref": "ActivityId_x5g22"
      },
      "type": "ShellCommandActivity",
      "onLateAction": {
        "ref": "ActionId_NAcg4"
      }
    },
    {
      "name": "CSV",
      "id": "DataFormatId_SmJa2",
      "type": "CSV"
    },
    {
      "name": "RawPaymentDaily",
      "id": "ActivityId_jytYf",
      "schedule": {
        "ref": "DefaultSchedule"
      },
      "maxActiveInstances": "1",
      "command": "/home/hadoop/hive/bin/hive -i s3://com.funplus.datawarehouse/sql_logs/fruitscoot/app=fruitscoot.global.prod/init-fruitscoot.global.prod-reports-#{format(minusDays(@scheduledStartTime,1),'YYYYMMddHHmmss')}.hql -f s3://com.funplusgame.bidata/dev/hive/fruitscoot_1_2/raw_payment_daily_dml.hql",
      "onFail": {
        "ref": "ActionId_zo69P"
      },
      "workerGroup": "wg-emr-fruitscoot",
      "type": "ShellCommandActivity",
      "dependsOn": {
        "ref": "ActivityId_vpD6N"
      }
    },
    {
      "name": "ExecuteAggTutorial",
      "id": "ActivityId_dDaWX",
      "schedule": {
        "ref": "DefaultSchedule"
      },
      "scriptUri": "s3://com.funplusgame.bidata/dev/sql1.2/fruitscoot/agg_tutorial.sql",
      "maxActiveInstances": "1",
      "onFail": {
        "ref": "ActionId_zo69P"
      },
      "workerGroup": "wg-ec2-bv",
      "dependsOn": {
        "ref": "ActivityId_8TNZN"
      },
      "type": "SqlActivity",
      "database": {
        "ref": "RedshiftDatabaseId_d6B0Z"
      }
    },
    {
      "name": "RawTutorialDaily",
      "id": "ActivityId_n4GgK",
      "schedule": {
        "ref": "DefaultSchedule"
      },
      "maxActiveInstances": "1",
      "command": "/home/hadoop/hive/bin/hive -i s3://com.funplus.datawarehouse/sql_logs/fruitscoot/app=fruitscoot.global.prod/init-fruitscoot.global.prod-reports-#{format(minusDays(@scheduledStartTime,1),'YYYYMMddHHmmss')}.hql -f s3://com.funplusgame.bidata/dev/hive/fruitscoot_1_2/raw_tutorial_daily_dml.hql",
      "onFail": {
        "ref": "ActionId_zo69P"
      },
      "workerGroup": "wg-emr-fruitscoot",
      "dependsOn": {
        "ref": "ActivityId_vpD6N"
      },
      "type": "ShellCommandActivity"
    },
    {
      "name": "DeleteNullUserID",
      "id": "ActivityId_6u6jn",
      "schedule": {
        "ref": "DefaultSchedule"
      },
      "maxActiveInstances": "1",
      "onFail": {
        "ref": "ActionId_zo69P"
      },
      "workerGroup": "wg-ec2-bv",
      "dependsOn": [
        {
          "ref": "ActivityId_Rekh5"
        },
        {
          "ref": "ActivityId_Kjxz2"
        }
      ],
      "script": "delete from processed.fact_dau_snapshot where user_key not in (\nselect user_key from  processed.dim_user)",
      "type": "SqlActivity",
      "database": {
        "ref": "RedshiftDatabaseId_d6B0Z"
      }
    },
    {
      "name": "Default",
      "id": "Default",
      "failureAndRerunMode": "CASCADE",
      "scheduleType": "CRON",
      "schedule": {
        "ref": "DefaultSchedule"
      },
      "pipelineLogUri": "s3://com.funplus.emr/logs/",
      "role": "DataPipelineDefaultRole",
      "resourceRole": "DataPipelineDefaultResourceRole"
    },
    {
      "name": "ExecuteTabMarketingSql",
      "id": "ActivityId_w1qFX",
      "schedule": {
        "ref": "DefaultSchedule"
      },
      "scriptUri": "s3://com.funplusgame.bidata/dev/sql1.2/fruitscoot/tab_marketing.sql",
      "maxActiveInstances": "1",
      "onFail": {
        "ref": "ActionId_zo69P"
      },
      "workerGroup": "wg-ec2-bv",
      "dependsOn": {
        "ref": "ActivityId_Y0a33"
      },
      "type": "SqlActivity",
      "database": {
        "ref": "RedshiftDatabaseId_d6B0Z"
      }
    },
    {
      "name": "DimUserYesterdayCheck",
      "id": "PreconditionId_0uWai",
      "retryDelay": "5 Minutes",
      "lateAfterTimeout": "5 Hours",
      "role": "DataPipelineDefaultRole",
      "onFail": {
        "ref": "ActionId_zo69P"
      },
      "s3Prefix": "s3://com.funplus.datawarehouse/semaphores/fruitscoot/app=fruitscoot.global.prod/job=dim_user/year=#{format(minusDays(@scheduledStartTime,2),'YYYY')}/month=#{format(minusDays(@scheduledStartTime,2),'MM')}/day=#{format(minusDays(@scheduledStartTime,2),'dd')}",
      "type": "S3PrefixNotEmpty",
      "onLateAction": {
        "ref": "ActionId_NAcg4"
      }
    },
    {
      "name": "FactSession2Redshift",
      "id": "ActivityId_YdTeB",
      "schedule": {
        "ref": "DefaultSchedule"
      },
      "command": "/usr/bin/python /mnt/funplus/analytics/python/copy_to_redshift.py  -c=/mnt/funplus/analytics/python/conf/fruitscoot_1_2.yaml  --table=processed.fact_session --s3path=s3://com.funplus.datawarehouse/fruitscoot_1_2/copy/fact_session/app=fruitscoot.all.prod/dt=#{format(minusDays(@scheduledStartTime,1),'YYYY-MM-dd')}/ --command-options=\"EMPTYASNULL DELIMITER '\\t' GZIP\" --pre-sql=\"delete from processed.fact_session where date_start > ('#{format(minusDays(@scheduledStartTime,1),\"YYYY-MM-dd\")}' - 30) and app_id like '%fruitscoot%';\"",
      "maxActiveInstances": "1",
      "lateAfterTimeout": "5 Hours",
      "onFail": {
        "ref": "ActionId_zo69P"
      },
      "workerGroup": "wg-ec2-bv",
      "dependsOn": {
        "ref": "ActivityId_Fgzy2"
      },
      "type": "ShellCommandActivity",
      "onLateAction": {
        "ref": "ActionId_NAcg4"
      }
    }
  ]
}
