{
  "objects": [
    {
      "name": "SuccessNotification",
      "id": "ActionId_KyGxM",
      "message": "Start Time: #{node.@actualStartTime}\nEnd Time: #{node.@actualEndTime}",
      "subject": "SUCCESS: FFS WP EVENTS HOURLY #{node.name} #{format(minusHours(node.@scheduledStartTime,1),\"YYYY/MM/dd/HH\")}\n",
      "role": "DataPipelineDefaultRole",
      "topicArn": "arn:aws:sns:us-west-2:921287511715:data-notification",
      "type": "SnsAlarm"
    },
    {
      "name": "CleanUp",
      "id": "ActivityId_si1RT",
      "precondition": {
        "ref": "PreconditionId_BssdV"
      },
      "schedule": {
        "ref": "DefaultSchedule"
      },
      "maxActiveInstances": "1",
      "command": "if hadoop fs -test -e s3://com.funplusgame.bidata/etl/results/ffs.wp.prod/events/staging/hourly/#{format(minusHours(@scheduledStartTime,1),'YYYY/MM/dd/HH')}; then hadoop fs -rmr s3://com.funplusgame.bidata/etl/results/ffs.wp.prod/events/staging/hourly/#{format(minusHours(@scheduledStartTime,1),'YYYY/MM/dd/HH')}; fi",
      "onFail": {
        "ref": "ActionId_NIYB0"
      },
      "workerGroup": "wg-emr-diandian",
      "type": "ShellCommandActivity"
    },
    {
      "name": "S3TSV",
      "id": "DataNodeId_nxF1m",
      "schedule": {
        "ref": "DefaultSchedule"
      },
      "directoryPath": "s3://com.funplusgame.bidata/etl/results/ffs.wp.prod/events/staging/hourly/#{format(minusHours(@scheduledStartTime,1),'YYYY/MM/dd/HH')}/",
      "dataFormat": {
        "ref": "DataFormatId_tKIH1"
      },
      "dependsOn": {
        "ref": "ActivityId_NSH4V"
      },
      "type": "S3DataNode"
    },
    {
      "name": "RedShiftDatabase",
      "id": "RedshiftDatabaseId_ghoOt",
      "databaseName": "ffs",
      "username": "biadmin",
      "*password": "Halfquest_2014",
      "type": "RedshiftDatabase",
      "clusterId": "bicluster"
    },
    {
      "name": "Every 1 hour",
      "id": "DefaultSchedule",
      "startDateTime": "2015-04-07T23:30:00",
      "type": "Schedule",
      "period": "1 hours"
    },
    {
      "name": "FailureNotification",
      "id": "ActionId_NIYB0",
      "message": "Start Time: #{node.@actualStartTime}\nEnd Time: #{node.@actualEndTime}\n#{node.errorMessage}\n#{node.errorStackTrace}",
      "subject": "FAILURE: FFS WP EVENTS HOURLY #{node.name} #{format(minusHours(node.@scheduledStartTime,1),\"YYYY/MM/dd/HH\")}",
      "role": "DataPipelineDefaultRole",
      "topicArn": "arn:aws:sns:us-west-2:921287511715:data-notification",
      "type": "SnsAlarm"
    },
    {
      "name": "JSON",
      "id": "DataFormatId_VUMhh",
      "columnSeparator": "\n",
      "type": "Custom"
    },
    {
      "name": "DataNotExistsNotification",
      "id": "ActionId_rwPyz",
      "message": "Start Time: #{node.@actualStartTime}\nEnd Time: #{node.@actualEndTime}\n\ns3://com.funplusgame.bidata/fluentd/ffs.wp.prod/#{format(minusHours(node.@scheduledStartTime,1),'YYYY/MM/dd/HH')}/ does not exist.",
      "subject": "FAILURE:  FFS.WP.PROD-RAW_EVENTS-HOURLY NO INPUT DATA #{node.name} #{format(minusHours(node.@scheduledStartTime,1),\"YYYY/MM/dd/HH\")}",
      "role": "DataPipelineDefaultRole",
      "topicArn": "arn:aws:sns:us-west-2:921287511715:data-notification",
      "type": "SnsAlarm"
    },
    {
      "name": "TimeoutNotification",
      "id": "ActionId_8FFxk",
      "message": "Start Time: #{node.@actualStartTime}\nEnd Time: #{node.@actualEndTime}",
      "subject": "TIMEOUT: FFS WP EVENTS HOURLY #{node.name} #{format(minusHours(node.@scheduledStartTime,1),\"YYYY/MM/dd/HH\")}",
      "topicArn": "arn:aws:sns:us-west-2:921287511715:data-notification",
      "role": "DataPipelineDefaultRole",
      "type": "SnsAlarm"
    },
    {
      "name": "TSV",
      "id": "DataFormatId_tKIH1",
      "type": "TSV"
    },
    {
      "name": "CheckInputExistsPreCondition",
      "id": "PreconditionId_BssdV",
      "preconditionTimeout": "30 Minutes",
      "retryDelay": "10 Minutes",
      "maximumRetries": "3",
      "lateAfterTimeout": "30 Minutes",
      "role": "DataPipelineDefaultRole",
      "onFail": {
        "ref": "ActionId_rwPyz"
      },
      "s3Prefix": "s3://com.funplusgame.bidata/fluentd/ffs.wp.prod/#{format(minusHours(@scheduledStartTime,1),'YYYY/MM/dd/HH')}/",
      "type": "S3PrefixNotEmpty",
      "onLateAction": {
        "ref": "ActionId_rwPyz"
      }
    },
    {
      "name": "ToRedShift",
      "id": "ActivityId_S5Rbj",
      "stdout": "s3://com.funplusgame.emr/logs/scripts/ffs.wp.prod/#{format(minusHours(@scheduledStartTime,1),'YYYY/MM/dd/HH')}/stdout",
      "maximumRetries": "3",
      "onSuccess": {
        "ref": "ActionId_KyGxM"
      },
      "lateAfterTimeout": "1 Hour",
      "workerGroup": "wg-ec2-ffs",
      "stderr": "s3://com.funplusgame.emr/logs/scripts/ffs.wp.prod/#{format(minusHours(@scheduledStartTime,1),'YYYY/MM/dd/HH')}/stderr",
      "type": "ShellCommandActivity",
      "dependsOn": {
        "ref": "ActivityId_NSH4V"
      },
      "stage": "false",
      "input": {
        "ref": "DataNodeId_nxF1m"
      },
      "schedule": {
        "ref": "DefaultSchedule"
      },
      "command": "/usr/bin/python /mnt/ephemeral/analytics/python/copy_to_redshift.py  -c=/mnt/ephemeral/analytics/python/conf/ffs.yaml  --table=events_raw --s3path=s3://com.funplusgame.bidata/etl/results/ffs.wp.prod/events/staging/hourly/#{format(minusHours(@scheduledStartTime,1),'YYYY/MM/dd/HH')}/ --command-options=\"DELIMITER '\\t' GZIP\" --pre-sql=\"delete from events_raw where trunc(ts) = '#{format(minusHours(@scheduledStartTime,1),\"YYYY-MM-dd\")}' and datepart('hour',ts) = #{format(minusHours(@scheduledStartTime,1),\"HH\")} and app='ffs.wp.prod';\"",
      "maxActiveInstances": "1",
      "onFail": {
        "ref": "ActionId_NIYB0"
      },
      "onLateAction": {
        "ref": "ActionId_8FFxk"
      }
    },
    {
      "name": "Default",
      "id": "Default",
      "scheduleType": "CRON",
      "failureAndRerunMode": "CASCADE",
      "schedule": {
        "ref": "DefaultSchedule"
      },
      "pipelineLogUri": "s3://com.funplusgame.emr/logs/",
      "role": "DataPipelineDefaultRole",
      "resourceRole": "DataPipelineDefaultResourceRole"
    },
    {
      "name": "ToTSV",
      "id": "ActivityId_NSH4V",
      "schedule": {
        "ref": "DefaultSchedule"
      },
      "stdout": "s3://com.funplusgame.emr/logs/scripts/ffs.wp.prod/raw_events/#{format(minusDays(@scheduledStartTime,1),'YYYY/MM/dd/HH')}/stdout",
      "command": "if [ ! -f analytics-1.4.9-SNAPSHOT.jar ]; then hdfs dfs -get s3://com.funplusgame.bidata/dev/mr/jars/analytics-1.4.9-SNAPSHOT.jar; fi \n\nhadoop jar analytics-1.4.9-SNAPSHOT.jar com.funplus.analytics.mr.v1_1.ProductionEvents -files s3://com.funplusgame.bidata/dev/mr/files/GeoIP.dat -libjars s3://com.funplusgame.bidata/dev/mr/jars/analytics-1.4.9-SNAPSHOT-dependencies.jar ffs.wp.prod_EventsParserJob s3://com.funplusgame.bidata/fluentd/ffs.wp.prod/#{format(minusHours(@scheduledStartTime,1),'YYYY/MM/dd/HH')}/ s3://com.funplusgame.bidata/etl/results/ffs.wp.prod/events/staging/hourly/#{format(minusHours(@scheduledStartTime,1),'YYYY/MM/dd/HH')}/",
      "maxActiveInstances": "1",
      "onFail": {
        "ref": "ActionId_NIYB0"
      },
      "stderr": "s3://com.funplusgame.emr/logs/scripts/ffs.wp.prod/raw_events/#{format(minusDays(@scheduledStartTime,1),'YYYY/MM/dd/HH')}/stderr",
      "workerGroup": "wg-emr-diandian",
      "dependsOn": {
        "ref": "ActivityId_si1RT"
      },
      "type": "ShellCommandActivity",
      "stage": "false"
    }
  ]
}
