{
  "objects": [
    {
      "name": "CSV",
      "id": "DataFormatId_SmJa2",
      "type": "CSV"
    },
    {
      "name": "SemaphoreEnd",
      "id": "ActivityId_UPSHOT_1Ueaa",
      "schedule": {
        "ref": "DefaultSchedule"
      },
      "maxActiveInstances": "1",
      "command": "if hadoop fs -test -d s3://com.funplus.datawarehouse/semaphores/upshot/app=upshot.global.prod/job=reports_kpi/year=#{format(minusDays(@scheduledStartTime,1),'YYYY')}/month=#{format(minusDays(@scheduledStartTime,1),'MM')}/day=#{format(minusDays(@scheduledStartTime,1),'dd')}; then hadoop fs -rmr s3://com.funplus.datawarehouse/semaphores/upshot/app=upshot.global.prod/job=reports_kpi/year=#{format(minusDays(@scheduledStartTime,1),'YYYY')}/month=#{format(minusDays(@scheduledStartTime,1),'MM')}/day=#{format(minusDays(@scheduledStartTime,1),'dd')}; fi;\necho \"1\" >SUCCESS;\nhadoop fs -mkdir -p s3://com.funplus.datawarehouse/semaphores/upshot/app=upshot.global.prod/job=reports_kpi/year=#{format(minusDays(@scheduledStartTime,1),'YYYY')}/month=#{format(minusDays(@scheduledStartTime,1),'MM')}/day=#{format(minusDays(@scheduledStartTime,1),'dd')};\nhadoop dfs -put SUCCESS s3://com.funplus.datawarehouse/semaphores/upshot/app=upshot.global.prod/job=reports_kpi/year=#{format(minusDays(@scheduledStartTime,1),'YYYY')}/month=#{format(minusDays(@scheduledStartTime,1),'MM')}/day=#{format(minusDays(@scheduledStartTime,1),'dd')}/;\n",
      "lateAfterTimeout": "10 Hours",
      "onSuccess": {
        "ref": "ActionId_UPSHOT_oZACc"
      },
      "onFail": {
        "ref": "ActionId_UPSHOT_zo69P"
      },
      "workerGroup": "wg-emr-ha",
      "dependsOn": [
        {
          "ref": "ActivityId_UPSHOT_zWO1s"
        },
        {
          "ref": "ActivityId_UPSHOT_7jMov"
        },
        {
          "ref": "ActivityId_UPSHOT_kkNGs"
        }
      ],
      "type": "ShellCommandActivity",
      "onLateAction": {
        "ref": "ActionId_UPSHOT_NAcg4"
      }
    },
    {
      "name": "FactRevenue",
      "id": "ActivityId_UPSHOT_RUNZH",
      "schedule": {
        "ref": "DefaultSchedule"
      },
      "maxActiveInstances": "1",
      "command": "/home/hadoop/hive/bin/hive -i s3://com.funplus.datawarehouse/sql_logs/upshot/app=upshot.global.prod/init-upshot.global.prod-reports-#{format(minusDays(@scheduledStartTime,1),'YYYYMMddHHmmss')}.hql -f s3://com.funplusgame.bidata/dev/hive/upshot_1_2/fact_revenue.hql",
      "onFail": {
        "ref": "ActionId_UPSHOT_zo69P"
      },
      "workerGroup": "wg-emr-ha",
      "type": "ShellCommandActivity",
      "dependsOn": {
        "ref": "ActivityId_UPSHOT_Fgzy2"
      }
    },
    {
      "name": "FactRevenue2Redshift",
      "id": "ActivityId_UPSHOT_jOlhb",
      "schedule": {
        "ref": "DefaultSchedule"
      },
      "command": "/usr/bin/python /mnt/funplus/analytics/python/copy_to_redshift.py  -c=/mnt/funplus/analytics/python/conf/upshot_1_2.yaml  --table=processed.fact_revenue --s3path=s3://com.funplus.datawarehouse/upshot_1_2/copy/fact_revenue/app=upshot.all.prod/dt=#{format(minusDays(@scheduledStartTime,1),'YYYY-MM-dd')}/ --command-options=\"EMPTYASNULL DELIMITER '\\t' GZIP\" --pre-sql=\"delete from processed.fact_revenue where date > ('#{format(minusDays(@scheduledStartTime,1),\"YYYY-MM-dd\")}' - 30) AND app_id like '%upshot%';\"",
      "maxActiveInstances": "1",
      "onFail": {
        "ref": "ActionId_UPSHOT_zo69P"
      },
      "workerGroup": "wg-ec2-ha",
      "dependsOn": {
        "ref": "ActivityId_UPSHOT_RUNZH"
      },
      "type": "ShellCommandActivity"
    },
    {
      "name": "RedshiftDatabase",
      "id": "RedshiftDatabaseId_UPSHOT_XrVon",
      "databaseName": "upshot",
      "username": "biadmin",
      "*password": "Halfquest_2014",
      "clusterId": "bicluster-funplus",
      "type": "RedshiftDatabase"
    },
    {
      "name": "TimeoutNotification",
      "id": "ActionId_UPSHOT_NAcg4",
      "message": "Task: #{node.name} is timedout",
      "subject": "TIMEOUT: upshot.global.prod-ALL-REPORTS-DAILY #{node.name} #{format(minusDays(node.@scheduledStartTime,1),\"YYYY-MM-dd\")}\n",
      "topicArn": "arn:aws:sns:us-west-2:921287511715:report-notification",
      "role": "DataPipelineDefaultRole",
      "type": "SnsAlarm"
    },
    {
      "name": "ExecuteAggRetentionSql",
      "id": "ActivityId_UPSHOT_zWO1s",
      "schedule": {
        "ref": "DefaultSchedule"
      },
      "scriptUri": "s3://com.funplusgame.bidata/dev/sql1.2/upshot/agg_retention.sql",
      "maxActiveInstances": "1",
      "onFail": {
        "ref": "ActionId_UPSHOT_zo69P"
      },
      "workerGroup": "wg-ec2-ha",
      "dependsOn": [
        {
          "ref": "ActivityId_UPSHOT_qkS9M"
        },
        {
          "ref": "ActivityId_UPSHOT_I5jQv"
        }
      ],
      "type": "SqlActivity",
      "database": {
        "ref": "RedshiftDatabaseId_UPSHOT_XrVon"
      }
    },
    {
      "name": "ScriptSetup",
      "id": "ActivityId_UPSHOT_vpD6N",
      "schedule": {
        "ref": "DefaultSchedule"
      },
      "scriptUri": "s3://com.funplusgame.bidata/dev/scripts/reports_script_generator.sh",
      "maxActiveInstances": "1",
      "lateAfterTimeout": "5 Hours",
      "onFail": {
        "ref": "ActionId_UPSHOT_zo69P"
      },
      "scriptArgument": [
        "-a upshot.global.prod",
        "-f s3://com.funplusgame.bidata/dev/sql/init.sql",
        "-d #{format(minusDays(@scheduledStartTime,1),'YYYY-MM-dd HH:mm:ss')}",
        "-o s3://com.funplus.datawarehouse/sql_logs/upshot/app=upshot.global.prod/init-upshot.global.prod-reports-#{format(minusDays(@scheduledStartTime,1),'YYYYMMddHHmmss')}.hql",
        "-b 30",
        "-A upshot.all.prod"
      ],
      "workerGroup": "wg-emr-ha",
      "dependsOn": {
        "ref": "ActivityId_UPSHOT_KQsvt1C"
      },
      "type": "ShellCommandActivity",
      "onLateAction": {
        "ref": "ActionId_UPSHOT_NAcg4"
      }
    },
    {
      "name": "ExecuteTmpUserDailyLoginSql",
      "id": "ActivityId_UPSHOT_R0Hed",
      "schedule": {
        "ref": "DefaultSchedule"
      },
      "scriptUri": "s3://com.funplusgame.bidata/dev/sql1.2/upshot/tmp_user_daily_login.sql",
      "maxActiveInstances": "1",
      "onFail": {
        "ref": "ActionId_UPSHOT_zo69P"
      },
      "workerGroup": "wg-ec2-ha",
      "dependsOn": {
        "ref": "ActivityId_UPSHOT_Y0a33"
      },
      "type": "SqlActivity",
      "database": {
        "ref": "RedshiftDatabaseId_UPSHOT_XrVon"
      }
    },
    {
      "name": "ExecuteFactDauSnapshotSql",
      "id": "ActivityId_UPSHOT_I5jQv",
      "schedule": {
        "ref": "DefaultSchedule"
      },
      "scriptUri": "s3://com.funplusgame.bidata/dev/sql1.2/upshot/fact_dau_snapshot.sql",
      "maxActiveInstances": "1",
      "onFail": {
        "ref": "ActionId_UPSHOT_zo69P"
      },
      "workerGroup": "wg-ec2-ha",
      "dependsOn": [
        {
          "ref": "ActivityId_UPSHOT_67IiO"
        },
        {
          "ref": "ActivityId_UPSHOT_R0Hed"
        },
        {
          "ref": "ActivityId_UPSHOT_xkY6O"
        }
      ],
      "type": "SqlActivity",
      "database": {
        "ref": "RedshiftDatabaseId_UPSHOT_XrVon"
      }
    },
    {
      "name": "AggVideoAction2Redshift",
      "id": "ActivityId_UPSHOT_8TNZN",
      "schedule": {
        "ref": "DefaultSchedule"
      },
      "command": "/usr/bin/python /mnt/funplus/analytics/python/copy_to_redshift.py  -c=/mnt/funplus/analytics/python/conf/upshot_1_2.yaml  --table=processed.agg_video_action --s3path=s3://com.funplus.datawarehouse/upshot_1_2/copy/agg_video_action/app=upshot.all.prod/dt=#{format(minusDays(@scheduledStartTime,1),'YYYY-MM-dd')}/ --command-options=\"EMPTYASNULL DELIMITER '\\t' GZIP\" --pre-sql=\"delete from processed.agg_video_action where date > ('#{format(minusDays(@scheduledStartTime,1),\"YYYY-MM-dd\")}' - 30) and app_id like '%upshot%';\"",
      "maxActiveInstances": "1",
      "lateAfterTimeout": "5 Hours",
      "onFail": {
        "ref": "ActionId_UPSHOT_zo69P"
      },
      "workerGroup": "wg-ec2-ha",
      "dependsOn": {
        "ref": "ActivityId_UPSHOT_EvRbq"
      },
      "type": "ShellCommandActivity",
      "onLateAction": {
        "ref": "ActionId_UPSHOT_NAcg4"
      }
    },
    {
      "name": "SemaphoreStart",
      "id": "ActivityId_UPSHOT_KQsvt1C",
      "precondition": {
        "ref": "PreconditionId_UPSHOT_cRajL"
      },
      "schedule": {
        "ref": "DefaultSchedule"
      },
      "maxActiveInstances": "1",
      "command": "if hadoop fs -test -d s3://com.funplus.datawarehouse/semaphores/upshot/app=upshot.global.prod/job=upshot-reports/year=#{format(minusDays(@scheduledStartTime,1),'YYYY')}/month=#{format(minusDays(@scheduledStartTime,1),'MM')}/day=#{format(minusDays(@scheduledStartTime,1),'dd')}; then hadoop fs -rmr s3://com.funplus.datawarehouse/semaphores/upshot/app=upshot.global.prod/job=upshot-reports/year=#{format(minusDays(@scheduledStartTime,1),'YYYY')}/month=#{format(minusDays(@scheduledStartTime,1),'MM')}/day=#{format(minusDays(@scheduledStartTime,1),'dd')}; fi",
      "onFail": {
        "ref": "ActionId_UPSHOT_zo69P"
      },
      "workerGroup": "wg-emr-ha",
      "type": "ShellCommandActivity"
    },
    {
      "name": "AggVideoAction",
      "id": "ActivityId_UPSHOT_EvRbq",
      "schedule": {
        "ref": "DefaultSchedule"
      },
      "maxActiveInstances": "1",
      "command": "/home/hadoop/hive/bin/hive -i s3://com.funplus.datawarehouse/sql_logs/upshot/app=upshot.global.prod/init-upshot.global.prod-reports-#{format(minusDays(@scheduledStartTime,1),'YYYYMMddHHmmss')}.hql -f s3://com.funplusgame.bidata/dev/hive/upshot_1_2/agg_video_action.hql",
      "lateAfterTimeout": "5 Hours",
      "onFail": {
        "ref": "ActionId_UPSHOT_zo69P"
      },
      "workerGroup": "wg-emr-ha",
      "type": "ShellCommandActivity",
      "dependsOn": {
        "ref": "ActivityId_UPSHOT_RUNZH"
      },
      "onLateAction": {
        "ref": "ActionId_UPSHOT_NAcg4"
      }
    },
    {
      "name": "ExecuteAggPrepareSql",
      "id": "ActivityId_UPSHOT_Y0a33",
      "schedule": {
        "ref": "DefaultSchedule"
      },
      "scriptUri": "s3://com.funplusgame.bidata/dev/sql1.2/upshot/agg_prepare.sql",
      "maxActiveInstances": "1",
      "onFail": {
        "ref": "ActionId_UPSHOT_zo69P"
      },
      "workerGroup": "wg-ec2-ha",
      "dependsOn": [
        {
          "ref": "ActivityId_UPSHOT_YdTeB"
        },
        {
          "ref": "ActivityId_UPSHOT_jOlhb"
        },
        {
          "ref": "ActivityId_UPSHOT_8TNZN"
        }
      ],
      "type": "SqlActivity",
      "database": {
        "ref": "RedshiftDatabaseId_UPSHOT_XrVon"
      }
    },
    {
      "name": "PrepareAggUserStats",
      "id": "ActivityId_UPSHOT_ciJRV",
      "schedule": {
        "ref": "DefaultSchedule"
      },
      "maxActiveInstances": "1",
      "command": "mkdir -p /home/hadoop/temp/\nrm -f /home/hadoop/temp/agg_user_stats.sql\nhadoop fs -copyToLocal s3://com.funplusgame.bidata/dev/sql1.2/upshot/agg_user_stats.sql /home/hadoop/temp/\nsed -i 's/${date}/#{format(minusDays(@scheduledStartTime,1),'YYYY-MM-dd')}/g' /home/hadoop/temp/agg_user_stats.sql\nhadoop fs -copyFromLocal -f /home/hadoop/temp/agg_user_stats.sql s3://com.funplusgame.bidata/dev/sql1.2/upshot/agg_user_stats_upd.sql",
      "onFail": {
        "ref": "ActionId_UPSHOT_zo69P"
      },
      "workerGroup": "wg-emr-ha",
      "dependsOn": [
        {
          "ref": "ActivityId_UPSHOT_qkS9M"
        },
        {
          "ref": "ActivityId_UPSHOT_I5jQv"
        }
      ],
      "type": "ShellCommandActivity"
    },
    {
      "name": "Daily",
      "id": "DefaultSchedule",
      "startDateTime": "2015-06-18T01:30:00",
      "period": "1 Day",
      "type": "Schedule"
    },
    {
      "name": "ExecuteAggUserStatsSql",
      "id": "ActivityId_UPSHOT_kkNGs",
      "schedule": {
        "ref": "DefaultSchedule"
      },
      "scriptUri": "s3://com.funplusgame.bidata/dev/sql1.2/upshot/agg_user_stats_upd.sql",
      "maxActiveInstances": "1",
      "onFail": {
        "ref": "ActionId_UPSHOT_zo69P"
      },
      "workerGroup": "wg-ec2-ha",
      "dependsOn": {
        "ref": "ActivityId_UPSHOT_ciJRV"
      },
      "type": "SqlActivity",
      "database": {
        "ref": "RedshiftDatabaseId_UPSHOT_XrVon"
      }
    },
    {
      "name": "ExecuteTmpUserPaymentSql",
      "id": "ActivityId_UPSHOT_67IiO",
      "schedule": {
        "ref": "DefaultSchedule"
      },
      "scriptUri": "s3://com.funplusgame.bidata/dev/sql1.2/upshot/tmp_user_payment.sql",
      "maxActiveInstances": "1",
      "onFail": {
        "ref": "ActionId_UPSHOT_zo69P"
      },
      "workerGroup": "wg-ec2-ha",
      "dependsOn": {
        "ref": "ActivityId_UPSHOT_Y0a33"
      },
      "type": "SqlActivity",
      "database": {
        "ref": "RedshiftDatabaseId_UPSHOT_XrVon"
      }
    },
    {
      "name": "ExecuteTmpUserLevelSql",
      "id": "ActivityId_UPSHOT_xkY6O",
      "schedule": {
        "ref": "DefaultSchedule"
      },
      "scriptUri": "s3://com.funplusgame.bidata/dev/sql1.2/upshot/tmp_user_level.sql",
      "maxActiveInstances": "1",
      "onFail": {
        "ref": "ActionId_UPSHOT_zo69P"
      },
      "workerGroup": "wg-ec2-ha",
      "dependsOn": {
        "ref": "ActivityId_UPSHOT_Y0a33"
      },
      "type": "SqlActivity",
      "database": {
        "ref": "RedshiftDatabaseId_UPSHOT_XrVon"
      }
    },
    {
      "name": "SemaphoreFailureNotification",
      "id": "ActionId_UPSHOT_PJpcO",
      "message": "Pipeline Schedule Run Time: #{node.@scheduledStartTime}\nPipeline Execution Start Time: #{node.@actualStartTime}\nPipeline Execution End Time: #{node.@actualEndTime}\nError Message:\n#{node.errorMessage}\nError StackTrace:\n#{node.errorStackTrace}",
      "subject": "FAILURE: upshot.global.prod-ALL-REPORTS-DAILY - SEMAPHORE #{node.name} #{format(minusDays(node.@scheduledStartTime,1),\"YYYY-MM-dd\")}\n",
      "topicArn": "arn:aws:sns:us-west-2:921287511715:report-notification",
      "role": "DataPipelineDefaultRole",
      "type": "SnsAlarm"
    },
    {
      "name": "FactSession",
      "id": "ActivityId_UPSHOT_Fgzy2",
      "schedule": {
        "ref": "DefaultSchedule"
      },
      "maxActiveInstances": "1",
      "command": "/home/hadoop/hive/bin/hive -i s3://com.funplus.datawarehouse/sql_logs/upshot/app=upshot.global.prod/init-upshot.global.prod-reports-#{format(minusDays(@scheduledStartTime,1),'YYYYMMddHHmmss')}.hql -f s3://com.funplusgame.bidata/dev/hive/upshot_1_2/fact_session.hql",
      "lateAfterTimeout": "5 Hours",
      "onFail": {
        "ref": "ActionId_UPSHOT_zo69P"
      },
      "workerGroup": "wg-emr-ha",
      "type": "ShellCommandActivity",
      "dependsOn": {
        "ref": "ActivityId_UPSHOT_s7h7o"
      },
      "onLateAction": {
        "ref": "ActionId_UPSHOT_NAcg4"
      }
    },
    {
      "name": "ExecuteDimUserSql",
      "id": "ActivityId_UPSHOT_qkS9M",
      "schedule": {
        "ref": "DefaultSchedule"
      },
      "scriptUri": "s3://com.funplusgame.bidata/dev/sql1.2/upshot/dim_user.sql",
      "maxActiveInstances": "1",
      "onFail": {
        "ref": "ActionId_UPSHOT_zo69P"
      },
      "workerGroup": "wg-ec2-ha",
      "dependsOn": [
        {
          "ref": "ActivityId_UPSHOT_67IiO"
        },
        {
          "ref": "ActivityId_UPSHOT_R0Hed"
        },
        {
          "ref": "ActivityId_UPSHOT_xkY6O"
        }
      ],
      "type": "SqlActivity",
      "database": {
        "ref": "RedshiftDatabaseId_UPSHOT_XrVon"
      }
    },
    {
      "name": "DependencyFailureNotification",
      "id": "ActionId_UPSHOT_AGrl7",
      "message": "s3://com.funplusgame.bidata/kinesis/upshotStream/events/event=session_start/app=upshot.global.prod/year=#{format(minusDays(node.@scheduledStartTime,1),'YYYY')}/month=#{format(minusDays(node.@scheduledStartTime,1),'MM')}/day=#{format(minusDays(node.@scheduledStartTime,1),'dd')}/ does not exist.\nStart Time: #{node.@actualStartTime}\nEnd Time: #{node.@actualEndTime}\n#{node.errorMessage}\n#{node.errorStackTrace}",
      "subject": "FAILURE: upshot.global.prod-ALL-REPORTS-DAILY - DEPENDENCY NOT COMPLETED #{node.name} #{format(minusDays(node.@scheduledStartTime,1),\"YYYY-MM-dd\")}\n",
      "topicArn": "arn:aws:sns:us-west-2:921287511715:report-notification",
      "role": "DataPipelineDefaultRole",
      "type": "SnsAlarm"
    },
    {
      "name": "Failure Notification",
      "id": "ActionId_UPSHOT_zo69P",
      "message": "Start Time: #{node.@actualStartTime}\nEnd Time: #{node.@actualEndTime}",
      "subject": "FAILURE: upshot.global.prod-ALL-REPORTS-DAILY - #{node.name} #{format(minusDays(node.@scheduledStartTime,1),\"YYYY-MM-dd\")}",
      "topicArn": "arn:aws:sns:us-west-2:921287511715:report-notification",
      "role": "DataPipelineDefaultRole",
      "type": "SnsAlarm"
    },
    {
      "name": "RawEventsDaily",
      "id": "ActivityId_UPSHOT_IW3sD",
      "schedule": {
        "ref": "DefaultSchedule"
      },
      "maxActiveInstances": "1",
      "command": "/home/hadoop/hive/bin/hive -i s3://com.funplus.datawarehouse/sql_logs/upshot/app=upshot.global.prod/init-upshot.global.prod-reports-#{format(minusDays(@scheduledStartTime,1),'YYYYMMddHHmmss')}.hql -f s3://com.funplusgame.bidata/dev/hive/upshot_1_2/upshot_1_2_raw_events_dml.hql",
      "onFail": {
        "ref": "ActionId_UPSHOT_zo69P"
      },
      "workerGroup": "wg-emr-ha",
      "type": "ShellCommandActivity",
      "dependsOn": {
        "ref": "ActivityId_UPSHOT_vpD6N"
      }
    },
    {
      "name": "AggVideoActionDetail",
      "id": "ActivityId_UPSHOT_VczkB",
      "schedule": {
        "ref": "DefaultSchedule"
      },
      "maxActiveInstances": "1",
      "command": "/home/hadoop/hive/bin/hive -i s3://com.funplus.datawarehouse/sql_logs/upshot/app=upshot.global.prod/init-upshot.global.prod-reports-#{format(minusDays(@scheduledStartTime,1),'YYYYMMddHHmmss')}.hql -f s3://com.funplusgame.bidata/dev/hive/upshot_1_2/video_action_detail.hql",
      "onFail": {
        "ref": "ActionId_UPSHOT_zo69P"
      },
      "workerGroup": "wg-emr-ha",
      "type": "ShellCommandActivity",
      "dependsOn": {
        "ref": "ActivityId_UPSHOT_IW3sD"
      }
    },
    {
      "name": "AggVideoActionDetail2Redshift",
      "id": "ActivityId_UPSHOT_s7h7o",
      "schedule": {
        "ref": "DefaultSchedule"
      },
      "command": "/usr/bin/python /mnt/funplus/analytics/python/copy_to_redshift.py  -c=/mnt/funplus/analytics/python/conf/upshot_1_2.yaml  --table=processed.agg_video_action_detail --s3path=s3://com.funplus.datawarehouse/upshot_1_2/copy/agg_video_action_detail/app=upshot.all.prod/dt=#{format(minusDays(@scheduledStartTime,1),'YYYY-MM-dd')}/ --command-options=\"EMPTYASNULL DELIMITER '\\t' GZIP\" --pre-sql=\"delete from processed.agg_video_action_detail where date > ('#{format(minusDays(@scheduledStartTime,1),\"YYYY-MM-dd\")}' - 30) and app_id like '%upshot%';\"",
      "maxActiveInstances": "1",
      "lateAfterTimeout": "5 Hours",
      "onFail": {
        "ref": "ActionId_UPSHOT_zo69P"
      },
      "workerGroup": "wg-ec2-ha",
      "dependsOn": {
        "ref": "ActivityId_UPSHOT_VczkB"
      },
      "type": "ShellCommandActivity",
      "onLateAction": {
        "ref": "ActionId_UPSHOT_NAcg4"
      }
    },
    {
      "name": "EventsDailyDependencyCheck-AllRawEvents",
      "id": "PreconditionId_UPSHOT_cRajL",
      "retryDelay": "5 Minutes",
      "maximumRetries": "3",
      "lateAfterTimeout": "15 Minutes",
      "role": "DataPipelineDefaultRole",
      "onFail": {
        "ref": "ActionId_UPSHOT_AGrl7"
      },
      "s3Prefix": "s3://com.funplusgame.bidata/kinesis/upshotStream/events/event=session_start/app=upshot.global.prod/year=#{format(minusDays(@scheduledStartTime,1),'YYYY')}/",
      "type": "S3PrefixNotEmpty",
      "onLateAction": {
        "ref": "ActionId_UPSHOT_NAcg4"
      }
    },
    {
      "name": "ExecuteAggKPISql",
      "id": "ActivityId_UPSHOT_7jMov",
      "schedule": {
        "ref": "DefaultSchedule"
      },
      "scriptUri": "s3://com.funplusgame.bidata/dev/sql1.2/upshot/agg_kpi.sql",
      "maxActiveInstances": "1",
      "onFail": {
        "ref": "ActionId_UPSHOT_zo69P"
      },
      "workerGroup": "wg-ec2-ha",
      "dependsOn": [
        {
          "ref": "ActivityId_UPSHOT_qkS9M"
        },
        {
          "ref": "ActivityId_UPSHOT_I5jQv"
        }
      ],
      "type": "SqlActivity",
      "database": {
        "ref": "RedshiftDatabaseId_UPSHOT_XrVon"
      }
    },
    {
      "name": "FactSession2Redshift",
      "id": "ActivityId_UPSHOT_YdTeB",
      "schedule": {
        "ref": "DefaultSchedule"
      },
      "command": "/usr/bin/python /mnt/funplus/analytics/python/copy_to_redshift.py  -c=/mnt/funplus/analytics/python/conf/upshot_1_2.yaml  --table=processed.fact_session --s3path=s3://com.funplus.datawarehouse/upshot_1_2/copy/fact_session/app=upshot.all.prod/dt=#{format(minusDays(@scheduledStartTime,1),'YYYY-MM-dd')}/ --command-options=\"EMPTYASNULL DELIMITER '\\t' GZIP\" --pre-sql=\"delete from processed.fact_session where date_start > ('#{format(minusDays(@scheduledStartTime,1),\"YYYY-MM-dd\")}' - 30) and app_id like '%upshot%';\"",
      "maxActiveInstances": "1",
      "lateAfterTimeout": "5 Hours",
      "onFail": {
        "ref": "ActionId_UPSHOT_zo69P"
      },
      "workerGroup": "wg-ec2-ha",
      "dependsOn": {
        "ref": "ActivityId_UPSHOT_Fgzy2"
      },
      "type": "ShellCommandActivity",
      "onLateAction": {
        "ref": "ActionId_UPSHOT_NAcg4"
      }
    },
    {
      "name": "SuccessNotification",
      "id": "ActionId_UPSHOT_oZACc",
      "message": "Start Time: #{node.@actualStartTime}\nEnd Time: #{node.@actualEndTime}",
      "subject": "SUCCESS: upshot.global.prod-ALL-REPORTS-DAILY #{node.name} #{format(minusDays(node.@scheduledStartTime,1),\"YYYY-MM-dd\")}\n",
      "topicArn": "arn:aws:sns:us-west-2:921287511715:report-notification",
      "role": "DataPipelineDefaultRole",
      "type": "SnsAlarm"
    },
    {
      "name": "Default",
      "id": "Default",
      "failureAndRerunMode": "CASCADE",
      "scheduleType": "CRON",
      "schedule": {
        "ref": "DefaultSchedule"
      },
      "pipelineLogUri": "s3://com.funplus.emr/logs/",
      "role": "DataPipelineDefaultRole",
      "resourceRole": "DataPipelineDefaultResourceRole"
    }
  ]
}
