{
  "objects": [
    {
      "instanceType": "m1.large",
      "terminateAfter": "3 Hours",
      "id": "ResourceId_hTFIL",
      "schedule": {
        "ref": "ScheduleId_vAYvv"
      },
      "name": "DefaultResource1",
      "maxActiveInstances": "1",
      "role": "DataPipelineDefaultRole",
      "type": "Ec2Resource",
      "resourceRole": "DataPipelineDefaultResourceRole"
    },
    {
      "id": "DataNodeId_ul6Kg",
      "schedule": {
        "ref": "ScheduleId_vAYvv"
      },
      "directoryPath": "s3://com.funplusgame.emr/results/hive_automation/hive_warehouse/kpi_daily/#{format(minusDays(@scheduledStartTime,1),'YYYYMMdd')}/",
      "name": "kpi",
      "dataFormat": {
        "ref": "DataFormatId_l4hUD"
      },
      "type": "S3DataNode"
    },
    {
      "id": "ActivityId_jkFhe",
      "input": {
        "ref": "DataNodeId_GuR3h"
      },
      "schedule": {
        "ref": "ScheduleId_vAYvv"
      },
      "insertMode": "KEEP_EXISTING",
      "name": "ToRedshift2",
      "maxActiveInstances": "1",
      "runsOn": {
        "ref": "ResourceId_hTFIL"
      },
      "dependsOn": {
        "ref": "ActivityId_r1IAw"
      },
      "output": {
        "ref": "DataNodeId_Brq3o"
      },
      "type": "RedshiftCopyActivity"
    },
    {
      "message": "Start Time: #{node.@actualStartTime}\nEnd Time: #{node.@actualEndTime}\n",
      "id": "ActionId_LJ83A",
      "subject": "FAILURE: Farm KPI Hive #{node.myDt}",
      "name": "DefaultAction4",
      "topicArn": "arn:aws:sns:us-west-2:921287511715:report-notification",
      "role": "DataPipelineDefaultRole",
      "type": "SnsAlarm"
    },
    {
      "id": "DataNodeId_iLnQu",
      "schedule": {
        "ref": "ScheduleId_vAYvv"
      },
      "name": "WaterRanch_exp_in",
      "directoryPath": "s3://com.funplusgame.emr/results/hive_automation/hive_warehouse/rpt_waterexp_in/#{format(minusDays(@scheduledStartTime,1),'YYYYMMdd')}/",
      "dataFormat": {
        "ref": "DataFormatId_l4hUD"
      },
      "type": "S3DataNode"
    },
    {
      "id": "ScheduleId_vAYvv",
      "startDateTime": "2014-10-17T02:00:00",
      "name": "Daily",
      "type": "Schedule",
      "period": "1 Day"
    },
    {
      "id": "DataNodeId_73jTa",
      "schedule": {
        "ref": "ScheduleId_vAYvv"
      },
      "directoryPath": "s3://com.funplusgame.bidata/",
      "name": "S3Raw1",
      "dataFormat": {
        "ref": "DataFormatId_exmuN"
      },
      "type": "S3DataNode"
    },
    {
      "id": "DataNodeId_Au2gL",
      "schedule": {
        "ref": "ScheduleId_vAYvv"
      },
      "name": "dau",
      "directoryPath": "s3://com.funplusgame.emr/results/hive_automation/hive_warehouse/dau_daily/#{format(minusDays(@scheduledStartTime,1),'YYYYMMdd')}/",
      "dataFormat": {
        "ref": "DataFormatId_l4hUD"
      },
      "type": "S3DataNode"
    },
    {
      "id": "DataNodeId_2JgQo",
      "schedule": {
        "ref": "ScheduleId_vAYvv"
      },
      "directoryPath": "s3://com.funplusgame.emr/results/hive_automation/hive_warehouse/wr_3rdscene_daily/#{format(minusDays(@scheduledStartTime,1),'YYYYMMdd')}/",
      "name": "WaterRanch_3rdscene_Raw",
      "dataFormat": {
        "ref": "DataFormatId_l4hUD"
      },
      "type": "S3DataNode"
    },
    {
      "id": "EmrClusterId_L08EI",
      "terminateAfter": "3 Hours",
      "schedule": {
        "ref": "ScheduleId_vAYvv"
      },
      "coreInstanceType": "m3.xlarge",
      "name": "DefaultEmrCluster2",
      "installHive": "0.11.0.2",
      "coreInstanceCount": "20",
      "maxActiveInstances": "1",
      "type": "EmrCluster"
    },
    {
      "message": "Start Time: #{node.@actualStartTime}\nEnd Time: #{node.@actualEndTime}\n",
      "id": "ActionId_R2Sto",
      "subject": "SUCCESS: Farm AppUser Hive #{node.myDt}",
      "name": "DefaultAction1",
      "topicArn": "arn:aws:sns:us-west-2:921287511715:report-notification",
      "role": "DataPipelineDefaultRole",
      "type": "SnsAlarm"
    },
    {
      "id": "ActivityId_KqCpP",
      "input": {
        "ref": "DataNodeId_WdiVr"
      },
      "schedule": {
        "ref": "ScheduleId_vAYvv"
      },
      "insertMode": "OVERWRITE_EXISTING",
      "name": "app_user_copy",
      "maxActiveInstances": "1",
      "runsOn": {
        "ref": "ResourceId_hTFIL"
      },
      "type": "RedshiftCopyActivity",
      "dependsOn": {
        "ref": "ActivityId_F0US7"
      },
      "output": {
        "ref": "DataNodeId_WEy5y"
      }
    },
    {
      "id": "DataNodeId_WEy5y",
      "schedule": {
        "ref": "ScheduleId_vAYvv"
      },
      "tableName": "app_user",
      "name": "RedshiftTable5",
      "type": "RedshiftDataNode",
      "database": {
        "ref": "RedshiftDatabaseId_HyrwP"
      }
    },
    {
      "id": "DataNodeId_vqKqh",
      "schedule": {
        "ref": "ScheduleId_vAYvv"
      },
      "tableName": "payment",
      "name": "RedshiftTable7",
      "type": "RedshiftDataNode",
      "database": {
        "ref": "RedshiftDatabaseId_HyrwP"
      }
    },
    {
      "id": "DataNodeId_sysW8",
      "schedule": {
        "ref": "ScheduleId_vAYvv"
      },
      "tableName": "dau",
      "name": "RedshiftTable6",
      "type": "RedshiftDataNode",
      "database": {
        "ref": "RedshiftDatabaseId_HyrwP"
      }
    },
    {
      "id": "ActivityId_Xd4L3",
      "input": {
        "ref": "DataNodeId_ul6Kg"
      },
      "schedule": {
        "ref": "ScheduleId_vAYvv"
      },
      "insertMode": "KEEP_EXISTING",
      "name": "kpi_copy",
      "maxActiveInstances": "1",
      "runsOn": {
        "ref": "ResourceId_hTFIL"
      },
      "output": {
        "ref": "DataNodeId_QUCtD"
      },
      "type": "RedshiftCopyActivity",
      "dependsOn": {
        "ref": "ActivityId_F0US7"
      }
    },
    {
      "id": "DataNodeId_Brq3o",
      "schedule": {
        "ref": "ScheduleId_vAYvv"
      },
      "tableName": "rpt_waterranch_greenery",
      "name": "RedshiftTable2",
      "type": "RedshiftDataNode",
      "database": {
        "ref": "RedshiftDatabaseId_HyrwP"
      }
    },
    {
      "id": "DataNodeId_yN0gp",
      "schedule": {
        "ref": "ScheduleId_vAYvv"
      },
      "directoryPath": "s3://com.funplusgame.bidata/",
      "name": "S3Raw2",
      "dataFormat": {
        "ref": "DataFormatId_exmuN"
      },
      "type": "S3DataNode"
    },
    {
      "id": "ActivityId_QVSbj",
      "input": {
        "ref": "DataNodeId_VdlOT"
      },
      "schedule": {
        "ref": "ScheduleId_vAYvv"
      },
      "insertMode": "KEEP_EXISTING",
      "name": "ToRedshift4",
      "maxActiveInstances": "1",
      "runsOn": {
        "ref": "ResourceId_hTFIL"
      },
      "dependsOn": {
        "ref": "ActivityId_r1IAw"
      },
      "type": "RedshiftCopyActivity",
      "output": {
        "ref": "DataNodeId_nj5ps"
      }
    },
    {
      "scriptUri": "s3://com.funplusgame.emr/results/hive_automation/scripts/Farm_KPI_WaterRanch_Part2.hql",
      "runsOn": {
        "ref": "EmrClusterId_L08EI"
      },
      "scriptVariable": [
        "wr_rpt_par=#{format(minusDays(@scheduledStartTime,1),'YYYYMMdd')}",
        "wr_rpt_dt=#{format(minusDays(@scheduledStartTime,1),'YYYY-MM-dd')}",
        "wr_rpt_yr=#{year(@scheduledStartTime)}",
        "wr_rpt_mnth=#{format(@scheduledStartTime, 'MM')}",
        "wr_rpt_day=#{format(minusDays(@scheduledStartTime,1), 'dd')}"
      ],
      "onSuccess": {
        "ref": "ActionId_rpByC"
      },
      "type": "HiveActivity",
      "dependsOn": {
        "ref": "ActivityId_t9A4E"
      },
      "stage": "false",
      "id": "ActivityId_F0US7",
      "schedule": {
        "ref": "ScheduleId_vAYvv"
      },
      "input": {
        "ref": "DataNodeId_yN0gp"
      },
      "name": "FarmKPI_Hive",
      "maxActiveInstances": "1",
      "onFail": {
        "ref": "ActionId_LJ83A"
      },
      "myDt": "#{format(minusDays(@scheduledStartTime,1),\"YYYY-MM-dd\")}"
    },
    {
      "id": "DataFormatId_exmuN",
      "name": "JSON",
      "columnSeparator": "\n",
      "type": "Custom"
    },
    {
      "id": "DataNodeId_azhgf",
      "schedule": {
        "ref": "ScheduleId_vAYvv"
      },
      "tableName": "waterranch_3rdscene",
      "name": "RedshiftTable3",
      "type": "RedshiftDataNode",
      "database": {
        "ref": "RedshiftDatabaseId_HyrwP"
      }
    },
    {
      "id": "DataNodeId_QUCtD",
      "schedule": {
        "ref": "ScheduleId_vAYvv"
      },
      "tableName": "kpi",
      "name": "RedshiftTable8",
      "type": "RedshiftDataNode",
      "database": {
        "ref": "RedshiftDatabaseId_HyrwP"
      }
    },
    {
      "terminateAfter": "4 Hours",
      "id": "EmrClusterId_S0NZ1",
      "schedule": {
        "ref": "ScheduleId_vAYvv"
      },
      "coreInstanceType": "m3.xlarge",
      "coreInstanceCount": "30",
      "installHive": "0.11.0.2",
      "name": "DefaultEmrCluster1",
      "maxActiveInstances": "1",
      "type": "EmrCluster"
    },
    {
      "id": "ActivityId_HERWZ",
      "input": {
        "ref": "DataNodeId_K3CVz"
      },
      "schedule": {
        "ref": "ScheduleId_vAYvv"
      },
      "insertMode": "KEEP_EXISTING",
      "name": "payment_copy",
      "maxActiveInstances": "1",
      "runsOn": {
        "ref": "ResourceId_hTFIL"
      },
      "output": {
        "ref": "DataNodeId_vqKqh"
      },
      "type": "RedshiftCopyActivity",
      "dependsOn": {
        "ref": "ActivityId_F0US7"
      }
    },
    {
      "id": "ActionId_rpByC",
      "message": "Start Time: #{node.@actualStartTime}\nEnd Time: #{node.@actualEndTime}\n",
      "subject": "SUCCESS: Farm KPI Hive #{node.myDt}",
      "name": "DefaultAction3",
      "topicArn": "arn:aws:sns:us-west-2:921287511715:report-notification",
      "role": "DataPipelineDefaultRole",
      "type": "SnsAlarm"
    },
    {
      "id": "DataNodeId_pSbJu",
      "schedule": {
        "ref": "ScheduleId_vAYvv"
      },
      "directoryPath": "s3://com.funplusgame.bidata/",
      "name": "S3Raw",
      "dataFormat": {
        "ref": "DataFormatId_exmuN"
      },
      "type": "S3DataNode"
    },
    {
      "message": "Start Time: #{node.@actualStartTime}\nEnd Time: #{node.@actualEndTime}\n",
      "id": "ActionId_439NO",
      "subject": "FAILURE: Farm AppUser Hive #{node.myDt}",
      "name": "DefaultAction2",
      "topicArn": "arn:aws:sns:us-west-2:921287511715:report-notification",
      "role": "DataPipelineDefaultRole",
      "type": "SnsAlarm"
    },
    {
      "id": "Default",
      "scheduleType": "CRON",
      "failureAndRerunMode": "CASCADE",
      "name": "Default",
      "pipelineLogUri": "s3://com.funplusgame.emr/results/hive_automation/logs/",
      "role": "DataPipelineDefaultRole",
      "resourceRole": "DataPipelineDefaultResourceRole"
    },
    {
      "id": "DataNodeId_K3CVz",
      "schedule": {
        "ref": "ScheduleId_vAYvv"
      },
      "directoryPath": "s3://com.funplusgame.emr/results/hive_automation/hive_warehouse/payment_daily/#{format(minusDays(@scheduledStartTime,1),'YYYYMMdd')}/",
      "name": "payment",
      "dataFormat": {
        "ref": "DataFormatId_l4hUD"
      },
      "type": "S3DataNode"
    },
    {
      "id": "DataNodeId_ZEyPT",
      "schedule": {
        "ref": "ScheduleId_vAYvv"
      },
      "tableName": "rpt_waterranch_exp",
      "name": "RedshiftTable",
      "type": "RedshiftDataNode",
      "database": {
        "ref": "RedshiftDatabaseId_HyrwP"
      }
    },
    {
      "id": "RedshiftDatabaseId_HyrwP",
      "databaseName": "farm",
      "username": "biadmin",
      "name": "DefaultRedshiftDatabase1",
      "*password": "Halfquest_2014",
      "clusterId": "bicluster-farm",
      "type": "RedshiftDatabase"
    },
    {
      "id": "DataNodeId_nj5ps",
      "schedule": {
        "ref": "ScheduleId_vAYvv"
      },
      "tableName": "rpt_waterranch_3rdscene",
      "name": "RedshiftTable4",
      "type": "RedshiftDataNode",
      "database": {
        "ref": "RedshiftDatabaseId_HyrwP"
      }
    },
    {
      "id": "DataNodeId_GuR3h",
      "schedule": {
        "ref": "ScheduleId_vAYvv"
      },
      "name": "WaterRanch_greenery",
      "directoryPath": "s3://com.funplusgame.emr/results/hive_automation/hive_warehouse/rpt_waterexp_greenery/#{format(minusDays(@scheduledStartTime,1),'YYYYMMdd')}/",
      "dataFormat": {
        "ref": "DataFormatId_l4hUD"
      },
      "type": "S3DataNode"
    },
    {
      "scriptUri": "s3://com.funplusgame.emr/results/hive_automation/scripts/Farm_KPI_WaterRanch_Part1.hql",
      "runsOn": {
        "ref": "EmrClusterId_S0NZ1"
      },
      "onSuccess": {
        "ref": "ActionId_3GvMr"
      },
      "scriptVariable": [
        "wr_rpt_dt=#{format(minusDays(@scheduledStartTime,1),'YYYY-MM-dd')}",
        "wr_rpt_par=#{format(minusDays(@scheduledStartTime,1),'YYYYMMdd')}",
        "wr_rpt_yr=#{year(@scheduledStartTime)}",
        "wr_rpt_mnth=#{format(@scheduledStartTime, 'MM')}",
        "wr_rpt_day=#{format(minusDays(@scheduledStartTime,1), 'dd')}"
      ],
      "type": "HiveActivity",
      "dependsOn": {
        "ref": "ActivityId_t9A4E"
      },
      "stage": "false",
      "id": "ActivityId_r1IAw",
      "schedule": {
        "ref": "ScheduleId_vAYvv"
      },
      "input": {
        "ref": "DataNodeId_73jTa"
      },
      "name": "FarmWaterRanch_Hive",
      "maxActiveInstances": "1",
      "onFail": {
        "ref": "ActionId_SKpKV"
      },
      "myDt": "#{format(minusDays(@scheduledStartTime,1),\"YYYY-MM-dd\")}"
    },
    {
      "scriptUri": "s3://com.funplusgame.emr/results/hive_automation/scripts/Farm_KPI_WaterRanch_app_user.hql",
      "runsOn": {
        "ref": "EmrClusterId_S0NZ1"
      },
      "scriptVariable": [
        "wr_rpt_dt=#{format(minusDays(@scheduledStartTime,1),'YYYY-MM-dd')}",
        "wr_rpt_par=#{format(minusDays(@scheduledStartTime,1),'YYYYMMdd')}",
        "wr_rpt_pre_par=#{format(minusDays(@scheduledStartTime,2),'YYYYMMdd')}",
        "wr_rpt_yr=#{year(@scheduledStartTime)}",
        "wr_rpt_mnth=#{format(@scheduledStartTime, 'MM')}",
        "wr_rpt_day=#{format(minusDays(@scheduledStartTime,1), 'dd')}"
      ],
      "onSuccess": {
        "ref": "ActionId_R2Sto"
      },
      "type": "HiveActivity",
      "stage": "false",
      "id": "ActivityId_t9A4E",
      "schedule": {
        "ref": "ScheduleId_vAYvv"
      },
      "input": {
        "ref": "DataNodeId_pSbJu"
      },
      "name": "FarmAppUser_Hive",
      "maxActiveInstances": "1",
      "onFail": {
        "ref": "ActionId_439NO"
      },
      "myDt": "#{format(minusDays(@scheduledStartTime,1),\"YYYY-MM-dd\")}"
    },
    {
      "id": "ActionId_SKpKV",
      "message": "Start Time: #{node.@actualStartTime}\nEnd Time: #{node.@actualEndTime}\n",
      "subject": "FAILURE: Farm WaterRanchHive #{node.myDt}",
      "name": "DefaultAction6",
      "topicArn": "arn:aws:sns:us-west-2:921287511715:report-notification",
      "role": "DataPipelineDefaultRole",
      "type": "SnsAlarm"
    },
    {
      "id": "DataFormatId_TQR2F",
      "name": "HiveInFormat",
      "column": [
        "user_id STRING",
        "app STRING",
        "ts STRING",
        "uid STRING",
        "snsid STRING",
        "install_ts STRING",
        "install_source STRING",
        "country_code STRING",
        "ip STRING",
        "browser STRING",
        "brower_version STRING",
        "os STRING",
        "event STRING",
        "properties STRING",
        "year INT",
        "month INT",
        "day INT",
        "hour"
      ],
      "recordSeparator": "\n",
      "columnSeparator": "\t",
      "type": "Custom"
    },
    {
      "id": "ActivityId_lvkEN",
      "input": {
        "ref": "DataNodeId_2JgQo"
      },
      "schedule": {
        "ref": "ScheduleId_vAYvv"
      },
      "insertMode": "KEEP_EXISTING",
      "name": "ToRedShift3",
      "maxActiveInstances": "1",
      "runsOn": {
        "ref": "ResourceId_hTFIL"
      },
      "dependsOn": {
        "ref": "ActivityId_r1IAw"
      },
      "type": "RedshiftCopyActivity",
      "output": {
        "ref": "DataNodeId_azhgf"
      }
    },
    {
      "id": "ActivityId_3PFQ1",
      "input": {
        "ref": "DataNodeId_Au2gL"
      },
      "schedule": {
        "ref": "ScheduleId_vAYvv"
      },
      "insertMode": "KEEP_EXISTING",
      "name": "dau_copy",
      "maxActiveInstances": "1",
      "runsOn": {
        "ref": "ResourceId_hTFIL"
      },
      "type": "RedshiftCopyActivity",
      "output": {
        "ref": "DataNodeId_sysW8"
      },
      "dependsOn": {
        "ref": "ActivityId_F0US7"
      }
    },
    {
      "id": "DataNodeId_VdlOT",
      "schedule": {
        "ref": "ScheduleId_vAYvv"
      },
      "name": "WaterRanch_3rdscene",
      "directoryPath": "s3://com.funplusgame.emr/results/hive_automation/hive_warehouse/rpt_3rdscene_exp/#{format(minusDays(@scheduledStartTime,1),'YYYYMMdd')}/",
      "dataFormat": {
        "ref": "DataFormatId_l4hUD"
      },
      "type": "S3DataNode"
    },
    {
      "id": "ActivityId_chxsa",
      "input": {
        "ref": "DataNodeId_iLnQu"
      },
      "schedule": {
        "ref": "ScheduleId_vAYvv"
      },
      "insertMode": "KEEP_EXISTING",
      "name": "ToRedshift",
      "maxActiveInstances": "1",
      "runsOn": {
        "ref": "ResourceId_hTFIL"
      },
      "dependsOn": {
        "ref": "ActivityId_r1IAw"
      },
      "output": {
        "ref": "DataNodeId_ZEyPT"
      },
      "type": "RedshiftCopyActivity"
    },
    {
      "id": "ActionId_3GvMr",
      "message": "Start Time: #{node.@actualStartTime}\nEnd Time: #{node.@actualEndTime}\n",
      "subject": "SUCCESS: Farm WaterRanchHive #{node.myDt}",
      "name": "DefaultAction5",
      "topicArn": "arn:aws:sns:us-west-2:921287511715:report-notification",
      "role": "DataPipelineDefaultRole",
      "type": "SnsAlarm"
    },
    {
      "id": "DataNodeId_WdiVr",
      "schedule": {
        "ref": "ScheduleId_vAYvv"
      },
      "directoryPath": "s3://com.funplusgame.emr/results/hive_automation/hive_warehouse/app_user/#{format(minusDays(@scheduledStartTime,1),'YYYYMMdd')}/",
      "name": "app_user",
      "dataFormat": {
        "ref": "DataFormatId_l4hUD"
      },
      "type": "S3DataNode"
    },
    {
      "id": "DataFormatId_l4hUD",
      "name": "TSV",
      "type": "TSV"
    }
  ]
}