{
  "objects": [
    {
      "name": "FailureNotification",
      "id": "ActionId_NIYB0",
      "message": "Start Time: #{node.@actualStartTime}\nEnd Time: #{node.@actualEndTime}\n#{node.errorMessage}\n#{node.errorStackTrace}",
      "subject": "FAILURE: raw_submarine from farm.xx.prod #{node.name} #{format(minusHours(node.@scheduledStartTime,1),\"YYYY/MM/dd/HH\")}",
      "role": "DataPipelineDefaultRole",
      "topicArn": "arn:aws:sns:us-west-2:921287511715:data-notification",
      "type": "SnsAlarm"
    },
    {
      "name": "farm.fr.prod",
      "id": "DataNodeId_8ECTx",
      "schedule": {
        "ref": "DefaultSchedule"
      },
      "directoryPath": "s3://com.funplus.datawarehouse/farm_1_1/events/submarine/app=farm.fr.prod/year=#{format(minusDays(@scheduledStartTime,1),'YYYY')}/month=#{format(minusDays(@scheduledStartTime,1),'MM')}/day=#{format(minusDays(@scheduledStartTime,1),'dd')}/",
      "dataFormat": {
        "ref": "DataFormatId_VUMhh"
      },
      "type": "S3DataNode"
    },
    {
      "name": "farm.nl.prod",
      "id": "DataNodeId_gattO",
      "schedule": {
        "ref": "DefaultSchedule"
      },
      "directoryPath": "s3://com.funplus.datawarehouse/farm_1_1/events/submarine/app=farm.nl.prod/year=#{format(minusDays(@scheduledStartTime,1),'YYYY')}/month=#{format(minusDays(@scheduledStartTime,1),'MM')}/day=#{format(minusDays(@scheduledStartTime,1),'dd')}/",
      "dataFormat": {
        "ref": "DataFormatId_VUMhh"
      },
      "type": "S3DataNode"
    },
    {
      "name": "CopyDE",
      "id": "ActivityId_vhfpq",
      "input": {
        "ref": "DataNodeId_QeEv8"
      },
      "schedule": {
        "ref": "DefaultSchedule"
      },
      "stdout": "s3://com.funplusgame.emr/logs/scripts/farm.de.prod/#{format(@scheduledStartTime,\"YYYY/MM/dd\")}/stdout",
      "command": "/usr/bin/python /mnt/ephemeral/analytics/python/copy_to_redshift.py  -c=/mnt/ephemeral/analytics/python/conf/farm.yaml  --table=raw_submarine --s3path=s3://com.funplus.datawarehouse/farm_1_1/events/submarine/app=farm.de.prod/year=#{format(minusDays(@scheduledStartTime,1),'YYYY')}/month=#{format(minusDays(@scheduledStartTime,1),'MM')}/day=#{format(minusDays(@scheduledStartTime,1),'dd')}/ --command-options=json,s3://com.funplusgame.bidata/dev/jsonpaths/raw_submarine.json,gzip --pre-sql=\"delete from raw_submarine where app='farm.de.prod' and trunc(ts) ='#{format(minusDays(@scheduledStartTime,1),'YYYY-MM-dd')}';\"",
      "maxActiveInstances": "1",
      "onSuccess": {
        "ref": "ActionId_KyGxM"
      },
      "onFail": {
        "ref": "ActionId_NIYB0"
      },
      "workerGroup": "dota",
      "stderr": "s3://com.funplusgame.emr/logs/scripts/farm.de.prod/#{format(@scheduledStartTime,\"YYYY/MM/dd\")}/stderr",
      "type": "ShellCommandActivity",
      "stage": "true"
    },
    {
      "name": "farm.vz.prod",
      "id": "DataNodeId_P7G8u",
      "schedule": {
        "ref": "DefaultSchedule"
      },
      "directoryPath": "s3://com.funplus.datawarehouse/farm_1_1/events/submarine/app=farm.vz.prod/year=#{format(minusDays(@scheduledStartTime,1),'YYYY')}/month=#{format(minusDays(@scheduledStartTime,1),'MM')}/day=#{format(minusDays(@scheduledStartTime,1),'dd')}/",
      "dataFormat": {
        "ref": "DataFormatId_VUMhh"
      },
      "type": "S3DataNode"
    },
    {
      "name": "CopyFR",
      "id": "ActivityId_sbcxe",
      "input": {
        "ref": "DataNodeId_8ECTx"
      },
      "schedule": {
        "ref": "DefaultSchedule"
      },
      "stdout": "s3://com.funplusgame.emr/logs/scripts/farm.fr.prod/#{format(@scheduledStartTime,\"YYYY/MM/dd\")}/stdout",
      "maxActiveInstances": "1",
      "command": "/usr/bin/python /mnt/ephemeral/analytics/python/copy_to_redshift.py  -c=/mnt/ephemeral/analytics/python/conf/farm.yaml  --table=raw_submarine --s3path=s3://com.funplus.datawarehouse/farm_1_1/events/submarine/app=farm.fr.prod/year=#{format(minusDays(@scheduledStartTime,1),'YYYY')}/month=#{format(minusDays(@scheduledStartTime,1),'MM')}/day=#{format(minusDays(@scheduledStartTime,1),'dd')}/ --command-options=json,s3://com.funplusgame.bidata/dev/jsonpaths/raw_submarine.json,gzip --pre-sql=\"delete from raw_submarine where app='farm.fr.prod' and trunc(ts) ='#{format(minusDays(@scheduledStartTime,1),'YYYY-MM-dd')}';\"",
      "onSuccess": {
        "ref": "ActionId_KyGxM"
      },
      "onFail": {
        "ref": "ActionId_NIYB0"
      },
      "workerGroup": "dota",
      "stderr": "s3://com.funplusgame.emr/logs/scripts/farm.fr.prod/#{format(@scheduledStartTime,\"YYYY/MM/dd\")}/stderr",
      "type": "ShellCommandActivity",
      "stage": "true"
    },
    {
      "name": "farm.hyves.prod",
      "id": "DataNodeId_MEWS8",
      "schedule": {
        "ref": "DefaultSchedule"
      },
      "directoryPath": "s3://com.funplus.datawarehouse/farm_1_1/events/submarine/app=farm.hyves.prod/year=#{format(minusDays(@scheduledStartTime,1),'YYYY')}/month=#{format(minusDays(@scheduledStartTime,1),'MM')}/day=#{format(minusDays(@scheduledStartTime,1),'dd')}/",
      "dataFormat": {
        "ref": "DataFormatId_VUMhh"
      },
      "type": "S3DataNode"
    },
    {
      "name": "farm.us.prod",
      "id": "DataNodeId_UdMWG",
      "schedule": {
        "ref": "DefaultSchedule"
      },
      "directoryPath": "s3://com.funplus.datawarehouse/farm_1_1/events/submarine/app=farm.us.prod/year=#{format(minusDays(@scheduledStartTime,1),'YYYY')}/month=#{format(minusDays(@scheduledStartTime,1),'MM')}/day=#{format(minusDays(@scheduledStartTime,1),'dd')}/",
      "dataFormat": {
        "ref": "DataFormatId_VUMhh"
      },
      "type": "S3DataNode"
    },
    {
      "name": "farm.it.prod",
      "id": "DataNodeId_Hf1KA",
      "schedule": {
        "ref": "DefaultSchedule"
      },
      "directoryPath": "s3://com.funplus.datawarehouse/farm_1_1/events/submarine/app=farm.it.prod/year=#{format(minusDays(@scheduledStartTime,1),'YYYY')}/month=#{format(minusDays(@scheduledStartTime,1),'MM')}/day=#{format(minusDays(@scheduledStartTime,1),'dd')}/",
      "dataFormat": {
        "ref": "DataFormatId_VUMhh"
      },
      "type": "S3DataNode"
    },
    {
      "name": "farm.th.prod",
      "id": "DataNodeId_6i0OF",
      "schedule": {
        "ref": "DefaultSchedule"
      },
      "directoryPath": "s3://com.funplus.datawarehouse/farm_1_1/events/submarine/app=farm.th.prod/year=#{format(minusDays(@scheduledStartTime,1),'YYYY')}/month=#{format(minusDays(@scheduledStartTime,1),'MM')}/day=#{format(minusDays(@scheduledStartTime,1),'dd')}/",
      "dataFormat": {
        "ref": "DataFormatId_VUMhh"
      },
      "type": "S3DataNode"
    },
    {
      "name": "JSON",
      "id": "DataFormatId_VUMhh",
      "columnSeparator": "\n",
      "type": "Custom"
    },
    {
      "name": "farm.spil.prod",
      "id": "DataNodeId_pGJnX",
      "schedule": {
        "ref": "DefaultSchedule"
      },
      "directoryPath": "s3://com.funplus.datawarehouse/farm_1_1/events/submarine/app=farm.spil.prod/year=#{format(minusDays(@scheduledStartTime,1),'YYYY')}/month=#{format(minusDays(@scheduledStartTime,1),'MM')}/day=#{format(minusDays(@scheduledStartTime,1),'dd')}/",
      "dataFormat": {
        "ref": "DataFormatId_VUMhh"
      },
      "type": "S3DataNode"
    },
    {
      "name": "TSV",
      "id": "DataFormatId_tKIH1",
      "type": "TSV"
    },
    {
      "name": "CopyTH",
      "id": "ActivityId_PiLwj",
      "input": {
        "ref": "DataNodeId_6i0OF"
      },
      "schedule": {
        "ref": "DefaultSchedule"
      },
      "stdout": "s3://com.funplusgame.emr/logs/scripts/farm.th.prod/#{format(@scheduledStartTime,\"YYYY/MM/dd\")}/stdout",
      "maxActiveInstances": "1",
      "command": "/usr/bin/python /mnt/ephemeral/analytics/python/copy_to_redshift.py  -c=/mnt/ephemeral/analytics/python/conf/farm.yaml  --table=raw_submarine --s3path=s3://com.funplus.datawarehouse/farm_1_1/events/submarine/app=farm.th.prod/year=#{format(minusDays(@scheduledStartTime,1),'YYYY')}/month=#{format(minusDays(@scheduledStartTime,1),'MM')}/day=#{format(minusDays(@scheduledStartTime,1),'dd')}/ --command-options=json,s3://com.funplusgame.bidata/dev/jsonpaths/raw_submarine.json,gzip --pre-sql=\"delete from raw_submarine where app='farm.th.prod' and trunc(ts) ='#{format(minusDays(@scheduledStartTime,1),'YYYY-MM-dd')}';\"",
      "onSuccess": {
        "ref": "ActionId_KyGxM"
      },
      "onFail": {
        "ref": "ActionId_NIYB0"
      },
      "workerGroup": "dota",
      "stderr": "s3://com.funplusgame.emr/logs/scripts/farm.th.prod/#{format(@scheduledStartTime,\"YYYY/MM/dd\")}/stderr",
      "type": "ShellCommandActivity",
      "stage": "true"
    },
    {
      "name": "CopyNL",
      "id": "ActivityId_Hg9UR",
      "input": {
        "ref": "DataNodeId_gattO"
      },
      "schedule": {
        "ref": "DefaultSchedule"
      },
      "stdout": "s3://com.funplusgame.emr/logs/scripts/farm.nl.prod/#{format(@scheduledStartTime,\"YYYY/MM/dd\")}/stdout",
      "command": "/usr/bin/python /mnt/ephemeral/analytics/python/copy_to_redshift.py  -c=/mnt/ephemeral/analytics/python/conf/farm.yaml  --table=raw_submarine --s3path=s3://com.funplus.datawarehouse/farm_1_1/events/submarine/app=farm.nl.prod/year=#{format(minusDays(@scheduledStartTime,1),'YYYY')}/month=#{format(minusDays(@scheduledStartTime,1),'MM')}/day=#{format(minusDays(@scheduledStartTime,1),'dd')}/ --command-options=json,s3://com.funplusgame.bidata/dev/jsonpaths/raw_submarine.json,gzip --pre-sql=\"delete from raw_submarine where app='farm.nl.prod' and trunc(ts) ='#{format(minusDays(@scheduledStartTime,1),'YYYY-MM-dd')}';\"",
      "onSuccess": {
        "ref": "ActionId_KyGxM"
      },
      "onFail": {
        "ref": "ActionId_NIYB0"
      },
      "workerGroup": "dota",
      "stderr": "s3://com.funplusgame.emr/logs/scripts/farm.nl.prod/#{format(@scheduledStartTime,\"YYYY/MM/dd\")}/stderr",
      "type": "ShellCommandActivity",
      "stage": "true"
    },
    {
      "name": "SuccessNotification",
      "id": "ActionId_KyGxM",
      "message": "Start Time: #{node.@actualStartTime}\nEnd Time: #{node.@actualEndTime}",
      "subject": "SUCCESS: raw_submarine from farm.xx.prod #{node.name} #{format(minusHours(node.@scheduledStartTime,1),\"YYYY/MM/dd/HH\")}\n",
      "role": "DataPipelineDefaultRole",
      "topicArn": "arn:aws:sns:us-west-2:921287511715:data-notification",
      "type": "SnsAlarm"
    },
    {
      "name": "CopyNK",
      "id": "ActivityId_I4MqR",
      "input": {
        "ref": "DataNodeId_YbhJV"
      },
      "schedule": {
        "ref": "DefaultSchedule"
      },
      "stdout": "s3://com.funplusgame.emr/logs/scripts/farm.nk.prod/#{format(@scheduledStartTime,\"YYYY/MM/dd\")}/stdout",
      "maxActiveInstances": "1",
      "command": "/usr/bin/python /mnt/ephemeral/analytics/python/copy_to_redshift.py  -c=/mnt/ephemeral/analytics/python/conf/farm.yaml  --table=raw_submarine --s3path=s3://com.funplus.datawarehouse/farm_1_1/events/submarine/app=farm.nk.prod/year=#{format(minusDays(@scheduledStartTime,1),'YYYY')}/month=#{format(minusDays(@scheduledStartTime,1),'MM')}/day=#{format(minusDays(@scheduledStartTime,1),'dd')}/ --command-options=json,s3://com.funplusgame.bidata/dev/jsonpaths/raw_submarine.json,gzip --pre-sql=\"delete from raw_submarine where app='farm.nk.prod' and trunc(ts) ='#{format(minusDays(@scheduledStartTime,1),'YYYY-MM-dd')}';\"",
      "onSuccess": {
        "ref": "ActionId_KyGxM"
      },
      "onFail": {
        "ref": "ActionId_NIYB0"
      },
      "workerGroup": "dota",
      "stderr": "s3://com.funplusgame.emr/logs/scripts/farm.nk.prod/#{format(@scheduledStartTime,\"YYYY/MM/dd\")}/stderr",
      "type": "ShellCommandActivity",
      "stage": "true"
    },
    {
      "name": "CopyIT",
      "id": "ActivityId_LaXon",
      "input": {
        "ref": "DataNodeId_Hf1KA"
      },
      "schedule": {
        "ref": "DefaultSchedule"
      },
      "stdout": "s3://com.funplusgame.emr/logs/scripts/farm.it.prod/#{format(@scheduledStartTime,\"YYYY/MM/dd\")}/stdout",
      "maxActiveInstances": "1",
      "command": "/usr/bin/python /mnt/ephemeral/analytics/python/copy_to_redshift.py  -c=/mnt/ephemeral/analytics/python/conf/farm.yaml  --table=raw_submarine --s3path=s3://com.funplus.datawarehouse/farm_1_1/events/submarine/app=farm.it.prod/year=#{format(minusDays(@scheduledStartTime,1),'YYYY')}/month=#{format(minusDays(@scheduledStartTime,1),'MM')}/day=#{format(minusDays(@scheduledStartTime,1),'dd')}/ --command-options=json,s3://com.funplusgame.bidata/dev/jsonpaths/raw_submarine.json,gzip --pre-sql=\"delete from raw_submarine where app='farm.it.prod' and trunc(ts) ='#{format(minusDays(@scheduledStartTime,1),'YYYY-MM-dd')}';\"",
      "onSuccess": {
        "ref": "ActionId_KyGxM"
      },
      "onFail": {
        "ref": "ActionId_NIYB0"
      },
      "workerGroup": "dota",
      "stderr": "s3://com.funplusgame.emr/logs/scripts/farm.it.prod/#{format(@scheduledStartTime,\"YYYY/MM/dd\")}/stderr",
      "type": "ShellCommandActivity",
      "stage": "true"
    },
    {
      "name": "CopyUS",
      "id": "ActivityId_CoEHz",
      "input": {
        "ref": "DataNodeId_UdMWG"
      },
      "schedule": {
        "ref": "DefaultSchedule"
      },
      "stdout": "s3://com.funplusgame.emr/logs/scripts/farm.us.prod/#{format(@scheduledStartTime,\"YYYY/MM/dd\")}/stdout",
      "maxActiveInstances": "1",
      "command": "/usr/bin/python /mnt/ephemeral/analytics/python/copy_to_redshift.py  -c=/mnt/ephemeral/analytics/python/conf/farm.yaml  --table=raw_submarine --s3path=s3://com.funplus.datawarehouse/farm_1_1/events/submarine/app=farm.us.prod/year=#{format(minusDays(@scheduledStartTime,1),'YYYY')}/month=#{format(minusDays(@scheduledStartTime,1),'MM')}/day=#{format(minusDays(@scheduledStartTime,1),'dd')}/ --command-options=json,s3://com.funplusgame.bidata/dev/jsonpaths/raw_submarine.json,gzip --pre-sql=\"delete from raw_submarine where app='farm.us.prod' and trunc(ts) ='#{format(minusDays(@scheduledStartTime,1),'YYYY-MM-dd')}';\"",
      "onSuccess": {
        "ref": "ActionId_KyGxM"
      },
      "onFail": {
        "ref": "ActionId_NIYB0"
      },
      "workerGroup": "dota",
      "stderr": "s3://com.funplusgame.emr/logs/scripts/farm.us.prod/#{format(@scheduledStartTime,\"YYYY/MM/dd\")}/stderr",
      "type": "ShellCommandActivity",
      "stage": "true"
    },
    {
      "name": "farm.pl.prod",
      "id": "DataNodeId_gsArr",
      "schedule": {
        "ref": "DefaultSchedule"
      },
      "directoryPath": "s3://com.funplus.datawarehouse/farm_1_1/events/submarine/app=farm.pl.prod/year=#{format(minusDays(@scheduledStartTime,1),'YYYY')}/month=#{format(minusDays(@scheduledStartTime,1),'MM')}/day=#{format(minusDays(@scheduledStartTime,1),'dd')}/",
      "dataFormat": {
        "ref": "DataFormatId_VUMhh"
      },
      "type": "S3DataNode"
    },
    {
      "name": "CopySPIL",
      "id": "ActivityId_LaJgz",
      "input": {
        "ref": "DataNodeId_pGJnX"
      },
      "schedule": {
        "ref": "DefaultSchedule"
      },
      "stdout": "s3://com.funplusgame.emr/logs/scripts/farm.spil.prod/#{format(@scheduledStartTime,\"YYYY/MM/dd\")}/stdout",
      "maxActiveInstances": "1",
      "command": "/usr/bin/python /mnt/ephemeral/analytics/python/copy_to_redshift.py  -c=/mnt/ephemeral/analytics/python/conf/farm.yaml  --table=raw_submarine --s3path=s3://com.funplus.datawarehouse/farm_1_1/events/submarine/app=farm.spil.prod/year=#{format(minusDays(@scheduledStartTime,1),'YYYY')}/month=#{format(minusDays(@scheduledStartTime,1),'MM')}/day=#{format(minusDays(@scheduledStartTime,1),'dd')}/ --command-options=json,s3://com.funplusgame.bidata/dev/jsonpaths/raw_submarine.json,gzip --pre-sql=\"delete from raw_submarine where app='farm.spil.prod' and trunc(ts) ='#{format(minusDays(@scheduledStartTime,1),'YYYY-MM-dd')}';\"",
      "onSuccess": {
        "ref": "ActionId_KyGxM"
      },
      "onFail": {
        "ref": "ActionId_NIYB0"
      },
      "workerGroup": "dota",
      "stderr": "s3://com.funplusgame.emr/logs/scripts/farm.spil.prod/#{format(@scheduledStartTime,\"YYYY/MM/dd\")}/stderr",
      "type": "ShellCommandActivity",
      "stage": "true"
    },
    {
      "name": "farm.br.prod",
      "id": "DataNodeId_2AEup",
      "schedule": {
        "ref": "DefaultSchedule"
      },
      "directoryPath": "s3://com.funplus.datawarehouse/farm_1_1/events/submarine/app=farm.br.prod/year=#{format(minusDays(@scheduledStartTime,1),'YYYY')}/month=#{format(minusDays(@scheduledStartTime,1),'MM')}/day=#{format(minusDays(@scheduledStartTime,1),'dd')}/",
      "dataFormat": {
        "ref": "DataFormatId_VUMhh"
      },
      "type": "S3DataNode"
    },
    {
      "name": "RedShiftDatabase",
      "id": "RedshiftDatabaseId_ghoOt",
      "databaseName": "farm",
      "username": "biadmin",
      "*password": "Halfquest_2014",
      "type": "RedshiftDatabase",
      "clusterId": "bicluster-farm"
    },
    {
      "name": "farm.nk.prod",
      "id": "DataNodeId_YbhJV",
      "schedule": {
        "ref": "DefaultSchedule"
      },
      "directoryPath": "s3://com.funplus.datawarehouse/farm_1_1/events/submarine/app=farm.nk.prod/year=#{format(minusDays(@scheduledStartTime,1),'YYYY')}/month=#{format(minusDays(@scheduledStartTime,1),'MM')}/day=#{format(minusDays(@scheduledStartTime,1),'dd')}/",
      "dataFormat": {
        "ref": "DataFormatId_VUMhh"
      },
      "type": "S3DataNode"
    },
    {
      "name": "CopyBR",
      "id": "ActivityId_qGceK",
      "input": {
        "ref": "DataNodeId_2AEup"
      },
      "schedule": {
        "ref": "DefaultSchedule"
      },
      "stdout": "s3://com.funplusgame.emr/logs/scripts/farm.br.prod/#{format(@scheduledStartTime,\"YYYY/MM/dd\")}/stdout",
      "maxActiveInstances": "1",
      "command": "/usr/bin/python /mnt/ephemeral/analytics/python/copy_to_redshift.py  -c=/mnt/ephemeral/analytics/python/conf/farm.yaml  --table=raw_submarine --s3path=s3://com.funplus.datawarehouse/farm_1_1/events/submarine/app=farm.br.prod/year=#{format(minusDays(@scheduledStartTime,1),'YYYY')}/month=#{format(minusDays(@scheduledStartTime,1),'MM')}/day=#{format(minusDays(@scheduledStartTime,1),'dd')}/ --command-options=json,s3://com.funplusgame.bidata/dev/jsonpaths/raw_submarine.json,gzip --pre-sql=\"delete from raw_submarine where app='farm.br.prod' and trunc(ts) ='#{format(minusDays(@scheduledStartTime,1),'YYYY-MM-dd')}';\"",
      "onSuccess": {
        "ref": "ActionId_KyGxM"
      },
      "onFail": {
        "ref": "ActionId_NIYB0"
      },
      "stderr": "s3://com.funplusgame.emr/logs/scripts/farm.br.prod/#{format(@scheduledStartTime,\"YYYY/MM/dd\")}/stderr",
      "workerGroup": "dota",
      "type": "ShellCommandActivity",
      "stage": "true"
    },
    {
      "name": "farm.tw.prod",
      "id": "DataNodeId_OddzD",
      "schedule": {
        "ref": "DefaultSchedule"
      },
      "directoryPath": "s3://com.funplus.datawarehouse/farm_1_1/events/submarine/app=farm.tw.prod/year=#{format(minusDays(@scheduledStartTime,1),'YYYY')}/month=#{format(minusDays(@scheduledStartTime,1),'MM')}/day=#{format(minusDays(@scheduledStartTime,1),'dd')}/",
      "dataFormat": {
        "ref": "DataFormatId_VUMhh"
      },
      "type": "S3DataNode"
    },
    {
      "name": "CopyVZ",
      "id": "ActivityId_qdLfD",
      "input": {
        "ref": "DataNodeId_P7G8u"
      },
      "schedule": {
        "ref": "DefaultSchedule"
      },
      "stdout": "s3://com.funplusgame.emr/logs/scripts/farm.vz.prod/#{format(@scheduledStartTime,\"YYYY/MM/dd\")}/stdout",
      "maxActiveInstances": "1",
      "command": "/usr/bin/python /mnt/ephemeral/analytics/python/copy_to_redshift.py  -c=/mnt/ephemeral/analytics/python/conf/farm.yaml  --table=raw_submarine --s3path=s3://com.funplus.datawarehouse/farm_1_1/events/submarine/app=farm.vz.prod/year=#{format(minusDays(@scheduledStartTime,1),'YYYY')}/month=#{format(minusDays(@scheduledStartTime,1),'MM')}/day=#{format(minusDays(@scheduledStartTime,1),'dd')}/ --command-options=json,s3://com.funplusgame.bidata/dev/jsonpaths/raw_submarine.json,gzip --pre-sql=\"delete from raw_submarine where app='farm.vz.prod' and trunc(ts) ='#{format(minusDays(@scheduledStartTime,1),'YYYY-MM-dd')}';\"",
      "onSuccess": {
        "ref": "ActionId_KyGxM"
      },
      "onFail": {
        "ref": "ActionId_NIYB0"
      },
      "workerGroup": "dota",
      "stderr": "s3://com.funplusgame.emr/logs/scripts/farm.vz.prod/#{format(@scheduledStartTime,\"YYYY/MM/dd\")}/stderr",
      "type": "ShellCommandActivity",
      "stage": "true"
    },
    {
      "name": "DataNotExistsNotification",
      "id": "ActionId_T8nzr",
      "message": "Start Time: #",
      "subject": "FAILURE: NO INPUT FOUND raw_submarine from farm.xx.prod #{node.name} #{format(minusHours(node.@scheduledStartTime,1),\"YYYY/MM/dd/HH\")}",
      "role": "DataPipelineDefaultRole",
      "topicArn": "arn:aws:sns:us-west-2:921287511715:data-notification",
      "type": "SnsAlarm"
    },
    {
      "name": "Default",
      "id": "Default",
      "scheduleType": "CRON",
      "failureAndRerunMode": "CASCADE",
      "schedule": {
        "ref": "DefaultSchedule"
      },
      "pipelineLogUri": "s3://com.funplusgame.emr/logs/",
      "role": "DataPipelineDefaultRole",
      "resourceRole": "DataPipelineDefaultResourceRole"
    },
    {
      "name": "CopyPLINGAPLAY",
      "id": "ActivityId_MJLXt",
      "input": {
        "ref": "DataNodeId_YoMks"
      },
      "schedule": {
        "ref": "DefaultSchedule"
      },
      "stdout": "s3://com.funplusgame.emr/logs/scripts/farm.plingaplay.prod/#{format(@scheduledStartTime,\"YYYY/MM/dd\")}/stdout",
      "maxActiveInstances": "1",
      "command": "/usr/bin/python /mnt/ephemeral/analytics/python/copy_to_redshift.py  -c=/mnt/ephemeral/analytics/python/conf/farm.yaml  --table=raw_submarine --s3path=s3://com.funplus.datawarehouse/farm_1_1/events/submarine/app=farm.plingaplay.prod/year=#{format(minusDays(@scheduledStartTime,1),'YYYY')}/month=#{format(minusDays(@scheduledStartTime,1),'MM')}/day=#{format(minusDays(@scheduledStartTime,1),'dd')}/ --command-options=json,s3://com.funplusgame.bidata/dev/jsonpaths/raw_submarine.json,gzip --pre-sql=\"delete from raw_submarine where app='farm.plingaplay.prod' and trunc(ts) ='#{format(minusDays(@scheduledStartTime,1),'YYYY-MM-dd')}';\"",
      "onSuccess": {
        "ref": "ActionId_KyGxM"
      },
      "onFail": {
        "ref": "ActionId_NIYB0"
      },
      "workerGroup": "dota",
      "stderr": "s3://com.funplusgame.emr/logs/scripts/farm.plingaplay.prod/#{format(@scheduledStartTime,\"YYYY/MM/dd\")}/stderr",
      "type": "ShellCommandActivity",
      "stage": "true"
    },
    {
      "name": "farm.plingaplay.prod",
      "id": "DataNodeId_YoMks",
      "schedule": {
        "ref": "DefaultSchedule"
      },
      "directoryPath": "s3://com.funplus.datawarehouse/farm_1_1/events/submarine/app=farm.plingaplay.prod/year=#{format(minusDays(@scheduledStartTime,1),'YYYY')}/month=#{format(minusDays(@scheduledStartTime,1),'MM')}/day=#{format(minusDays(@scheduledStartTime,1),'dd')}/",
      "dataFormat": {
        "ref": "DataFormatId_VUMhh"
      },
      "type": "S3DataNode"
    },
    {
      "name": "CopyTW",
      "id": "ActivityId_WYUX7",
      "input": {
        "ref": "DataNodeId_OddzD"
      },
      "schedule": {
        "ref": "DefaultSchedule"
      },
      "stdout": "s3://com.funplusgame.emr/logs/scripts/farm.tw.prod/#{format(@scheduledStartTime,\"YYYY/MM/dd\")}/stdout",
      "maxActiveInstances": "1",
      "command": "/usr/bin/python /mnt/ephemeral/analytics/python/copy_to_redshift.py  -c=/mnt/ephemeral/analytics/python/conf/farm.yaml  --table=raw_submarine --s3path=s3://com.funplus.datawarehouse/farm_1_1/events/submarine/app=farm.tw.prod/year=#{format(minusDays(@scheduledStartTime,1),'YYYY')}/month=#{format(minusDays(@scheduledStartTime,1),'MM')}/day=#{format(minusDays(@scheduledStartTime,1),'dd')}/ --command-options=json,s3://com.funplusgame.bidata/dev/jsonpaths/raw_submarine.json,gzip --pre-sql=\"delete from raw_submarine where app='farm.tw.prod' and trunc(ts) ='#{format(minusDays(@scheduledStartTime,1),'YYYY-MM-dd')}';\"",
      "onSuccess": {
        "ref": "ActionId_KyGxM"
      },
      "onFail": {
        "ref": "ActionId_NIYB0"
      },
      "workerGroup": "dota",
      "stderr": "s3://com.funplusgame.emr/logs/scripts/farm.tw.prod/#{format(@scheduledStartTime,\"YYYY/MM/dd\")}/stderr",
      "type": "ShellCommandActivity",
      "stage": "true"
    },
    {
      "name": "farm.de.prod",
      "id": "DataNodeId_QeEv8",
      "schedule": {
        "ref": "DefaultSchedule"
      },
      "directoryPath": "s3://com.funplus.datawarehouse/farm_1_1/events/submarine/app=farm.de.prod/year=#{format(minusDays(@scheduledStartTime,1),'YYYY')}/month=#{format(minusDays(@scheduledStartTime,1),'MM')}/day=#{format(minusDays(@scheduledStartTime,1),'dd')}/",
      "dataFormat": {
        "ref": "DataFormatId_VUMhh"
      },
      "type": "S3DataNode"
    },
    {
      "name": "Every 1 day",
      "id": "DefaultSchedule",
      "startDateTime": "2014-12-17T00:00:00",
      "type": "Schedule",
      "period": "1 days",
      "endDateTime": "2015-01-01T00:00:00"
    },
    {
      "name": "CopyPL",
      "id": "ActivityId_hgm3A",
      "input": {
        "ref": "DataNodeId_gsArr"
      },
      "schedule": {
        "ref": "DefaultSchedule"
      },
      "stdout": "s3://com.funplusgame.emr/logs/scripts/farm.pl.prod/#{format(@scheduledStartTime,\"YYYY/MM/dd\")}/stdout",
      "maxActiveInstances": "1",
      "command": "/usr/bin/python /mnt/ephemeral/analytics/python/copy_to_redshift.py  -c=/mnt/ephemeral/analytics/python/conf/farm.yaml  --table=raw_submarine --s3path=s3://com.funplus.datawarehouse/farm_1_1/events/submarine/app=farm.pl.prod/year=#{format(minusDays(@scheduledStartTime,1),'YYYY')}/month=#{format(minusDays(@scheduledStartTime,1),'MM')}/day=#{format(minusDays(@scheduledStartTime,1),'dd')}/ --command-options=json,s3://com.funplusgame.bidata/dev/jsonpaths/raw_submarine.json,gzip --pre-sql=\"delete from raw_submarine where app='farm.pl.prod' and trunc(ts) ='#{format(minusDays(@scheduledStartTime,1),'YYYY-MM-dd')}';\"",
      "onSuccess": {
        "ref": "ActionId_KyGxM"
      },
      "onFail": {
        "ref": "ActionId_NIYB0"
      },
      "workerGroup": "dota",
      "stderr": "s3://com.funplusgame.emr/logs/scripts/farm.pl.prod/#{format(@scheduledStartTime,\"YYYY/MM/dd\")}/stderr",
      "type": "ShellCommandActivity",
      "stage": "true"
    },
    {
      "name": "CopyHYVES",
      "id": "ActivityId_jiPAk",
      "input": {
        "ref": "DataNodeId_MEWS8"
      },
      "schedule": {
        "ref": "DefaultSchedule"
      },
      "stdout": "s3://com.funplusgame.emr/logs/scripts/farm.hyves.prod/#{format(@scheduledStartTime,\"YYYY/MM/dd\")}/stdout",
      "maxActiveInstances": "1",
      "command": "/usr/bin/python /mnt/ephemeral/analytics/python/copy_to_redshift.py  -c=/mnt/ephemeral/analytics/python/conf/farm.yaml  --table=raw_submarine --s3path=s3://com.funplus.datawarehouse/farm_1_1/events/submarine/app=farm.hyves.prod/year=#{format(minusDays(@scheduledStartTime,1),'YYYY')}/month=#{format(minusDays(@scheduledStartTime,1),'MM')}/day=#{format(minusDays(@scheduledStartTime,1),'dd')}/ --command-options=json,s3://com.funplusgame.bidata/dev/jsonpaths/raw_submarine.json,gzip --pre-sql=\"delete from raw_submarine where app='farm.hyves.prod' and trunc(ts) ='#{format(minusDays(@scheduledStartTime,1),'YYYY-MM-dd')}';\"",
      "onSuccess": {
        "ref": "ActionId_KyGxM"
      },
      "onFail": {
        "ref": "ActionId_NIYB0"
      },
      "workerGroup": "dota",
      "stderr": "s3://com.funplusgame.emr/logs/scripts/farm.hyves.prod/#{format(@scheduledStartTime,\"YYYY/MM/dd\")}/stderr",
      "type": "ShellCommandActivity",
      "stage": "true"
    }
  ]
}
