{
    "jsonpaths": [
        "$['data_version']",
        "$['app_id']",
        "$['ts']",
        "$['ts_pretty']",
        "$['user_id']",
        "$['session_id']",
        "$['event']",
        "$['properties']",
        "$['collections']"
    ]
}
