{
  "objects": [
    {
      "id": "DataNodeId_vd5fv",
      "schedule": {
        "ref": "DefaultSchedule"
      },
      "name": "S3Raw",
      "directoryPath": "s3://com.funplusgame.bidata/fluentdlegacy/ff2.us.prod/#{format(minusHours(@scheduledStartTime,1),\"YYYY/MM/dd/HH\")}/",
      "dataFormat": {
        "ref": "DataFormatId_tKIH1"
      },
      "type": "S3DataNode"
    },
    {
      "id": "ActivityId_S5Rbj",
      "input": {
        "ref": "DataNodeId_nxF1m"
      },
      "schedule": {
        "ref": "DefaultSchedule"
      },
      "insertMode": "KEEP_EXISTING",
      "name": "ToRedShift",
      "runsOn": {
        "ref": "ResourceId_mORv1"
      },
      "onSuccess": {
        "ref": "ActionId_KyGxM"
      },
      "onFail": {
        "ref": "ActionId_NIYB0"
      },
      "type": "RedshiftCopyActivity",
      "output": {
        "ref": "DataNodeId_50zwf"
      }
    },
    {
      "id": "DataNodeId_nxF1m",
      "schedule": {
        "ref": "DefaultSchedule"
      },
      "name": "S3TSV",
      "directoryPath": "s3://com.funplusgame.bidata/etl/results/ff2.us.prod/events/staging/hourly/#{format(minusHours(@scheduledStartTime,1),'YYYY/MM/dd/HH')}/",
      "dataFormat": {
        "ref": "DataFormatId_tKIH1"
      },
      "type": "S3DataNode",
      "compression": "GZIP"
    },
    {
      "message": "Start Time: #{node.@actualStartTime}\nEnd Time: #{node.@actualEndTime}\n#{node.errorMessage}\n#{node.errorStackTrace}",
      "id": "ActionId_NIYB0",
      "subject": "FAILURE: ADHOC HA #{node.name} #{format(minusHours(node.@scheduledStartTime,1),\"YYYY/MM/dd/HH\")}",
      "name": "FailureNotification",
      "role": "DataPipelineDefaultRole",
      "topicArn": "arn:aws:sns:us-west-2:921287511715:data-notification",
      "type": "SnsAlarm"
    },
    {
      "id": "ActionId_KyGxM",
      "message": "Start Time: #{node.@actualStartTime}\nEnd Time: #{node.@actualEndTime}",
      "subject": "SUCCESS: ADHOC HA #{node.name} #{format(minusHours(node.@scheduledStartTime,1),\"YYYY/MM/dd/HH\")}\n",
      "name": "SuccessNotification",
      "role": "DataPipelineDefaultRole",
      "topicArn": "arn:aws:sns:us-west-2:921287511715:data-notification",
      "type": "SnsAlarm"
    },
    {
      "id": "Default",
      "scheduleType": "CRON",
      "failureAndRerunMode": "CASCADE",
      "schedule": {
        "ref": "DefaultSchedule"
      },
      "name": "Default",
      "pipelineLogUri": "s3://com.funplusgame.emr/logs/",
      "role": "DataPipelineDefaultRole",
      "resourceRole": "DataPipelineDefaultResourceRole"
    },
    {
      "id": "DataNodeId_Nw4L7",
      "schedule": {
        "ref": "DefaultSchedule"
      },
      "directoryPath": "s3://com.funplusgame.bidata/ff2/us/prod/",
      "name": "S3Source",
      "dataFormat": {
        "ref": "DataFormatId_tKIH1"
      },
      "type": "S3DataNode"
    },
    {
      "id": "RedshiftDatabaseId_ghoOt",
      "databaseName": "ff2pc",
      "username": "biadmin",
      "name": "RedShiftDatabase",
      "*password": "Halfquest_2014",
      "type": "RedshiftDatabase",
      "clusterId": "bicluster"
    },
    {
      "id": "DefaultSchedule",
      "startDateTime": "2014-09-22T03:30:00",
      "endDateTime": "2014-09-22T23:30:00",
      "name": "Every 1 hour",
      "type": "Schedule",
      "period": "1 hours"
    },
    {
      "id": "DataFormatId_tKIH1",
      "name": "TSV",
      "type": "TSV"
    },
    {
      "id": "DataNodeId_50zwf",
      "schedule": {
        "ref": "DefaultSchedule"
      },
      "tableName": "events_raw",
      "name": "RedShiftTable",
      "type": "RedshiftDataNode",
      "database": {
        "ref": "RedshiftDatabaseId_ghoOt"
      }
    },
    {
      "id": "ResourceId_mORv1",
      "instanceType": "m1.medium",
      "terminateAfter": "1 Hour",
      "schedule": {
        "ref": "DefaultSchedule"
      },
      "keyPair": "bidev-keypair",
      "name": "HAEC2Resource",
      "logUri": "s3://com.funplusgame.bidata/emr/logs/",
      "role": "DataPipelineDefaultRole",
      "type": "Ec2Resource",
      "resourceRole": "DataPipelineDefaultResourceRole"
    }
  ]
}