{
  "objects": [
    {
      "name": "FactMission2Redshift",
      "id": "ActivityId_yWHtg",
      "schedule": {
        "ref": "DefaultSchedule"
      },
      "maxActiveInstances": "1",
      "command": "/usr/bin/python /mnt/funplus/analytics/python/copy_to_redshift.py  -c=/mnt/funplus/analytics/python/conf/ha_1_2.yaml  --table=processed_new.fact_mission --s3path=s3://com.funplus.datawarehouse/ha_1_2/copy/fact_mission/app=ha.all.prod/dt=#{format(minusDays(@scheduledStartTime,1),'YYYY-MM-dd')}/ --command-options=\"EMPTYASNULL DELIMITER '\\t' GZIP\" --pre-sql=\"delete from processed_new.fact_mission where date = '#{format(minusDays(@scheduledStartTime,1),\"YYYY-MM-dd\")}';\"",
      "lateAfterTimeout": "5 Hours",
      "onFail": {
        "ref": "ActionId_zo69P"
      },
      "workerGroup": "wg-ec2-ha",
      "dependsOn": {
        "ref": "ActivityId_PqlrT"
      },
      "type": "ShellCommandActivity",
      "onLateAction": {
        "ref": "ActionId_NAcg4"
      }
    },
    {
      "name": "RedshiftDatabase",
      "id": "RedshiftDatabaseId_XrVon",
      "databaseName": "ff2pc",
      "username": "biadmin",
      "*password": "Halfquest_2014",
      "clusterId": "bicluster",
      "type": "RedshiftDatabase"
    },
    {
      "name": "FactNewUser2Redshift",
      "id": "ActivityId_CVzZs",
      "schedule": {
        "ref": "DefaultSchedule"
      },
      "maxActiveInstances": "1",
      "command": "/usr/bin/python /mnt/funplus/analytics/python/copy_to_redshift.py  -c=/mnt/funplus/analytics/python/conf/ha_1_2.yaml  --table=processed_new.fact_new_user --s3path=s3://com.funplus.datawarehouse/ha_1_2/copy/fact_new_user/app=ha.all.prod/dt=#{format(minusDays(@scheduledStartTime,1),'YYYY-MM-dd')}/ --command-options=\"EMPTYASNULL DELIMITER '\\t' GZIP\" --pre-sql=\"delete from processed_new.fact_new_user where install_date = '#{format(minusDays(@scheduledStartTime,1),\"YYYY-MM-dd\")}';\"",
      "onFail": {
        "ref": "ActionId_zo69P"
      },
      "workerGroup": "wg-ec2-ha",
      "dependsOn": {
        "ref": "ActivityId_RSuEn"
      },
      "type": "ShellCommandActivity"
    },
    {
      "name": "ExecuteAggKPISql",
      "id": "ActivityId_7jMov",
      "schedule": {
        "ref": "DefaultSchedule"
      },
      "scriptUri": "s3://com.funplusgame.bidata/dev/sql1.2/ha_1_2/agg_kpi.sql",
      "maxActiveInstances": "1",
      "onFail": {
        "ref": "ActionId_zo69P"
      },
      "workerGroup": "wg-ec2-ha",
      "dependsOn": [
        {
          "ref": "ActivityId_Y0a33"
        },
        {
          "ref": "ActivityId_I5jQv"
        },
        {
          "ref": "ActivityId_qkS9M"
        }
      ],
      "type": "SqlActivity",
      "database": {
        "ref": "RedshiftDatabaseId_XrVon"
      }
    },
    {
      "name": "FactItemsTarget",
      "id": "ActivityId_ciJRV",
      "schedule": {
        "ref": "DefaultSchedule"
      },
      "runsOn": {
        "ref": "ResourceId_0mMdo"
      },
      "maxActiveInstances": "1",
      "command": "/home/hadoop/hive/bin/hive -i s3://com.funplus.datawarehouse/sql_logs/ha/app=ha.all.prod/init-ha.all.prod-reports-#{format(minusDays(@scheduledStartTime,1),'YYYYMMddHHmmss')}.hql -f s3://com.funplusgame.bidata/dev/hive/ha_1_2/fact_items_target.hql",
      "onFail": {
        "ref": "ActionId_zo69P"
      },
      "dependsOn": {
        "ref": "ActivityId_NBQOl"
      },
      "type": "ShellCommandActivity"
    },
    {
      "name": "ExecuteAggRetentionSql",
      "id": "ActivityId_zWO1s",
      "schedule": {
        "ref": "DefaultSchedule"
      },
      "scriptUri": "s3://com.funplusgame.bidata/dev/sql1.2/ha_1_2/agg_retention.sql",
      "maxActiveInstances": "1",
      "onFail": {
        "ref": "ActionId_zo69P"
      },
      "workerGroup": "wg-ec2-ha",
      "dependsOn": [
        {
          "ref": "ActivityId_Y0a33"
        },
        {
          "ref": "ActivityId_I5jQv"
        },
        {
          "ref": "ActivityId_qkS9M"
        }
      ],
      "type": "SqlActivity",
      "database": {
        "ref": "RedshiftDatabaseId_XrVon"
      }
    },
    {
      "name": "ExecuteTmpUserDailyLoginSql",
      "id": "ActivityId_R0Hed",
      "schedule": {
        "ref": "DefaultSchedule"
      },
      "scriptUri": "s3://com.funplusgame.bidata/dev/sql1.2/ha_1_2/tmp_user_daily_login.sql",
      "maxActiveInstances": "1",
      "onFail": {
        "ref": "ActionId_zo69P"
      },
      "workerGroup": "wg-ec2-ha",
      "dependsOn": [
        {
          "ref": "ActivityId_YdTeB"
        },
        {
          "ref": "ActivityId_Y0a33"
        }
      ],
      "type": "SqlActivity",
      "database": {
        "ref": "RedshiftDatabaseId_XrVon"
      }
    },
    {
      "name": "FactMissionParameter2Redshift",
      "id": "ActivityId_SEw9X",
      "schedule": {
        "ref": "DefaultSchedule"
      },
      "maxActiveInstances": "1",
      "command": "#/usr/bin/python /mnt/funplus/analytics/python/copy_to_redshift.py  -c=/mnt/funplus/analytics/python/conf/ha_1_2.yaml  --table=processed_new.fact_mission_parameter --s3path=s3://com.funplus.datawarehouse/ha_1_2/copy/fact_mission_parameter/app=ha.all.prod/dt=#{format(minusDays(@scheduledStartTime,1),'YYYY-MM-dd')}/ --command-options=\"EMPTYASNULL DELIMITER '\\t' GZIP\" --pre-sql=\"delete from processed_new.fact_mission_parameter where date = '#{format(minusDays(@scheduledStartTime,1),\"YYYY-MM-dd\")}';\"",
      "lateAfterTimeout": "5 Hours",
      "onFail": {
        "ref": "ActionId_zo69P"
      },
      "workerGroup": "wg-ec2-ha",
      "dependsOn": {
        "ref": "ActivityId_x5g22"
      },
      "type": "ShellCommandActivity",
      "onLateAction": {
        "ref": "ActionId_zo69P"
      }
    },
    {
      "name": "EventsDailyDependencyCheck-AllRawEvents",
      "id": "PreconditionId_cRajL",
      "retryDelay": "5 Minutes",
      "lateAfterTimeout": "5 Hours",
      "role": "DataPipelineDefaultRole",
      "onFail": {
        "ref": "ActionId_AGrl7"
      },
      "s3Prefix": "s3://com.funplus.datawarehouse/semaphores/ha/app=ha.us.prod/job=raw_events/year=#{format(minusDays(@scheduledStartTime,1),'YYYY')}/month=#{format(minusDays(@scheduledStartTime,1),'MM')}/day=#{format(minusDays(@scheduledStartTime,1),'dd')}",
      "type": "S3PrefixNotEmpty",
      "onLateAction": {
        "ref": "ActionId_AGrl7"
      }
    },
    {
      "name": "FactSession",
      "id": "ActivityId_Fgzy2",
      "schedule": {
        "ref": "DefaultSchedule"
      },
      "runsOn": {
        "ref": "ResourceId_0mMdo"
      },
      "maxActiveInstances": "1",
      "command": "/home/hadoop/hive/bin/hive -i s3://com.funplus.datawarehouse/sql_logs/ha/app=ha.all.prod/init-ha.all.prod-reports-#{format(minusDays(@scheduledStartTime,1),'YYYYMMddHHmmss')}.hql -f s3://com.funplusgame.bidata/dev/hive/ha_1_2/fact_session.hql",
      "lateAfterTimeout": "5 Hours",
      "onFail": {
        "ref": "ActionId_zo69P"
      },
      "type": "ShellCommandActivity",
      "dependsOn": {
        "ref": "ActivityId_NBQOl"
      },
      "onLateAction": {
        "ref": "ActionId_NAcg4"
      }
    },
    {
      "name": "FactMissionObjective2Redshift",
      "id": "ActivityId_MG8CV",
      "schedule": {
        "ref": "DefaultSchedule"
      },
      "maxActiveInstances": "1",
      "command": "#/usr/bin/python /mnt/funplus/analytics/python/copy_to_redshift.py  -c=/mnt/funplus/analytics/python/conf/ha_1_2.yaml  --table=processed_new.fact_mission_objective --s3path=s3://com.funplus.datawarehouse/ha_1_2/copy/fact_mission_objective/app=ha.all.prod/dt=#{format(minusDays(@scheduledStartTime,1),'YYYY-MM-dd')}/ --command-options=\"EMPTYASNULL DELIMITER '\\t' GZIP\" --pre-sql=\"delete from processed_new.fact_mission_objective where date = '#{format(minusDays(@scheduledStartTime,1),\"YYYY-MM-dd\")}';\"",
      "onFail": {
        "ref": "ActionId_zo69P"
      },
      "workerGroup": "wg-ec2-ha",
      "dependsOn": {
        "ref": "ActivityId_x5g22"
      },
      "type": "ShellCommandActivity"
    },
    {
      "name": "FactItemsSpent",
      "id": "ActivityId_BD1FQ",
      "schedule": {
        "ref": "DefaultSchedule"
      },
      "runsOn": {
        "ref": "ResourceId_0mMdo"
      },
      "maxActiveInstances": "1",
      "command": "/home/hadoop/hive/bin/hive -i s3://com.funplus.datawarehouse/sql_logs/ha/app=ha.all.prod/init-ha.all.prod-reports-#{format(minusDays(@scheduledStartTime,1),'YYYYMMddHHmmss')}.hql -f s3://com.funplusgame.bidata/dev/hive/ha_1_2/fact_items_spent.hql",
      "onFail": {
        "ref": "ActionId_zo69P"
      },
      "dependsOn": {
        "ref": "ActivityId_NBQOl"
      },
      "type": "ShellCommandActivity"
    },
    {
      "name": "DimUserLevel",
      "id": "ActivityId_SaYRn",
      "schedule": {
        "ref": "DefaultSchedule"
      },
      "runsOn": {
        "ref": "ResourceId_0mMdo"
      },
      "maxActiveInstances": "1",
      "command": "/home/hadoop/hive/bin/hive -i s3://com.funplus.datawarehouse/sql_logs/ha/app=ha.all.prod/init-ha.all.prod-reports-#{format(minusDays(@scheduledStartTime,1),'YYYYMMddHHmmss')}.hql -f s3://com.funplusgame.bidata/dev/hive/ha_1_2/dim_user_level.hql",
      "onFail": {
        "ref": "ActionId_zo69P"
      },
      "dependsOn": {
        "ref": "ActivityId_NBQOl"
      },
      "type": "ShellCommandActivity"
    },
    {
      "name": "HAEmrCluster",
      "id": "ResourceId_0mMdo",
      "terminateAfter": "240 Minutes",
      "amiVersion": "3.4.0",
      "keyPair": "bidev-keypair",
      "schedule": {
        "ref": "DefaultSchedule"
      },
      "masterInstanceType": "m1.medium",
      "coreInstanceType": "c3.2xlarge",
      "bootstrapAction": [
        "s3://com.funplusgame.bidata/dev/scripts/hive_config_setup.sh",
        "s3://com.funplusgame.bidata/dev/hive/jars/hive_fix_bugs.sh"
      ],
      "coreInstanceCount": "10",
      "onFail": {
        "ref": "ActionId_zo69P"
      },
      "type": "EmrCluster"
    },
    {
      "name": "FactResourcesSpent2Redshift",
      "id": "ActivityId_s7h7o",
      "schedule": {
        "ref": "DefaultSchedule"
      },
      "maxActiveInstances": "1",
      "command": "/usr/bin/python /mnt/funplus/analytics/python/copy_to_redshift.py  -c=/mnt/funplus/analytics/python/conf/ha_1_2.yaml  --table=processed_new.fact_resources_spent --s3path=s3://com.funplus.datawarehouse/ha_1_2/copy/fact_resources_spent/app=ha.all.prod/dt=#{format(minusDays(@scheduledStartTime,1),'YYYY-MM-dd')}/ --command-options=\"EMPTYASNULL DELIMITER '\\t' GZIP\" --pre-sql=\"delete from processed_new.fact_resources_spent where date = '#{format(minusDays(@scheduledStartTime,1),\"YYYY-MM-dd\")}';\"",
      "onFail": {
        "ref": "ActionId_zo69P"
      },
      "workerGroup": "wg-ec2-ha",
      "dependsOn": {
        "ref": "ActivityId_VczkB"
      },
      "type": "ShellCommandActivity"
    },
    {
      "name": "FactMissionStatistic2Redshift",
      "id": "ActivityId_jtmWQ",
      "schedule": {
        "ref": "DefaultSchedule"
      },
      "maxActiveInstances": "1",
      "command": "#/usr/bin/python /mnt/funplus/analytics/python/copy_to_redshift.py  -c=/mnt/funplus/analytics/python/conf/ha_1_2.yaml  --table=processed_new.fact_mission_statistic --s3path=s3://com.funplus.datawarehouse/ha_1_2/copy/fact_mission_statistic/app=ha.all.prod/dt=#{format(minusDays(@scheduledStartTime,1),'YYYY-MM-dd')}/ --command-options=\"EMPTYASNULL DELIMITER '\\t' GZIP\" --pre-sql=\"delete from processed_new.fact_mission_statistic where date = '#{format(minusDays(@scheduledStartTime,1),\"YYYY-MM-dd\")}';\"",
      "lateAfterTimeout": "5 Hours",
      "onFail": {
        "ref": "ActionId_zo69P"
      },
      "workerGroup": "wg-ec2-ha",
      "dependsOn": {
        "ref": "ActivityId_x5g22"
      },
      "type": "ShellCommandActivity",
      "onLateAction": {
        "ref": "ActionId_NAcg4"
      }
    },
    {
      "name": "FactNewUser",
      "id": "ActivityId_RSuEn",
      "schedule": {
        "ref": "DefaultSchedule"
      },
      "maxActiveInstances": "1",
      "command": "/home/hadoop/hive/bin/hive -i s3://com.funplus.datawarehouse/sql_logs/ha/app=ha.all.prod/init-ha.all.prod-reports-#{format(minusDays(@scheduledStartTime,1),'YYYYMMddHHmmss')}.hql -f s3://com.funplusgame.bidata/dev/hive/ha_1_2/fact_new_user.hql",
      "runsOn": {
        "ref": "ResourceId_0mMdo"
      },
      "onFail": {
        "ref": "ActionId_zo69P"
      },
      "dependsOn": {
        "ref": "ActivityId_NBQOl"
      },
      "type": "ShellCommandActivity"
    },
    {
      "name": "FactRevenue",
      "id": "ActivityId_RUNZH",
      "schedule": {
        "ref": "DefaultSchedule"
      },
      "runsOn": {
        "ref": "ResourceId_0mMdo"
      },
      "maxActiveInstances": "1",
      "command": "/home/hadoop/hive/bin/hive -i s3://com.funplus.datawarehouse/sql_logs/ha/app=ha.all.prod/init-ha.all.prod-reports-#{format(minusDays(@scheduledStartTime,1),'YYYYMMddHHmmss')}.hql -f s3://com.funplusgame.bidata/dev/hive/ha_1_2/fact_revenue.hql",
      "lateAfterTimeout": "5 Hours",
      "onFail": {
        "ref": "ActionId_zo69P"
      },
      "type": "ShellCommandActivity",
      "dependsOn": {
        "ref": "ActivityId_NBQOl"
      },
      "onLateAction": {
        "ref": "ActionId_NAcg4"
      }
    },
    {
      "name": "ExecuteAggTutorial",
      "id": "ActivityId_dDaWX",
      "schedule": {
        "ref": "DefaultSchedule"
      },
      "scriptUri": "s3://com.funplusgame.bidata/dev/sql1.2/ha_1_2/agg_tutorial.sql",
      "maxActiveInstances": "1",
      "onFail": {
        "ref": "ActionId_zo69P"
      },
      "workerGroup": "wg-ec2-ha",
      "dependsOn": [
        {
          "ref": "ActivityId_8TNZN"
        },
        {
          "ref": "ActivityId_qkS9M"
        }
      ],
      "type": "SqlActivity",
      "database": {
        "ref": "RedshiftDatabaseId_XrVon"
      }
    },
    {
      "name": "ExecuteTmpUserLevelSql",
      "id": "ActivityId_xkY6O",
      "schedule": {
        "ref": "DefaultSchedule"
      },
      "scriptUri": "s3://com.funplusgame.bidata/dev/sql1.2/ha_1_2/tmp_user_level.sql",
      "maxActiveInstances": "1",
      "onFail": {
        "ref": "ActionId_zo69P"
      },
      "workerGroup": "wg-ec2-ha",
      "dependsOn": [
        {
          "ref": "ActivityId_5z715"
        },
        {
          "ref": "ActivityId_Y0a33"
        }
      ],
      "type": "SqlActivity",
      "database": {
        "ref": "RedshiftDatabaseId_XrVon"
      }
    },
    {
      "name": "FactRevenue2Redshift",
      "id": "ActivityId_jOlhb",
      "schedule": {
        "ref": "DefaultSchedule"
      },
      "command": "/usr/bin/python /mnt/funplus/analytics/python/copy_to_redshift.py  -c=/mnt/funplus/analytics/python/conf/ha_1_2.yaml  --table=processed_new.fact_revenue --s3path=s3://com.funplus.datawarehouse/ha_1_2/copy/fact_revenue/app=ha.all.prod/dt=#{format(minusDays(@scheduledStartTime,1),'YYYY-MM-dd')}/ --command-options=\"EMPTYASNULL DELIMITER '\\t' GZIP\" --pre-sql=\"delete from processed_new.fact_revenue where date = '#{format(minusDays(@scheduledStartTime,1),\"YYYY-MM-dd\")}';\"",
      "maxActiveInstances": "1",
      "lateAfterTimeout": "5 Hours",
      "onFail": {
        "ref": "ActionId_zo69P"
      },
      "workerGroup": "wg-ec2-ha",
      "dependsOn": {
        "ref": "ActivityId_RUNZH"
      },
      "type": "ShellCommandActivity",
      "onLateAction": {
        "ref": "ActionId_NAcg4"
      }
    },
    {
      "name": "FactLevelup2Redshift",
      "id": "ActivityId_5z715",
      "schedule": {
        "ref": "DefaultSchedule"
      },
      "command": "/usr/bin/python /mnt/funplus/analytics/python/copy_to_redshift.py  -c=/mnt/funplus/analytics/python/conf/ha_1_2.yaml  --table=processed_new.fact_levelup --s3path=s3://com.funplus.datawarehouse/ha_1_2/copy/fact_levelup/app=ha.all.prod/dt=#{format(minusDays(@scheduledStartTime,1),'YYYY-MM-dd')}/ --command-options=\"EMPTYASNULL DELIMITER '\\t' GZIP\" --pre-sql=\"delete from processed_new.fact_levelup where levelup_date = '#{format(minusDays(@scheduledStartTime,1),\"YYYY-MM-dd\")}';\"",
      "maxActiveInstances": "1",
      "lateAfterTimeout": "5 Hours",
      "onFail": {
        "ref": "ActionId_zo69P"
      },
      "workerGroup": "wg-ec2-ha",
      "dependsOn": {
        "ref": "ActivityId_mMX5X"
      },
      "type": "ShellCommandActivity",
      "onLateAction": {
        "ref": "ActionId_NAcg4"
      }
    },
    {
      "name": "SemaphoreEnd",
      "id": "ActivityId_1Ueaa",
      "schedule": {
        "ref": "DefaultSchedule"
      },
      "runsOn": {
        "ref": "ResourceId_0mMdo"
      },
      "maxActiveInstances": "1",
      "command": "if hadoop fs -test -d s3://com.funplus.datawarehouse/semaphores/ha/app=ha.all.prod/job=reports_kpi/year=#{format(minusDays(@scheduledStartTime,1),'YYYY')}/month=#{format(minusDays(@scheduledStartTime,1),'MM')}/day=#{format(minusDays(@scheduledStartTime,1),'dd')}; then hadoop fs -rmr s3://com.funplus.datawarehouse/semaphores/ha/app=ha.all.prod/job=reports_kpi/year=#{format(minusDays(@scheduledStartTime,1),'YYYY')}/month=#{format(minusDays(@scheduledStartTime,1),'MM')}/day=#{format(minusDays(@scheduledStartTime,1),'dd')}; fi;\necho \"1\" >SUCCESS;\nhadoop fs -mkdir -p s3://com.funplus.datawarehouse/semaphores/ha/app=ha.all.prod/job=reports_kpi/year=#{format(minusDays(@scheduledStartTime,1),'YYYY')}/month=#{format(minusDays(@scheduledStartTime,1),'MM')}/day=#{format(minusDays(@scheduledStartTime,1),'dd')};\nhadoop dfs -put SUCCESS s3://com.funplus.datawarehouse/semaphores/ha/app=ha.all.prod/job=reports_kpi/year=#{format(minusDays(@scheduledStartTime,1),'YYYY')}/month=#{format(minusDays(@scheduledStartTime,1),'MM')}/day=#{format(minusDays(@scheduledStartTime,1),'dd')}/;\n",
      "lateAfterTimeout": "12 Hours",
      "onSuccess": {
        "ref": "ActionId_oZACc"
      },
      "onFail": {
        "ref": "ActionId_zo69P"
      },
      "dependsOn": [
        {
          "ref": "ActivityId_7jMov"
        },
        {
          "ref": "ActivityId_w1qFX"
        },
        {
          "ref": "ActivityId_dAitq"
        },
        {
          "ref": "ActivityId_zWO1s"
        },
        {
          "ref": "ActivityId_h7PsE"
        }
      ],
      "type": "ShellCommandActivity",
      "onLateAction": {
        "ref": "ActionId_NAcg4"
      }
    },
    {
      "name": "SuccessNotification",
      "id": "ActionId_oZACc",
      "message": "Start Time: #{node.@actualStartTime}\nEnd Time: #{node.@actualEndTime}",
      "subject": "SUCCESS: DEV.HA.US.PROD-REPORTS-DAILY #{node.name} #{format(minusDays(node.@scheduledStartTime,1),\"YYYY-MM-dd\")}\n",
      "topicArn": "arn:aws:sns:us-west-2:921287511715:data-notification-dev",
      "role": "DataPipelineDefaultRole",
      "type": "SnsAlarm"
    },
    {
      "name": "FactItemsReceived2Redshift",
      "id": "ActivityId_NLap8",
      "schedule": {
        "ref": "DefaultSchedule"
      },
      "maxActiveInstances": "1",
      "command": "/usr/bin/python /mnt/funplus/analytics/python/copy_to_redshift.py  -c=/mnt/funplus/analytics/python/conf/ha_1_2.yaml  --table=processed_new.fact_items_received --s3path=s3://com.funplus.datawarehouse/ha_1_2/copy/fact_items_received/app=ha.all.prod/dt=#{format(minusDays(@scheduledStartTime,1),'YYYY-MM-dd')}/ --command-options=\"EMPTYASNULL DELIMITER '\\t' GZIP\" --pre-sql=\"delete from processed_new.fact_items_received where date = '#{format(minusDays(@scheduledStartTime,1),\"YYYY-MM-dd\")}';\"",
      "onFail": {
        "ref": "ActionId_zo69P"
      },
      "workerGroup": "wg-ec2-ha",
      "dependsOn": {
        "ref": "ActivityId_VZKGx"
      },
      "type": "ShellCommandActivity"
    },
    {
      "name": "ExecuteTabLevelProgressionSql",
      "id": "ActivityId_h7PsE",
      "schedule": {
        "ref": "DefaultSchedule"
      },
      "scriptUri": "s3://com.funplusgame.bidata/dev/sql1.2/ha_1_2/tab_level_progression.sql",
      "maxActiveInstances": "1",
      "onFail": {
        "ref": "ActionId_zo69P"
      },
      "workerGroup": "wg-ec2-ha",
      "dependsOn": [
        {
          "ref": "ActivityId_qkS9M"
        },
        {
          "ref": "ActivityId_5z715"
        },
        {
          "ref": "ActivityId_I5jQv"
        }
      ],
      "type": "SqlActivity",
      "database": {
        "ref": "RedshiftDatabaseId_XrVon"
      }
    },
    {
      "name": "FactMission",
      "id": "ActivityId_PqlrT",
      "schedule": {
        "ref": "DefaultSchedule"
      },
      "runsOn": {
        "ref": "ResourceId_0mMdo"
      },
      "maxActiveInstances": "1",
      "command": "/home/hadoop/hive/bin/hive -i s3://com.funplus.datawarehouse/sql_logs/ha/app=ha.all.prod/init-ha.all.prod-reports-#{format(minusDays(@scheduledStartTime,1),'YYYYMMddHHmmss')}.hql -f s3://com.funplusgame.bidata/dev/hive/ha_1_2/fact_mission.hql",
      "lateAfterTimeout": "5 Hours",
      "onFail": {
        "ref": "ActionId_zo69P"
      },
      "dependsOn": {
        "ref": "ActivityId_NBQOl"
      },
      "type": "ShellCommandActivity",
      "onLateAction": {
        "ref": "ActionId_NAcg4"
      }
    },
    {
      "name": "FactResourcesSpent",
      "id": "ActivityId_VczkB",
      "schedule": {
        "ref": "DefaultSchedule"
      },
      "runsOn": {
        "ref": "ResourceId_0mMdo"
      },
      "maxActiveInstances": "1",
      "command": "/home/hadoop/hive/bin/hive -i s3://com.funplus.datawarehouse/sql_logs/ha/app=ha.all.prod/init-ha.all.prod-reports-#{format(minusDays(@scheduledStartTime,1),'YYYYMMddHHmmss')}.hql -f s3://com.funplusgame.bidata/dev/hive/ha_1_2/fact_resources_spent.hql",
      "onFail": {
        "ref": "ActionId_zo69P"
      },
      "dependsOn": {
        "ref": "ActivityId_NBQOl"
      },
      "type": "ShellCommandActivity"
    },
    {
      "name": "Default",
      "id": "Default",
      "failureAndRerunMode": "CASCADE",
      "scheduleType": "CRON",
      "schedule": {
        "ref": "DefaultSchedule"
      },
      "pipelineLogUri": "s3://com.funplus.emr/logs/",
      "role": "DataPipelineDefaultRole",
      "resourceRole": "DataPipelineDefaultResourceRole"
    },
    {
      "name": "FactResourcesReceived2Redshift",
      "id": "ActivityId_NN4s2",
      "schedule": {
        "ref": "DefaultSchedule"
      },
      "maxActiveInstances": "1",
      "command": "/usr/bin/python /mnt/funplus/analytics/python/copy_to_redshift.py  -c=/mnt/funplus/analytics/python/conf/ha_1_2.yaml  --table=processed_new.fact_resources_received --s3path=s3://com.funplus.datawarehouse/ha_1_2/copy/fact_resources_received/app=ha.all.prod/dt=#{format(minusDays(@scheduledStartTime,1),'YYYY-MM-dd')}/ --command-options=\"EMPTYASNULL DELIMITER '\\t' GZIP\" --pre-sql=\"delete from processed_new.fact_resources_received where date = '#{format(minusDays(@scheduledStartTime,1),\"YYYY-MM-dd\")}';\"",
      "onFail": {
        "ref": "ActionId_zo69P"
      },
      "workerGroup": "wg-ec2-ha",
      "dependsOn": {
        "ref": "ActivityId_7c6ZP"
      },
      "type": "ShellCommandActivity"
    },
    {
      "name": "FactPlayerResources",
      "id": "ActivityId_LMIQT",
      "schedule": {
        "ref": "DefaultSchedule"
      },
      "runsOn": {
        "ref": "ResourceId_0mMdo"
      },
      "maxActiveInstances": "1",
      "command": "/home/hadoop/hive/bin/hive -i s3://com.funplus.datawarehouse/sql_logs/ha/app=ha.all.prod/init-ha.all.prod-reports-#{format(minusDays(@scheduledStartTime,1),'YYYYMMddHHmmss')}.hql -f s3://com.funplusgame.bidata/dev/hive/ha_1_2/fact_player_resources.hql",
      "onFail": {
        "ref": "ActionId_zo69P"
      },
      "dependsOn": {
        "ref": "ActivityId_NBQOl"
      },
      "type": "ShellCommandActivity"
    },
    {
      "name": "SemaphoreStart",
      "id": "ActivityId_KQsvt1C",
      "precondition": {
        "ref": "PreconditionId_cRajL"
      },
      "schedule": {
        "ref": "DefaultSchedule"
      },
      "runsOn": {
        "ref": "ResourceId_0mMdo"
      },
      "maxActiveInstances": "1",
      "command": "if hadoop fs -test -d s3://com.funplus.datawarehouse/semaphores/ha/app=ha.all.prod/job=fuitscoot-reports/year=#{format(minusDays(@scheduledStartTime,1),'YYYY')}/month=#{format(minusDays(@scheduledStartTime,1),'MM')}/day=#{format(minusDays(@scheduledStartTime,1),'dd')}; then hadoop fs -rmr s3://com.funplus.datawarehouse/semaphores/ha/app=ha.all.prod/job=ha-reports/year=#{format(minusDays(@scheduledStartTime,1),'YYYY')}/month=#{format(minusDays(@scheduledStartTime,1),'MM')}/day=#{format(minusDays(@scheduledStartTime,1),'dd')}; fi",
      "lateAfterTimeout": "5 Hours",
      "onFail": {
        "ref": "ActionId_zo69P"
      },
      "type": "ShellCommandActivity",
      "onLateAction": {
        "ref": "ActionId_NAcg4"
      }
    },
    {
      "name": "ExecuteEconomySql",
      "id": "ActivityId_5e2dC",
      "schedule": {
        "ref": "DefaultSchedule"
      },
      "scriptUri": "s3://com.funplusgame.bidata/dev/sql1.2/ha_1_2/economy.sql",
      "maxActiveInstances": "1",
      "onFail": {
        "ref": "ActionId_zo69P"
      },
      "workerGroup": "wg-ec2-ha",
      "dependsOn": [
        {
          "ref": "ActivityId_Y0a33"
        },
        {
          "ref": "ActivityId_dAitq"
        },
        {
          "ref": "ActivityId_zWO1s"
        }
      ],
      "type": "SqlActivity",
      "database": {
        "ref": "RedshiftDatabaseId_XrVon"
      }
    },
    {
      "name": "FactResourcesReceived",
      "id": "ActivityId_7c6ZP",
      "schedule": {
        "ref": "DefaultSchedule"
      },
      "runsOn": {
        "ref": "ResourceId_0mMdo"
      },
      "maxActiveInstances": "1",
      "command": "/home/hadoop/hive/bin/hive -i s3://com.funplus.datawarehouse/sql_logs/ha/app=ha.all.prod/init-ha.all.prod-reports-#{format(minusDays(@scheduledStartTime,1),'YYYYMMddHHmmss')}.hql -f s3://com.funplusgame.bidata/dev/hive/ha_1_2/fact_resources_received.hql",
      "onFail": {
        "ref": "ActionId_zo69P"
      },
      "dependsOn": {
        "ref": "ActivityId_NBQOl"
      },
      "type": "ShellCommandActivity"
    },
    {
      "name": "FactMissionCollections",
      "id": "ActivityId_x5g22",
      "schedule": {
        "ref": "DefaultSchedule"
      },
      "runsOn": {
        "ref": "ResourceId_0mMdo"
      },
      "maxActiveInstances": "1",
      "command": "/home/hadoop/hive/bin/hive -i s3://com.funplus.datawarehouse/sql_logs/ha/app=ha.all.prod/init-ha.all.prod-reports-#{format(minusDays(@scheduledStartTime,1),'YYYYMMddHHmmss')}.hql -f s3://com.funplusgame.bidata/dev/hive/ha_1_2/fact_mission_collections.hql",
      "onFail": {
        "ref": "ActionId_zo69P"
      },
      "dependsOn": {
        "ref": "ActivityId_NBQOl"
      },
      "type": "ShellCommandActivity"
    },
    {
      "name": "SemaphoreFailureNotification",
      "id": "ActionId_PJpcO",
      "message": "Pipeline Schedule Run Time: #{node.@scheduledStartTime}\nPipeline Execution Start Time: #{node.@actualStartTime}\nPipeline Execution End Time: #{node.@actualEndTime}\nError Message:\n#{node.errorMessage}\nError StackTrace:\n#{node.errorStackTrace}",
      "subject": "FAILURE: DEV.HA.US.PROD-REPORTS-DAILY - SEMAPHORE #{node.name} #{format(minusDays(node.@scheduledStartTime,1),\"YYYY-MM-dd\")}\n",
      "topicArn": "arn:aws:sns:us-west-2:921287511715:data-notification-dev",
      "role": "DataPipelineDefaultRole",
      "type": "SnsAlarm"
    },
    {
      "name": "ExecuteFactDauSnapshotSql",
      "id": "ActivityId_I5jQv",
      "schedule": {
        "ref": "DefaultSchedule"
      },
      "scriptUri": "s3://com.funplusgame.bidata/dev/sql1.2/ha_1_2/fact_dau_snapshot.sql",
      "maxActiveInstances": "1",
      "onFail": {
        "ref": "ActionId_zo69P"
      },
      "workerGroup": "wg-ec2-ha",
      "dependsOn": [
        {
          "ref": "ActivityId_xkY6O"
        },
        {
          "ref": "ActivityId_R0Hed"
        },
        {
          "ref": "ActivityId_67IiO"
        },
        {
          "ref": "ActivityId_Y0a33"
        }
      ],
      "type": "SqlActivity",
      "database": {
        "ref": "RedshiftDatabaseId_XrVon"
      }
    },
    {
      "name": "FactPlayerResources2Reshift",
      "id": "ActivityId_G18H1",
      "schedule": {
        "ref": "DefaultSchedule"
      },
      "maxActiveInstances": "1",
      "command": "#/usr/bin/python /mnt/funplus/analytics/python/copy_to_redshift.py  -c=/mnt/funplus/analytics/python/conf/ha_1_2.yaml  --table=processed_new.fact_player_resources --s3path=s3://com.funplus.datawarehouse/ha_1_2/copy/fact_player_resources/app=ha.all.prod/dt=#{format(minusDays(@scheduledStartTime,1),'YYYY-MM-dd')}/ --command-options=\"EMPTYASNULL DELIMITER '\\t' GZIP\" --pre-sql=\"delete from processed_new.fact_player_resources where date = '#{format(minusDays(@scheduledStartTime,1),\"YYYY-MM-dd\")}';\"",
      "lateAfterTimeout": "5 Hours",
      "onFail": {
        "ref": "ActionId_zo69P"
      },
      "workerGroup": "wg-ec2-ha",
      "dependsOn": {
        "ref": "ActivityId_LMIQT"
      },
      "type": "ShellCommandActivity",
      "onLateAction": {
        "ref": "ActionId_NAcg4"
      }
    },
    {
      "name": "FactItemsSpent2Redshift",
      "id": "ActivityId_Ul8Yz",
      "schedule": {
        "ref": "DefaultSchedule"
      },
      "maxActiveInstances": "1",
      "command": "/usr/bin/python /mnt/funplus/analytics/python/copy_to_redshift.py  -c=/mnt/funplus/analytics/python/conf/ha_1_2.yaml  --table=processed_new.fact_items_spent --s3path=s3://com.funplus.datawarehouse/ha_1_2/copy/fact_items_spent/app=ha.all.prod/dt=#{format(minusDays(@scheduledStartTime,1),'YYYY-MM-dd')}/ --command-options=\"EMPTYASNULL DELIMITER '\\t' GZIP\" --pre-sql=\"delete from processed_new.fact_items_spent where date = '#{format(minusDays(@scheduledStartTime,1),\"YYYY-MM-dd\")}';\"",
      "onFail": {
        "ref": "ActionId_zo69P"
      },
      "workerGroup": "wg-ec2-ha",
      "dependsOn": {
        "ref": "ActivityId_BD1FQ"
      },
      "type": "ShellCommandActivity"
    },
    {
      "name": "ExecuteDimUserSql",
      "id": "ActivityId_qkS9M",
      "schedule": {
        "ref": "DefaultSchedule"
      },
      "scriptUri": "s3://com.funplusgame.bidata/dev/sql1.2/ha_1_2/dim_user.sql",
      "maxActiveInstances": "1",
      "onFail": {
        "ref": "ActionId_zo69P"
      },
      "workerGroup": "wg-ec2-ha",
      "dependsOn": [
        {
          "ref": "ActivityId_Y0a33"
        },
        {
          "ref": "ActivityId_xkY6O"
        },
        {
          "ref": "ActivityId_67IiO"
        },
        {
          "ref": "ActivityId_R0Hed"
        },
        {
          "ref": "ActivityId_I5jQv"
        }
      ],
      "type": "SqlActivity",
      "database": {
        "ref": "RedshiftDatabaseId_XrVon"
      }
    },
    {
      "name": "FactItemsReceived",
      "id": "ActivityId_VZKGx",
      "schedule": {
        "ref": "DefaultSchedule"
      },
      "runsOn": {
        "ref": "ResourceId_0mMdo"
      },
      "maxActiveInstances": "1",
      "command": "/home/hadoop/hive/bin/hive -i s3://com.funplus.datawarehouse/sql_logs/ha/app=ha.all.prod/init-ha.all.prod-reports-#{format(minusDays(@scheduledStartTime,1),'YYYYMMddHHmmss')}.hql -f s3://com.funplusgame.bidata/dev/hive/ha_1_2/fact_items_received.hql",
      "onFail": {
        "ref": "ActionId_zo69P"
      },
      "dependsOn": {
        "ref": "ActivityId_NBQOl"
      },
      "type": "ShellCommandActivity"
    },
    {
      "name": "ExecuteTabMarketingSql",
      "id": "ActivityId_w1qFX",
      "schedule": {
        "ref": "DefaultSchedule"
      },
      "scriptUri": "s3://com.funplusgame.bidata/dev/sql1.2/ha_1_2/tab_marketing_kpi.sql",
      "maxActiveInstances": "1",
      "onFail": {
        "ref": "ActionId_zo69P"
      },
      "workerGroup": "wg-ec2-ha",
      "dependsOn": [
        {
          "ref": "ActivityId_Y0a33"
        },
        {
          "ref": "ActivityId_qkS9M"
        },
        {
          "ref": "ActivityId_I5jQv"
        }
      ],
      "type": "SqlActivity",
      "database": {
        "ref": "RedshiftDatabaseId_XrVon"
      }
    },
    {
      "name": "ScriptSetup",
      "id": "ActivityId_vpD6N",
      "schedule": {
        "ref": "DefaultSchedule"
      },
      "scriptUri": "s3://com.funplusgame.bidata/dev/scripts/reports_script_generator.sh",
      "runsOn": {
        "ref": "ResourceId_0mMdo"
      },
      "maxActiveInstances": "1",
      "lateAfterTimeout": "5 Hours",
      "onFail": {
        "ref": "ActionId_zo69P"
      },
      "scriptArgument": [
        "-a ha.all.prod",
        "-f s3://com.funplusgame.bidata/dev/sql/init.sql",
        "-d #{format(minusDays(@scheduledStartTime,1),'YYYY-MM-dd HH:mm:ss')}",
        "-o s3://com.funplus.datawarehouse/sql_logs/ha/app=ha.all.prod/init-ha.all.prod-reports-#{format(minusDays(@scheduledStartTime,1),'YYYYMMddHHmmss')}.hql",
        "-b 7",
        "-A ha.all.prod"
      ],
      "dependsOn": {
        "ref": "ActivityId_KQsvt1C"
      },
      "type": "ShellCommandActivity",
      "onLateAction": {
        "ref": "ActionId_NAcg4"
      }
    },
    {
      "name": "FactItemsTarget2Redshift",
      "id": "ActivityId_kkNGs",
      "schedule": {
        "ref": "DefaultSchedule"
      },
      "maxActiveInstances": "1",
      "command": "/usr/bin/python /mnt/funplus/analytics/python/copy_to_redshift.py  -c=/mnt/funplus/analytics/python/conf/ha_1_2.yaml  --table=processed_new.fact_items_target --s3path=s3://com.funplus.datawarehouse/ha_1_2/copy/fact_items_target/app=ha.all.prod/dt=#{format(minusDays(@scheduledStartTime,1),'YYYY-MM-dd')}/ --command-options=\"EMPTYASNULL DELIMITER '\\t' GZIP\" --pre-sql=\"delete from processed_new.fact_items_target where date = '#{format(minusDays(@scheduledStartTime,1),\"YYYY-MM-dd\")}';\"",
      "onFail": {
        "ref": "ActionId_zo69P"
      },
      "workerGroup": "wg-ec2-ha",
      "dependsOn": {
        "ref": "ActivityId_ciJRV"
      },
      "type": "ShellCommandActivity"
    },
    {
      "name": "FactTutorial2Redshift",
      "id": "ActivityId_8TNZN",
      "schedule": {
        "ref": "DefaultSchedule"
      },
      "maxActiveInstances": "1",
      "command": "/usr/bin/python /mnt/funplus/analytics/python/copy_to_redshift.py  -c=/mnt/funplus/analytics/python/conf/ha_1_2.yaml  --table=processed_new.fact_tutorial --s3path=s3://com.funplus.datawarehouse/ha_1_2/copy/fact_tutorial/app=ha.all.prod/dt=#{format(minusDays(@scheduledStartTime,1),'YYYY-MM-dd')}/ --command-options=\"EMPTYASNULL DELIMITER '\\t' GZIP\" --pre-sql=\"delete from processed_new.fact_tutorial where date = '#{format(minusDays(@scheduledStartTime,1),\"YYYY-MM-dd\")}';\"",
      "lateAfterTimeout": "5 Hours",
      "onFail": {
        "ref": "ActionId_zo69P"
      },
      "workerGroup": "wg-ec2-ha",
      "dependsOn": {
        "ref": "ActivityId_EvRbq"
      },
      "type": "ShellCommandActivity",
      "onLateAction": {
        "ref": "ActionId_NAcg4"
      }
    },
    {
      "name": "FactLevelup",
      "id": "ActivityId_mMX5X",
      "schedule": {
        "ref": "DefaultSchedule"
      },
      "runsOn": {
        "ref": "ResourceId_0mMdo"
      },
      "maxActiveInstances": "1",
      "command": "/home/hadoop/hive/bin/hive -i s3://com.funplus.datawarehouse/sql_logs/ha/app=ha.all.prod/init-ha.all.prod-reports-#{format(minusDays(@scheduledStartTime,1),'YYYYMMddHHmmss')}.hql -f s3://com.funplusgame.bidata/dev/hive/ha_1_2/fact_levelup.hql",
      "lateAfterTimeout": "5 Hours",
      "onFail": {
        "ref": "ActionId_zo69P"
      },
      "dependsOn": [
        {
          "ref": "ActivityId_NBQOl"
        },
        {
          "ref": "ActivityId_SaYRn"
        }
      ],
      "type": "ShellCommandActivity",
      "onLateAction": {
        "ref": "ActionId_NAcg4"
      }
    },
    {
      "name": "DependencyFailureNotification",
      "id": "ActionId_AGrl7",
      "message": "s3://com.funplus.datawarehouse/semaphores/ha/app=ha.all.prod/job=raw_events/year=#{format(minusDays(node.@scheduledStartTime,1),'YYYY')}/month=#{format(minusDays(node.@scheduledStartTime,1),'MM')}/day=#{format(minusDays(node.@scheduledStartTime,1),'dd')}/hour=#{format(minusDays(node.@scheduledStartTime,1),'HH')}/SUCCESS does not exist.\nStart Time: #{node.@actualStartTime}\nEnd Time: #{node.@actualEndTime}\n#{node.errorMessage}\n#{node.errorStackTrace}",
      "subject": "FAILURE: DEV.HA.US.PROD-REPORTS-DAILY - DEPENDENCY NOT COMPLETED #{node.name} #{format(minusDays(node.@scheduledStartTime,1),\"YYYY-MM-dd\")}\n",
      "topicArn": "arn:aws:sns:us-west-2:921287511715:data-notification-dev",
      "role": "DataPipelineDefaultRole",
      "type": "SnsAlarm"
    },
    {
      "name": "ExecuteAggIAPSql",
      "id": "ActivityId_dAitq",
      "schedule": {
        "ref": "DefaultSchedule"
      },
      "scriptUri": "s3://com.funplusgame.bidata/dev/sql1.2/ha_1_2/agg_iap.sql",
      "maxActiveInstances": "1",
      "onFail": {
        "ref": "ActionId_zo69P"
      },
      "workerGroup": "wg-ec2-ha",
      "dependsOn": [
        {
          "ref": "ActivityId_Y0a33"
        },
        {
          "ref": "ActivityId_I5jQv"
        },
        {
          "ref": "ActivityId_qkS9M"
        }
      ],
      "type": "SqlActivity",
      "database": {
        "ref": "RedshiftDatabaseId_XrVon"
      }
    },
    {
      "name": "ExecuteTmpUserPaymentSql",
      "id": "ActivityId_67IiO",
      "schedule": {
        "ref": "DefaultSchedule"
      },
      "scriptUri": "s3://com.funplusgame.bidata/dev/sql1.2/ha_1_2/tmp_user_payment.sql",
      "maxActiveInstances": "1",
      "onFail": {
        "ref": "ActionId_zo69P"
      },
      "workerGroup": "wg-ec2-ha",
      "dependsOn": [
        {
          "ref": "ActivityId_jOlhb"
        },
        {
          "ref": "ActivityId_Y0a33"
        }
      ],
      "type": "SqlActivity",
      "database": {
        "ref": "RedshiftDatabaseId_XrVon"
      }
    },
    {
      "name": "Failure Notification",
      "id": "ActionId_zo69P",
      "message": "Start Time: #{node.@actualStartTime}\nEnd Time: #{node.@actualEndTime}",
      "subject": "SUCCESS: DEV.HA.US.PROD-REPORTS-DAILY - #{node.name} #{format(minusDays(node.@scheduledStartTime,1),\"YYYY-MM-dd\")}",
      "topicArn": "arn:aws:sns:us-west-2:921287511715:data-notification-dev",
      "role": "DataPipelineDefaultRole",
      "type": "SnsAlarm"
    },
    {
      "name": "Daily",
      "id": "DefaultSchedule",
      "startDateTime": "2015-05-07T01:30:00",
      "period": "1 Day",
      "type": "Schedule"
    },
    {
      "name": "TimeoutNotification",
      "id": "ActionId_NAcg4",
      "message": "Task: #{node.name} is timedout",
      "subject": "TIMEOUT: DEV.HA.US.PROD-REPORTS-DAILY #{node.name} #{format(minusDays(node.@scheduledStartTime,1),\"YYYY-MM-dd\")}\n",
      "topicArn": "arn:aws:sns:us-west-2:921287511715:data-notification-dev",
      "role": "DataPipelineDefaultRole",
      "type": "SnsAlarm"
    },
    {
      "name": "FactSession2Redshift",
      "id": "ActivityId_YdTeB",
      "schedule": {
        "ref": "DefaultSchedule"
      },
      "command": "/usr/bin/python /mnt/funplus/analytics/python/copy_to_redshift.py  -c=/mnt/funplus/analytics/python/conf/ha_1_2.yaml  --table=processed_new.fact_session --s3path=s3://com.funplus.datawarehouse/ha_1_2/copy/fact_session/app=ha.all.prod/dt=#{format(minusDays(@scheduledStartTime,1),'YYYY-MM-dd')}/ --command-options=\"EMPTYASNULL DELIMITER '\\t' GZIP\" --pre-sql=\"delete from processed_new.fact_session where date_start = '#{format(minusDays(@scheduledStartTime,1),\"YYYY-MM-dd\")}';\"",
      "maxActiveInstances": "1",
      "lateAfterTimeout": "5 Hours",
      "onFail": {
        "ref": "ActionId_zo69P"
      },
      "workerGroup": "wg-ec2-ha",
      "dependsOn": {
        "ref": "ActivityId_Fgzy2"
      },
      "type": "ShellCommandActivity",
      "onLateAction": {
        "ref": "ActionId_NAcg4"
      }
    },
    {
      "name": "FactTutorial",
      "id": "ActivityId_EvRbq",
      "schedule": {
        "ref": "DefaultSchedule"
      },
      "runsOn": {
        "ref": "ResourceId_0mMdo"
      },
      "maxActiveInstances": "1",
      "command": "/home/hadoop/hive/bin/hive -i s3://com.funplus.datawarehouse/sql_logs/ha/app=ha.all.prod/init-ha.all.prod-reports-#{format(minusDays(@scheduledStartTime,1),'YYYYMMddHHmmss')}.hql -f s3://com.funplusgame.bidata/dev/hive/ha_1_2/fact_tutorial.hql",
      "lateAfterTimeout": "5 Hours",
      "onFail": {
        "ref": "ActionId_zo69P"
      },
      "dependsOn": {
        "ref": "ActivityId_NBQOl"
      },
      "type": "ShellCommandActivity",
      "onLateAction": {
        "ref": "ActionId_NAcg4"
      }
    },
    {
      "name": "ExecuteAggPrepareSql",
      "id": "ActivityId_Y0a33",
      "schedule": {
        "ref": "DefaultSchedule"
      },
      "scriptUri": "s3://com.funplusgame.bidata/dev/sql1.2/ha_1_2/agg_prepare.sql",
      "maxActiveInstances": "1",
      "onFail": {
        "ref": "ActionId_zo69P"
      },
      "workerGroup": "wg-ec2-ha",
      "dependsOn": [
        {
          "ref": "ActivityId_YdTeB"
        },
        {
          "ref": "ActivityId_jOlhb"
        },
        {
          "ref": "ActivityId_5z715"
        },
        {
          "ref": "ActivityId_8TNZN"
        },
        {
          "ref": "ActivityId_CVzZs"
        }
      ],
      "type": "SqlActivity",
      "database": {
        "ref": "RedshiftDatabaseId_XrVon"
      }
    },
    {
      "name": "RawEventsDaily",
      "id": "ActivityId_NBQOl",
      "schedule": {
        "ref": "DefaultSchedule"
      },
      "maxActiveInstances": "1",
      "runsOn": {
        "ref": "ResourceId_0mMdo"
      },
      "command": "/home/hadoop/hive/bin/hive -i s3://com.funplus.datawarehouse/sql_logs/ha/app=ha.all.prod/init-ha.all.prod-reports-#{format(minusDays(@scheduledStartTime,1),'YYYYMMddHHmmss')}.hql -f s3://com.funplusgame.bidata/dev/hive/ha_1_2/ha_1_2_raw_events_dml.hql",
      "onFail": {
        "ref": "ActionId_zo69P"
      },
      "dependsOn": {
        "ref": "ActivityId_vpD6N"
      },
      "type": "ShellCommandActivity"
    }
  ]
}
