Usage_Date	s3	ebs	ec2	ec2_instance	AmazonKinesis	cloudwatch	data_pipeline	dynamodb	emr	rds	redshift	ses	simpledb	sns
2015-03-01	498.7796	58.5264	2.1135	1631.17	0.36	0	9.4231	0	381.478	12.5897	2032.8	0.0001	0	0.0014
2015-03-02	492.1015	58.5146	2.199	1445.6891	0.36	0	11.9255	0	334.363	12.5897	2109.6001	0.0001	0.1473	0.0472
2015-03-03	489.2172	58.4761	2.3179	1408.232	0.36	0	11.6594	0	326.768	12.5897	2109.6001	0.0002	0.1982	0.0312
2015-03-04	484.8806	58.4549	7.5184	1355.649	0.36	0	12.0992	0	323.934	12.5897	2109.6001	0.0002	0.1991	0.0148
2015-03-05	461.3283	58.4662	2.312	1069.389	0.4351	0.123	12.9315	0	255.207	12.5897	2109.6001	0.0003	0.1993	0.4036
2015-03-06	452.4189	58.4965	2.2658	995.91	1.7144	0.4782	12.6589	0	222.176	12.5897	2109.6001	0.0001	0.1982	0.4198
2015-03-07	457.9735	58.5024	2.2355	995.181	2.1995	0.3676	12.8618	0	222.176	12.5897	2109.6001	0.0001	0.1987	0.4158
2015-03-08	459.1323	58.4944	2.2299	993.843	2.199	0.3387	12.8	0	225.396	12.5897	2109.6001	0.0001	0.1982	0.4116
2015-03-09	458.9126	58.5011	2.3215	996.258	2.1808	1.2401	13.1086	0.0002	222.176	12.5897	2109.6001	0.0001	0.1984	0.435
2015-03/10	469.9292	58.498	2.2813	996.021	2.1745	1.4595	13.418	0.0003	221.795	12.5897	2109.6001	0.0001	0.1985	0.4226
2015-03-11	451.6687	58.4557	20.8799	870.099	2.171	0.8804	13.1355	0.0003	215.646	12.5897	2128.8	0.0001	0.1992	0.3571
2015-03-12	450.2151	58.4872	18.994	893.799	2.1634	1.3204	14.0091	0.0003	212.208	12.5897	2340	0.0002	0.1986	0.3797
2015-03-13	455.0198	58.4985	20.0704	930.15	2.1625	1.3915	14.6108	0.0003	220.716	12.5897	2340	0.0002	0.1977	0.3676
2015-03-14	455.6732	58.4842	19.5654	883.356	2.1883	1.3762	13.2766	0.0003	209.932	12.5897	2340	0.0001	0.1989	0.3471
2015-03-15	456.3523	58.4865	19.5545	887.49	2.1959	1.1241	13.646	0.7023	209.932	12.5897	2340	0.0001	0.199	0.3449
2015-03-16	456.2057	58.497	11.8862	904.179	2.1586	1.3	13.996	1.4979	204.193	12.5897	2340	0.0001	0.1984	0.3544
2015-03-17	456.8985	58.495	24.8799	921.27	2.1839	1.3697	14.8352	1.4979	220.818	12.5897	2340	0.0001	0.1988	0.3577
2015-03-18	455.05	58.4827	9.5101	908.532	2.2273	1.3786	13.6336	1.4979	260.984	12.5897	2340	0.0001	0.1979	0.3095
2015-03-19	454.8456	58.5012	10.5995	899.509	2.2188	1.3897	13.6938	1.4979	234.151	12.5897	2340	0.0001	0.1988	0.328
2015-03-20	453.0125	58.4885	18.0676	940.061	2.2077	1.3843	10.7632	1.4979	218.84	12.5897	2340	0.0008	0.1984	0.1899
2015-03-21	454.4888	58.4609	22.423	856.508	2.217	0.9421	10.9962	1.4979	209.389	12.5897	2340	0.0001	0.1989	0.1947
2015-03-22	452.1694	58.4481	22.2406	832.695	2.2191	0.8497	12.6968	1.4979	206.903	12.5897	2253.6001	0.0001	0.1979	0.3389
2015-03-23	455.4838	58.4504	27.4586	906.965	2.1692	0.8498	12.7242	1.4979	226.29	12.5897	2340	0.0002	0.1983	0.355
2015-03-24	436.8721	58.4442	11.3257	817.222	2.1618	0.8498	11.7024	1.4979	249.806	12.5897	2340	0.0018	0.2011	0.3472
2015-03-25	430.9166	58.4295	12.7326	658.988	2.1509	0.8497	12.8772	1.6695	155.681	12.5897	2330.3999	0.0053	0.2013	0.348
2015-03-26	430.912	58.4347	4.6697	781.518	2.1512	0.8598	12.107	2.3029	180.945	12.5897	2340	0.0061	1.7837	0.3481
2015-03-27	425.3356	58.4414	3.3561	724.236	2.1462	0.8497	11.943	2.3029	156.567	12.5897	2340	0.0001	1.9339	0.3516
2015-03-28	425.9156	58.4314	3.3403	709.494	2.1579	0.8497	10.9505	2.3029	150.34	12.5897	2301.6001	0.0001	1.9433	0.3405
2015-03-29	426.7991	58.4335	3.3697	742.794	2.1655	0.8497	10.8452	2.3029	158.648	12.5897	1879.2	0.0002	2.1626	0.3214
2015-03-30	428.9952	58.4309	3.3822	929.017	2.1411	0.8497	10.6833	2.2873	205.557	12.5897	1879.2	0.0041	2.421	0.3474
2015-03-31	415.34	58.41	3.42	692.51	2.13	0.87	10.92	2.30	147.65	12.59	1879	0.00	2.13	0.35
2015-04-01	439.11	60.10	2.72	698.82	2.11	0.70	11.49	0.61	148.21	12.71	1879.20	0	2.14	0.34
2015-04-02	429.16	60.12	2.72	693.12	2.11	0.70	11.04	0	147.39	12.71	1879.20	0	0.57	0.38
2015-04-03	443.20	60.10	2.71	691.51	2.11	0.70	10.79	0	147.33	12.71	1879.20	0	2.05	0.37
2015-04-04	440.68	60.10	2.67	685.67	2.12	0.70	10.95	0	145.97	12.71	1879.20	0	1.29	0.34
2015-04-05	437.82	60.10	10.70	697.87	2.12	0.70	10.90	0	159.16	12.71	1879.20	0	2.82	0.43
2015-04-06	438.94	60.10	3.08	687.55	2.13	0.70	11.08	0	146.96	12.71	1879.20	0	1.95	0.33
2015-04-07	439.11	60.10	2.72	698.82	2.11	0.87	11.49	0.61	148.21	12.71	1879.20	0	2.14	0.34
2015-04-08	441.37	60.10	2.79	720.45	2.10	0.94	12.52	0.41	154.04	12.71	1879.20	0	2.69	0.33
2015-04-09	438.40	60.10	2.71	707.51	2.43	0.87	12.82	0.53	153.75	12.71	1879.20	0	2.77	0.39
2015-04-10	439.80	60.10	2.71	723.52	2.46	0.87	12.87	1.33	154.17	12.71	1879.20	0	2.61	0.34
2015-04-11	439.68	60.10	2.71	711.44	2.47	0.87	12.64	2.39	152.81	12.71	1879.20	0	2.25	0.31
2015-04-12	441.14	60.10	2.78	713.15	2.48	0.87	12.64	2.56	152.48	12.71	1879.20	0	2.26	0.31
2015-04-13	446.98	60.10	2.78	733.16	2.45	0.87	12.64	3.96	157.73	12.71	1879.20	0	2.51	0.32
2015-04-14	451.66	60.10	2.84	822.65	2.61	0.87	12.78	5.25	180.62	12.71	1879.20	0	2.86	0.35
2015-04-15	480.54	60.11	2.67	1070.92	2.44	0.87	13.11	5.30	238.73	12.71	1879.20	0	6.57	0.46
2015-04-16	455.77	60.16	3.33	850.79	2.44	0.88	13.36	5.58	184.41	12.71	1879.20	0	3.99	0.35
2015-04-17	449.24	60.16	3.40	767.34	6.96	0.87	12.91	5.73	165.02	12.71	1879.20	0	3.39	0.38
2015-04-18	447.88	60.16	3.34	807.34	4.26	0.87	12.79	5.73	175.60	12.71	1879.20	0	2.73	0.36
2015-04-19	448.88	60.15	3.37	807.63	4.27	0.87	12.79	6.52	174.89	12.71	1812	0	2.92	0.36
2015-04-20	449.17	60.16	3.37	814.73	5.34	0.88	12.69	6.74	176.27	12.71	1879.20	0	3.14	0.39
2015-04-21	449.47	60.33	3.41	892.05	7.41	1.95	12.74	6.01	196.30	12.71	1879.20	0.01	3.49	0.36
2015-04-22	450.91	60.45	3.39	806.35	9.38	3.16	12.79	6.20	175.10	12.71	1869.60	0	3.03	0.35
2015-04-23	452.42	60.47	3.45	823.55	6.04	1.34	12.29	6.19	179.44	12.71	1879.20	0	3.80	0.36