{
  "objects": [
    {
      "name": "Every 1 day",
      "id": "DefaultSchedule",
      "startDateTime": "2015-03-24T01:45:00",
      "period": "1 days",
      "type": "Schedule"
    },
    {
      "name": "LevelProgressionActivity",
      "id": "ActivityId_9b2sv",
      "schedule": {
        "ref": "DefaultSchedule"
      },
      "scriptUri": "s3://com.funplusgame.bidata/dev/sql1.2/bv/bv_level_progression.sql",
      "maxActiveInstances": "1",
      "onFail": {
        "ref": "ActionId_9WlfT"
      },
      "workerGroup": "wg-ec2-bv",
      "dependsOn": {
        "ref": "ActivityId_wZUuI"
      },
      "type": "SqlActivity",
      "database": {
        "ref": "RedshiftDatabaseId_pQSiQ"
      }
    },
    {
      "name": "SuccessNotification",
      "id": "ActionId_tZLM8",
      "message": "Start Time: #{node.@actualStartTime}\nEnd Time: #{node.@actualEndTime}",
      "subject": "SUCCESS: BV SQL 1.2 Reports #{node.name}",
      "topicArn": "arn:aws:sns:us-west-2:921287511715:report-notification",
      "role": "DataPipelineDefaultRole",
      "type": "SnsAlarm"
    },
    {
      "name": "EventTableActivity",
      "id": "ActivityId_NhmQJ",
      "schedule": {
        "ref": "DefaultSchedule"
      },
      "scriptUri": "s3://com.funplusgame.bidata/dev/sql1.2/bv/bv_raw_event_tables.sql",
      "maxActiveInstances": "1",
      "onSuccess": {
        "ref": "ActionId_tZLM8"
      },
      "onFail": {
        "ref": "ActionId_9WlfT"
      },
      "workerGroup": "wg-ec2-bv",
      "dependsOn": {
        "ref": "ActivityId_lClec"
      },
      "type": "SqlActivity",
      "database": {
        "ref": "RedshiftDatabaseId_pQSiQ"
      }
    },
    {
      "name": "TutorialActivity",
      "id": "ActivityId_wZUuI",
      "schedule": {
        "ref": "DefaultSchedule"
      },
      "scriptUri": "s3://com.funplusgame.bidata/dev/sql1.2/bv/bv_tutorial.sql",
      "maxActiveInstances": "1",
      "onSuccess": {
        "ref": "ActionId_tZLM8"
      },
      "onFail": {
        "ref": "ActionId_9WlfT"
      },
      "workerGroup": "wg-ec2-bv",
      "dependsOn": {
        "ref": "ActivityId_LR5kO"
      },
      "type": "SqlActivity",
      "database": {
        "ref": "RedshiftDatabaseId_pQSiQ"
      }
    },
    {
      "name": "DimUserActivity",
      "id": "ActivityId_nM2cS",
      "schedule": {
        "ref": "DefaultSchedule"
      },
      "scriptUri": "s3://com.funplusgame.bidata/dev/sql1.2/bv/bv_dim_user.sql",
      "maxActiveInstances": "1",
      "onSuccess": {
        "ref": "ActionId_tZLM8"
      },
      "onFail": {
        "ref": "ActionId_9WlfT"
      },
      "workerGroup": "wg-ec2-bv",
      "dependsOn": {
        "ref": "ActivityId_2J4E8"
      },
      "type": "SqlActivity",
      "database": {
        "ref": "RedshiftDatabaseId_pQSiQ"
      }
    },
    {
      "name": "DimUserInstallActivity",
      "id": "ActivityId_baPHC",
      "schedule": {
        "ref": "DefaultSchedule"
      },
      "scriptUri": "s3://com.funplusgame.bidata/dev/sql1.2/bv/bv_dim_user_install.sql",
      "maxActiveInstances": "1",
      "onSuccess": {
        "ref": "ActionId_tZLM8"
      },
      "onFail": {
        "ref": "ActionId_9WlfT"
      },
      "workerGroup": "wg-ec2-bv",
      "dependsOn": {
        "ref": "ActivityId_nM2cS"
      },
      "type": "SqlActivity",
      "database": {
        "ref": "RedshiftDatabaseId_pQSiQ"
      }
    },
    {
      "name": "FailureNotification",
      "id": "ActionId_9WlfT",
      "message": "Start Time: #{node.@actualStartTime}\nEnd Time: #{node.@actualEndTime}\n#{node.errorMessage}\n#{node.errorStackTrace}",
      "subject": "FAILURE: BV SQL 1.2 Reports #{node.name} ",
      "topicArn": "arn:aws:sns:us-west-2:921287511715:report-notification",
      "role": "DataPipelineDefaultRole",
      "type": "SnsAlarm"
    },
    {
      "name": "BVReportsEC2Resource",
      "id": "ResourceId_30i9V",
      "instanceType": "m1.medium",
      "terminateAfter": "2 Hours",
      "keyPair": "bidev-keypair",
      "schedule": {
        "ref": "DefaultSchedule"
      },
      "logUri": "s3://com.funplusgame.bidata/emr/logs/",
      "role": "DataPipelineDefaultRole",
      "resourceRole": "DataPipelineDefaultResourceRole",
      "type": "Ec2Resource"
    },
    {
      "name": "DailyDashboardActivity",
      "id": "ActivityId_ELNVS",
      "schedule": {
        "ref": "DefaultSchedule"
      },
      "scriptUri": "s3://com.funplusgame.bidata/dev/sql1.2/bv/bv_tbl_dashboard.sql",
      "maxActiveInstances": "1",
      "onSuccess": {
        "ref": "ActionId_tZLM8"
      },
      "onFail": {
        "ref": "ActionId_9WlfT"
      },
      "workerGroup": "wg-ec2-bv",
      "dependsOn": {
        "ref": "ActivityId_baPHC"
      },
      "type": "SqlActivity",
      "database": {
        "ref": "RedshiftDatabaseId_pQSiQ"
      }
    },
    {
      "name": "DefaultRedshiftDatabase1",
      "id": "RedshiftDatabaseId_pQSiQ",
      "databaseName": "bv",
      "username": "biadmin",
      "*password": "Halfquest_2014",
      "clusterId": "bicluster",
      "type": "RedshiftDatabase"
    },
    {
      "name": "DauSnapshotActivity",
      "id": "ActivityId_7P7I8",
      "schedule": {
        "ref": "DefaultSchedule"
      },
      "scriptUri": "s3://com.funplusgame.bidata/dev/sql1.2/bv/bv_fact_dau_snapshot.sql",
      "maxActiveInstances": "1",
      "onSuccess": {
        "ref": "ActionId_tZLM8"
      },
      "onFail": {
        "ref": "ActionId_9WlfT"
      },
      "workerGroup": "wg-ec2-bv",
      "dependsOn": {
        "ref": "ActivityId_NhmQJ"
      },
      "type": "SqlActivity",
      "database": {
        "ref": "RedshiftDatabaseId_pQSiQ"
      }
    },
    {
      "name": "InstallSourceActivity",
      "id": "ActivityId_2J4E8",
      "schedule": {
        "ref": "DefaultSchedule"
      },
      "scriptUri": "s3://com.funplusgame.bidata/dev/sql1.2/bv/bv_fact_install_source.sql",
      "maxActiveInstances": "1",
      "onSuccess": {
        "ref": "ActionId_tZLM8"
      },
      "onFail": {
        "ref": "ActionId_9WlfT"
      },
      "workerGroup": "wg-ec2-bv",
      "dependsOn": {
        "ref": "ActivityId_NhmQJ"
      },
      "type": "SqlActivity",
      "database": {
        "ref": "RedshiftDatabaseId_pQSiQ"
      }
    },
    {
      "name": "ParseRawDataActivity",
      "id": "ActivityId_lClec",
      "schedule": {
        "ref": "DefaultSchedule"
      },
      "scriptUri": "s3://com.funplusgame.bidata/dev/sql1.2/bv/bv_parse_data.sql",
      "maxActiveInstances": "1",
      "onFail": {
        "ref": "ActionId_9WlfT"
      },
      "workerGroup": "wg-ec2-bv",
      "dependsOn": {
        "ref": "ActivityId_MYFpo"
      },
      "type": "SqlActivity",
      "database": {
        "ref": "RedshiftDatabaseId_pQSiQ"
      }
    },
    {
      "name": "EconomyActivity",
      "id": "ActivityId_LR5kO",
      "schedule": {
        "ref": "DefaultSchedule"
      },
      "scriptUri": "s3://com.funplusgame.bidata/dev/sql1.2/bv/bv_economy.sql",
      "maxActiveInstances": "1",
      "onFail": {
        "ref": "ActionId_9WlfT"
      },
      "workerGroup": "wg-ec2-bv",
      "dependsOn": {
        "ref": "ActivityId_7P7I8"
      },
      "type": "SqlActivity",
      "database": {
        "ref": "RedshiftDatabaseId_pQSiQ"
      }
    },
    {
      "name": "Default",
      "id": "Default",
      "failureAndRerunMode": "CASCADE",
      "scheduleType": "CRON",
      "schedule": {
        "ref": "DefaultSchedule"
      },
      "pipelineLogUri": "s3://com.funplusgame.bidata/emr/logs/",
      "role": "DataPipelineDefaultRole",
      "resourceRole": "DataPipelineDefaultResourceRole"
    },
    {
      "name": "PerpareStartDateActivity",
      "id": "ActivityId_MYFpo",
      "schedule": {
        "ref": "DefaultSchedule"
      },
      "scriptUri": "s3://com.funplusgame.bidata/dev/sql1.2/bv/bv_prepare.sql",
      "maxActiveInstances": "1",
      "scriptArgument": "#{format(@scheduledStartTime,\"YYYY-MM-dd\")}",
      "onFail": {
        "ref": "ActionId_9WlfT"
      },
      "workerGroup": "wg-ec2-bv",
      "type": "SqlActivity",
      "database": {
        "ref": "RedshiftDatabaseId_pQSiQ"
      }
    },
    {
      "name": "MarketingKPIActivity",
      "id": "ActivityId_4is42",
      "schedule": {
        "ref": "DefaultSchedule"
      },
      "scriptUri": "s3://com.funplusgame.bidata/dev/sql1.2/bv/bv_tbl_marketing_kpi.sql",
      "maxActiveInstances": "1",
      "onSuccess": {
        "ref": "ActionId_tZLM8"
      },
      "onFail": {
        "ref": "ActionId_9WlfT"
      },
      "workerGroup": "wg-ec2-bv",
      "dependsOn": {
        "ref": "ActivityId_baPHC"
      },
      "type": "SqlActivity",
      "database": {
        "ref": "RedshiftDatabaseId_pQSiQ"
      }
    }
  ]
}
