{
  "objects": [
    {
      "id": "DefaultSchedule",
      "startDateTime": "2014-09-12T02:30:00",
      "name": "Daily",
      "type": "Schedule",
      "period": "1 Day"
    },
    {
      "id": "ActivityId_Ag6tJ",
      "input": {
        "ref": "DataNodeId_aj73t"
      },
      "schedule": {
        "ref": "DefaultSchedule"
      },
      "name": "ToTSV",
      "runsOn": {
        "ref": "EmrClusterId_BVEvents"
      },
      "maxActiveInstances": "1",
      "maximumRetries": "0",
      "output": {
        "ref": "DataNodeId_6VS4B"
      },
      "type": "EmrActivity",
      "step": "s3://com.funplusgame.bidata/dev/mr/jars/analytics-1.0-SNAPSHOT.jar,com.funplus.analytics.mr.ProductionEventsLegacy,-files,s3://com.funplusgame.bidata/dev/mr/files/GeoIP.dat,-libjars,s3://com.funplusgame.bidata/job/jsongeoip.jar,s3://com.funplusgame.bidata/fluentdlegacy/daily/bv.global.prod/#{format(minusDays(@scheduledStartTime,1),'YYYY/MM/dd')}/,s3://com.funplusgame.bidata/etl/results/bv.global.prod/events/staging/daily/#{format(minusDays(@scheduledStartTime,1),'YYYY/MM/dd')}/"
    },
    {
      "id": "Default",
      "scheduleType": "CRON",
      "failureAndRerunMode": "CASCADE",
      "schedule": {
        "ref": "DefaultSchedule"
      },
      "name": "Default",
      "pipelineLogUri": "s3://com.funplusgame.emr/logs/",
      "role": "DataPipelineDefaultRole",
      "resourceRole": "DataPipelineDefaultResourceRole"
    },
    {
      "emrLogUri": "s3://com.funplusgame.emr/logs/bv-events-daily/",
      "terminateAfter": "4 Hours",
      "masterInstanceType": "m1.large",
      "enableDebugging": "true",
      "coreInstanceCount": "20",
      "maximumRetries": "0",
      "logUri": "s3://com.funplusgame.emr/logs/bv-events-daily/",
      "type": "EmrCluster",
      "id": "EmrClusterId_BVEvents",
      "schedule": {
        "ref": "DefaultSchedule"
      },
      "coreInstanceType": "m3.xlarge",
      "name": "Emr",
      "maxActiveInstances": "1",
      "keyPair" : "bidev-keypair"
    },
    {
      "id": "DataNodeId_6VS4B",
      "schedule": {
        "ref": "DefaultSchedule"
      },
      "directoryPath": "s3://com.funplusgame.bidata/etl/results/bv.global.prod/events/staging/daily/#{format(minusDays(@scheduledStartTime,1),'YYYY/MM/dd')}/",
      "name": "S3TSV",
      "dataFormat": {
        "ref": "DataFormatId_Amebr"
      },
      "type": "S3DataNode",
      "compression": "GZIP"
    },
    {
      "id": "DataNodeId_mHwdt",
      "schedule": {
        "ref": "DefaultSchedule"
      },
      "tableName": "events_raw",
      "name": "Redshift Table",
      "type": "RedshiftDataNode",
      "database": {
        "ref": "RedshiftDatabaseId_jISp8"
      }
    },
    {
      "id": "RedshiftDatabaseId_jISp8",
      "databaseName": "bv",
      "username": "biadmin",
      "name": "RedshiftDatabase1",
      "*password": "Halfquest_2014",
      "type": "RedshiftDatabase",
      "clusterId": "bicluster"
    },
    {
      "id": "DataFormatId_Amebr",
      "name": "TSV",
      "type": "TSV"
    },
    {
      "id": "DataNodeId_aj73t",
      "schedule": {
        "ref": "DefaultSchedule"
      },
      "name": "S3Raw",
      "directoryPath": "s3://com.funplusgame.bidata/fluentdlegacy/daily/bv.global.prod/#{format(minusDays(@scheduledStartTime,1),'YYYY/MM/dd')}/",
      "dataFormat": {
        "ref": "DataFormatId_Amebr"
      },
      "type": "S3DataNode"
    },
    {
      "terminateAfter": "4 Hours",
      "instanceType": "m3.xlarge",
      "id": "ResourceId_HlBCY",
      "schedule": {
        "ref": "DefaultSchedule"
      },
      "name": "DefaultResource1",
      "maxActiveInstances": "1",
      "maximumRetries": "0",
      "role": "DataPipelineDefaultRole",
      "type": "Ec2Resource",
      "resourceRole": "DataPipelineDefaultResourceRole"
    },
    {
      "id": "ActivityId_pLOJD",
      "input": {
        "ref": "DataNodeId_6VS4B"
      },
      "schedule": {
        "ref": "DefaultSchedule"
      },
      "insertMode": "KEEP_EXISTING",
      "name": "ToRedshift",
      "maxActiveInstances": "1",
      "runsOn": {
        "ref": "ResourceId_HlBCY"
      },
      "maximumRetries": "0",
      "type": "RedshiftCopyActivity",
      "output": {
        "ref": "DataNodeId_mHwdt"
      }
    },
    {
      "id": "DataFormatId_ccSmL",
      "name": "JSON",
      "columnSeparator": "\n",
      "type": "Custom"
    }
  ]
}