{
  "objects": [
    {
      "name": "FailureNotification",
      "id": "ActionId_NIYB0",
      "message": "Start Time: #{node.@actualStartTime}\nEnd Time: #{node.@actualEndTime}\n#{node.errorMessage}\n#{node.errorStackTrace}",
      "subject": "FAILURE: BV Reports #{node.name} #{node.myDt}",
      "role": "DataPipelineDefaultRole",
      "topicArn": "arn:aws:sns:us-west-2:921287511715:report-notification",
      "type": "SnsAlarm"
    },
    {
      "name": "SuccessNotification",
      "id": "ActionId_KyGxM",
      "message": "Start Time: #{node.@actualStartTime}\nEnd Time: #{node.@actualEndTime}",
      "subject": "SUCCESS: BV Reports #{node.name} #{node.myDt}",
      "role": "DataPipelineDefaultRole",
      "topicArn": "arn:aws:sns:us-west-2:921287511715:report-notification",
      "type": "SnsAlarm"
    },
    {
      "name": "DefaultRedshiftDatabase1",
      "id": "RedshiftDatabaseId_XRZs0",
      "databaseName": "bv",
      "username": "biadmin",
      "*password": "Halfquest_2014",
      "type": "RedshiftDatabase",
      "clusterId": "bicluster"
    },
    {
      "name": "Every 1 day",
      "id": "DefaultSchedule",
      "startDateTime": "2014-11-04T01:45:00",
      "type": "Schedule",
      "period": "1 days"
    },
    {
      "name": "BVReportsEC2Resource",
      "id": "ResourceId_mORv1",
      "instanceType": "m1.medium",
      "terminateAfter": "1 Hour",
      "schedule": {
        "ref": "DefaultSchedule"
      },
      "keyPair": "bidev-keypair",
      "logUri": "s3://com.funplusgame.bidata/emr/logs/",
      "role": "DataPipelineDefaultRole",
      "type": "Ec2Resource",
      "resourceRole": "DataPipelineDefaultResourceRole"
    },
    {
      "name": "KPIActivity",
      "id": "ActivityId_HGAc8",
      "schedule": {
        "ref": "DefaultSchedule"
      },
      "scriptUri": "s3://com.funplusgame.bidata/dev/sql/bv_reports_kpi.sql",
      "maxActiveInstances": "1",
      "runsOn": {
        "ref": "ResourceId_mORv1"
      },
      "onSuccess": {
        "ref": "ActionId_KyGxM"
      },
      "scriptArgument": [
        "#{myDt}",
        "#{myDt}",
        "#{myDt}",
        "#{myDt}",
        "#{myDt}",
        "#{myDt}",
        "#{myDt}",
        "#{myDt}",
        "#{myDt}",
        "#{myDt}",
        "#{myDt}",
        "#{myDt}",
        "#{myDt}",
        "#{myDt}",
        "#{myDt}",
        "#{myDt}",
        "#{myDt}",
        "#{myDt}"
      ],
      "onFail": {
        "ref": "ActionId_NIYB0"
      },
      "type": "SqlActivity",
      "myDt": "#{format(minusDays(@scheduledStartTime,1),\"YYYY-MM-dd\")}",
      "database": {
        "ref": "RedshiftDatabaseId_XRZs0"
      }
    },
    {
      "name": "InGameActivity",
      "id": "ActivityId_InGame",
      "schedule": {
        "ref": "DefaultSchedule"
      },
      "scriptUri": "s3://com.funplusgame.bidata/dev/sql/bv_reports_ingame.sql",
      "maxActiveInstances": "1",
      "runsOn": {
        "ref": "ResourceId_mORv1"
      },
      "onSuccess": {
        "ref": "ActionId_KyGxM"
      },
      "scriptArgument": [
        "#{myDt}",
        "#{myDt}",
        "#{myDt}",
        "#{myDt}",
        "#{myDt}",
        "#{myDt}",
        "#{myDt}",
        "#{myDt}",
        "#{myDt}",
        "#{myDt}",
        "#{myDt}",
        "#{myDt}",
        "#{myDt}",
        "#{myDt}",
        "#{myDt}",
        "#{myDt}",
        "#{myDt}",
        "#{myDt}",
        "#{myDt}",
        "#{myDt}",
        "#{myDt}",
        "#{myDt}",
        "#{myDt}",
        "#{myDt}",
        "#{myDt}"
      ],
      "onFail": {
        "ref": "ActionId_NIYB0"
      },
      "type": "SqlActivity",
      "myDt": "#{format(minusDays(@scheduledStartTime,1),\"YYYY-MM-dd\")}",
      "dependsOn": {
        "ref": "ActivityId_HGAc8"
      },
      "database": {
        "ref": "RedshiftDatabaseId_XRZs0"
      }
    },
    {
      "name": "PMActivity",
      "id": "ActivityId_PM",
      "schedule": {
        "ref": "DefaultSchedule"
      },
      "scriptUri": "s3://com.funplusgame.bidata/dev/sql/bv_pm_script.sql",
      "maxActiveInstances": "1",
      "runsOn": {
        "ref": "ResourceId_mORv1"
      },
      "onSuccess": {
        "ref": "ActionId_KyGxM"
      },
      "scriptArgument": [
        "#{myDt}",
        "#{myDt}",
        "#{myDt}",
        "#{myDt}",
        "#{myDt}",
        "#{myDt}"
      ],
      "onFail": {
        "ref": "ActionId_NIYB0"
      },
      "type": "SqlActivity",
      "myDt": "#{format(minusDays(@scheduledStartTime,1),\"YYYY-MM-dd\")}",
      "dependsOn": {
        "ref": "ActivityId_InGame"
      },
      "database": {
        "ref": "RedshiftDatabaseId_XRZs0"
      }
    },
    {
      "name": "Default",
      "id": "Default",
      "scheduleType": "CRON",
      "failureAndRerunMode": "CASCADE",
      "schedule": {
        "ref": "DefaultSchedule"
      },
      "pipelineLogUri": "s3://com.funplusgame.emr/logs/",
      "role": "DataPipelineDefaultRole",
      "resourceRole": "DataPipelineDefaultResourceRole"
    }
  ]
}
