{
  "objects": [
    {
      "id": "DefaultSchedule",
      "startDateTime": "2014-08-30T01:30:00",
      "name": "Every 1 day",
      "type": "Schedule",
      "period": "1 Day"
    },
    {
      "id": "MyEmrActivity",
      "schedule": {
        "ref": "DefaultSchedule"
      },
      "name": "MyEmrActivity",
      "maxActiveInstances": "5",
      "runsOn": {
        "ref": "MyEmrCluster"
      },
      "maximumRetries": "0",
      "type": "EmrActivity",
      "step": "/home/hadoop/lib/emr-s3distcp-1.0.jar,--s3Endpoint,s3-us-west-2.amazonaws.com,--srcPattern,.*#{format(minusDays(@scheduledStartTime,1),\"YYYYMMdd\")}.*gz,--outputCodec,gzip,--src,s3://com.funplusgame.bidata/bv/global/prod/,--dest,s3://com.funplusgame.bidata/fluentdlegacy/daily/bv.global.prod/#{format(minusDays(@scheduledStartTime,1),\"YYYY/MM/dd/\")}"
    },
    {
      "id": "Default",
      "scheduleType": "CRON",
      "failureAndRerunMode": "CASCADE",
      "schedule": {
        "ref": "DefaultSchedule"
      },
      "name": "Default",
      "pipelineLogUri": "s3://com.funplusgame.emr/logs/",
      "role": "DataPipelineDefaultRole",
      "resourceRole": "DataPipelineDefaultResourceRole"
    },
    {
      "terminateAfter": "1 Hours",
      "emrLogUri": "s3://com.funplusgame.bidata/emr/logs/",
      "amiVersion": "2.4.2",
      "keyPair": "bidev-keypair",
      "masterInstanceType": "m1.small",
      "enableDebugging": "true",
      "coreInstanceCount": "3",
      "logUri": "s3://com.funplusgame.bidata/emr/logs/",
      "type": "EmrCluster",
      "id": "MyEmrCluster",
      "schedule": {
        "ref": "DefaultSchedule"
      },
      "hadoopVersion": "1.0.3",
      "coreInstanceType": "m3.xlarge",
      "name": "MyEmrCluster",
      "actionOnTaskFailure": "terminate"
    }
  ]
}