{
  "objects": [
    {
      "name": "SplytExperimentsTSV",
      "id": "DataNodeId_SplytExperimentsTSV",
      "schedule": {
        "ref": "DefaultSchedule"
      },
      "directoryPath": "s3://com.funplusgame.bidata/etl/results/bv.global.prod/splyt/test/experiments/staging/daily/#{format(minusDays(@scheduledStartTime,1),'YYYY/MM/dd')}/",
      "dataFormat": {
        "ref": "DataFormatId_fn00D"
      },
      "type": "S3DataNode",
      "compression": "GZIP"
    },
    {
      "name": "SplytVariants",
      "id": "DataNodeId_SplytVariants",
      "schedule": {
        "ref": "DefaultSchedule"
      },
      "directoryPath": "s3://com.funplus.bithirdparty/splyt/bv.global.prod/test/variants/#{format(minusDays(@scheduledStartTime,1),\"YYYY/MM/dd\")}/",
      "dataFormat": {
        "ref": "DataFormatId_fn00D"
      },
      "type": "S3DataNode"
    },
    {
      "name": "SplytDataTSV",
      "id": "DataNodeId_SplytDataTSV",
      "schedule": {
        "ref": "DefaultSchedule"
      },
      "directoryPath": "s3://com.funplusgame.bidata/etl/results/bv.global.prod/splyt/test/data/staging/daily/#{format(minusDays(@scheduledStartTime,1),'YYYY/MM/dd')}/",
      "dataFormat": {
        "ref": "DataFormatId_fn00D"
      },
      "type": "S3DataNode",
      "compression": "GZIP"
    },
    {
      "name": "DataRedShiftTable_testflight",
      "id": "DataNodeId_DataTable_testflight",
      "schedule": {
        "ref": "DefaultSchedule"
      },
      "tableName": "experiment_assignments",
      "type": "RedshiftDataNode",
      "database": {
        "ref": "RedshiftDatabaseId_testflight"
      }
    },
    {
      "name": "Every 1 day",
      "id": "DefaultSchedule",
      "startDateTime": "2014-11-14T11:00:00",
      "type": "Schedule",
      "period": "1 days"
    },
    {
      "name": "DataRedShiftTable",
      "id": "DataNodeId_DataTable",
      "schedule": {
        "ref": "DefaultSchedule"
      },
      "tableName": "experiment_assignments",
      "type": "RedshiftDataNode",
      "database": {
        "ref": "RedshiftDatabaseId"
      }
    },
    {
      "name": "FailureNotification",
      "id": "ActionId_NIYB0",
      "message": "Start Time: #{node.@actualStartTime}\nEnd Time: #{node.@actualEndTime}\n#{node.errorMessage}\n#{node.errorStackTrace}",
      "subject": "FAILURE: BV Splyt Test #{node.name} #{format(minusHours(node.@scheduledStartTime,1),\"YYYY/MM/dd/HH\")}",
      "role": "DataPipelineDefaultRole",
      "topicArn": "arn:aws:sns:us-west-2:921287511715:data-notification",
      "type": "SnsAlarm"
    },
    {
      "name": "TSV",
      "id": "DataFormatId_fn00D",
      "type": "TSV"
    },
    {
      "name": "ExperimentsToTSV",
      "id": "ActivityId_ExperimentsToTSV",
      "input": {
        "ref": "DataNodeId_SplytExperiments"
      },
      "schedule": {
        "ref": "DefaultSchedule"
      },
      "maxActiveInstances": "1",
      "runsOn": {
        "ref": "EmrClusterId_Splyt"
      },
      "onSuccess": {
        "ref": "ActionId_KyGxM"
      },
      "onFail": {
        "ref": "ActionId_NIYB0"
      },
      "output": {
        "ref": "DataNodeId_SplytExperimentsTSV"
      },
      "type": "EmrActivity",
      "preStepCommand": "if hadoop fs -test -e s3://com.funplusgame.bidata/etl/results/bv.global.prod/splyt/test/experiments/staging/daily/#{format(minusDays(@scheduledStartTime,1),'YYYY/MM/dd')}; then hadoop fs -rmr s3://com.funplusgame.bidata/etl/results/bv.global.prod/splyt/test/experiments/staging/daily/#{format(minusDays(@scheduledStartTime,1),'YYYY/MM/dd')}; fi",
      "step": "s3://com.funplusgame.bidata/dev/mr/jars/analytics-1.4-SNAPSHOT.jar,com.funplus.analytics.mr.SplytToTSV,-libjars,s3://com.funplusgame.bidata/dev/mr/jars/analytics-1.4-SNAPSHOT-dependencies.jar,s3://com.funplus.bithirdparty/splyt/bv.global.prod/test/experiments/#{format(minusDays(@scheduledStartTime,1),'YYYY/MM/dd')}/,s3://com.funplusgame.bidata/etl/results/bv.global.prod/splyt/test/experiments/staging/daily/#{format(minusDays(@scheduledStartTime,1),'YYYY/MM/dd')}/,experiments,bv.global.prod,test"
    },
    {
      "name": "RedShiftDatabase",
      "id": "RedshiftDatabaseId",
      "databaseName": "bv",
      "username": "biadmin",
      "*password": "Halfquest_2014",
      "type": "RedshiftDatabase",
      "clusterId": "bicluster"
    },
    {
      "name": "SplytEmrCluster",
      "id": "EmrClusterId_Splyt",
      "terminateAfter": "1 Hour",
      "emrLogUri": "s3://com.funplusgame.bidata/emr/logs/",
      "amiVersion": "2.4.2",
      "keyPair": "bidev-keypair",
      "masterInstanceType": "m1.small",
      "enableDebugging": "true",
      "coreInstanceCount": "2",
      "logUri": "s3://com.funplusgame.bidata/emr/logs/",
      "type": "EmrCluster",
      "schedule": {
        "ref": "DefaultSchedule"
      },
      "hadoopVersion": "1.0.3",
      "coreInstanceType": "m1.medium",
      "maxActiveInstances": "1"
    },
    {
      "name": "SplytEC2Resource",
      "id": "ResourceId_mORv1",
      "instanceType": "m1.medium",
      "terminateAfter": "1 Hour",
      "schedule": {
        "ref": "DefaultSchedule"
      },
      "keyPair": "bidev-keypair",
      "maxActiveInstances": "1",
      "logUri": "s3://com.funplusgame.bidata/emr/logs/",
      "role": "DataPipelineDefaultRole",
      "type": "Ec2Resource",
      "resourceRole": "DataPipelineDefaultResourceRole"
    },
    {
      "name": "VariantsToRedShift_testflight",
      "id": "ActivityId_VariantsToRedShift_testflight",
      "schedule": {
        "ref": "DefaultSchedule"
      },
      "input": {
        "ref": "DataNodeId_SplytVariantsTSV"
      },
      "insertMode": "OVERWRITE_EXISTING",
      "maxActiveInstances": "1",
      "runsOn": {
        "ref": "ResourceId_mORv1"
      },
      "onSuccess": {
        "ref": "ActionId_KyGxM"
      },
      "onFail": {
        "ref": "ActionId_NIYB0"
      },
      "type": "RedshiftCopyActivity",
      "output": {
        "ref": "DataNodeId_VariantsTable_testflight"
      }
    },
    {
      "name": "RedShiftDatabase_testflight",
      "id": "RedshiftDatabaseId_testflight",
      "databaseName": "bv_testflight",
      "username": "biadmin",
      "*password": "Halfquest_2014",
      "type": "RedshiftDatabase",
      "clusterId": "bicluster"
    },
    {
      "name": "VariantsToRedShift",
      "id": "ActivityId_VariantsToRedShift",
      "schedule": {
        "ref": "DefaultSchedule"
      },
      "input": {
        "ref": "DataNodeId_SplytVariantsTSV"
      },
      "insertMode": "OVERWRITE_EXISTING",
      "maxActiveInstances": "1",
      "runsOn": {
        "ref": "ResourceId_mORv1"
      },
      "onSuccess": {
        "ref": "ActionId_KyGxM"
      },
      "onFail": {
        "ref": "ActionId_NIYB0"
      },
      "type": "RedshiftCopyActivity",
      "output": {
        "ref": "DataNodeId_VariantsTable"
      }
    },
    {
      "name": "VariantsToTSV",
      "id": "ActivityId_VariantsToTSV",
      "input": {
        "ref": "DataNodeId_SplytVariants"
      },
      "schedule": {
        "ref": "DefaultSchedule"
      },
      "maxActiveInstances": "1",
      "runsOn": {
        "ref": "EmrClusterId_Splyt"
      },
      "onSuccess": {
        "ref": "ActionId_KyGxM"
      },
      "onFail": {
        "ref": "ActionId_NIYB0"
      },
      "output": {
        "ref": "DataNodeId_SplytVariantsTSV"
      },
      "type": "EmrActivity",
      "preStepCommand": "if hadoop fs -test -e s3://com.funplusgame.bidata/etl/results/bv.global.prod/splyt/test/variants/staging/daily/#{format(minusDays(@scheduledStartTime,1),'YYYY/MM/dd')}; then hadoop fs -rmr s3://com.funplusgame.bidata/etl/results/bv.global.prod/splyt/test/variants/staging/daily/#{format(minusDays(@scheduledStartTime,1),'YYYY/MM/dd')}; fi",
      "step": "s3://com.funplusgame.bidata/dev/mr/jars/analytics-1.4-SNAPSHOT.jar,com.funplus.analytics.mr.SplytToTSV,-libjars,s3://com.funplusgame.bidata/dev/mr/jars/analytics-1.4-SNAPSHOT-dependencies.jar,s3://com.funplus.bithirdparty/splyt/bv.global.prod/test/variants/#{format(minusDays(@scheduledStartTime,1),'YYYY/MM/dd')}/,s3://com.funplusgame.bidata/etl/results/bv.global.prod/splyt/test/variants/staging/daily/#{format(minusDays(@scheduledStartTime,1),'YYYY/MM/dd')}/,variants,bv.global.prod,test"
    },
    {
      "name": "DataToRedShift",
      "id": "ActivityId_DataToRedShift",
      "input": {
        "ref": "DataNodeId_SplytDataTSV"
      },
      "schedule": {
        "ref": "DefaultSchedule"
      },
      "insertMode": "OVERWRITE_EXISTING",
      "maxActiveInstances": "1",
      "runsOn": {
        "ref": "ResourceId_mORv1"
      },
      "onSuccess": {
        "ref": "ActionId_KyGxM"
      },
      "onFail": {
        "ref": "ActionId_NIYB0"
      },
      "type": "RedshiftCopyActivity",
      "output": {
        "ref": "DataNodeId_DataTable"
      }
    },
    {
      "name": "Default",
      "id": "Default",
      "scheduleType": "CRON",
      "failureAndRerunMode": "CASCADE",
      "schedule": {
        "ref": "DefaultSchedule"
      },
      "pipelineLogUri": "s3://com.funplusgame.emr/logs/",
      "role": "DataPipelineDefaultRole",
      "resourceRole": "DataPipelineDefaultResourceRole"
    },
    {
      "name": "SplytDownloadData",
      "id": "ActivityId_SplytData",
      "schedule": {
        "ref": "DefaultSchedule"
      },
      "stdout": "s3://com.funplusgame.emr/logs/scripts/splyt/#{format(@scheduledStartTime,\"YYYY/MM/dd\")}/stdout",
      "maxActiveInstances": "1",
      "command": "/mnt/ephemeral/venvpython27/bin/python /mnt/ephemeral/analytics/python/splyt.py -app bv.global.prod -dt #{format(minusDays(@scheduledStartTime,1),\"YYYY/MM/dd\")} -output ${OUTPUT1_STAGING_DIR} -type data -env funplus-barnvoyage-test",
      "onSuccess": {
        "ref": "ActionId_KyGxM"
      },
      "onFail": {
        "ref": "ActionId_NIYB0"
      },
      "workerGroup": "dota",
      "stderr": "s3://com.funplusgame.emr/logs/scripts/splyt/#{format(@scheduledStartTime,\"YYYY/MM/dd\")}/stderr",
      "type": "ShellCommandActivity",
      "output": {
        "ref": "DataNodeId_SplytData"
      },
      "stage": "true"
    },
    {
      "name": "SplytVariantsTSV",
      "id": "DataNodeId_SplytVariantsTSV",
      "schedule": {
        "ref": "DefaultSchedule"
      },
      "directoryPath": "s3://com.funplusgame.bidata/etl/results/bv.global.prod/splyt/test/variants/staging/daily/#{format(minusDays(@scheduledStartTime,1),'YYYY/MM/dd')}/",
      "dataFormat": {
        "ref": "DataFormatId_fn00D"
      },
      "type": "S3DataNode",
      "compression": "GZIP"
    },
    {
      "name": "ExperimentsRedShiftTable",
      "id": "DataNodeId_ExperimentsTable",
      "schedule": {
        "ref": "DefaultSchedule"
      },
      "tableName": "experiments",
      "type": "RedshiftDataNode",
      "database": {
        "ref": "RedshiftDatabaseId"
      }
    },
    {
      "name": "SplytData",
      "id": "DataNodeId_SplytData",
      "schedule": {
        "ref": "DefaultSchedule"
      },
      "directoryPath": "s3://com.funplus.bithirdparty/splyt/bv.global.prod/test/data/#{format(minusDays(@scheduledStartTime,1),\"YYYY/MM/dd\")}/",
      "dataFormat": {
        "ref": "DataFormatId_fn00D"
      },
      "type": "S3DataNode"
    },
    {
      "name": "SplytDownloadVariants",
      "id": "ActivityId_SplytVariants",
      "schedule": {
        "ref": "DefaultSchedule"
      },
      "stdout": "s3://com.funplusgame.emr/logs/scripts/splyt/#{format(@scheduledStartTime,\"YYYY/MM/dd\")}/stdout",
      "maxActiveInstances": "1",
      "command": "/mnt/ephemeral/venvpython27/bin/python /mnt/ephemeral/analytics/python/splyt.py -app bv.global.prod -dt #{format(minusDays(@scheduledStartTime,1),\"YYYY/MM/dd\")} -output ${OUTPUT1_STAGING_DIR} -type variants -env funplus-barnvoyage-test",
      "onSuccess": {
        "ref": "ActionId_KyGxM"
      },
      "onFail": {
        "ref": "ActionId_NIYB0"
      },
      "workerGroup": "dota",
      "stderr": "s3://com.funplusgame.emr/logs/scripts/splyt/#{format(@scheduledStartTime,\"YYYY/MM/dd\")}/stderr",
      "type": "ShellCommandActivity",
      "output": {
        "ref": "DataNodeId_SplytVariants"
      },
      "stage": "true"
    },
    {
      "name": "VariantsRedShiftTable",
      "id": "DataNodeId_VariantsTable",
      "schedule": {
        "ref": "DefaultSchedule"
      },
      "tableName": "variants",
      "type": "RedshiftDataNode",
      "database": {
        "ref": "RedshiftDatabaseId"
      }
    },
    {
      "name": "ExperimentsRedShiftTable_testflight",
      "id": "DataNodeId_ExperimentsTable_testflight",
      "schedule": {
        "ref": "DefaultSchedule"
      },
      "tableName": "experiments",
      "type": "RedshiftDataNode",
      "database": {
        "ref": "RedshiftDatabaseId_testflight"
      }
    },
    {
      "name": "ExperimentsToRedShift",
      "id": "ActivityId_ExperimentsToRedShift",
      "schedule": {
        "ref": "DefaultSchedule"
      },
      "input": {
        "ref": "DataNodeId_SplytExperimentsTSV"
      },
      "insertMode": "OVERWRITE_EXISTING",
      "maxActiveInstances": "1",
      "runsOn": {
        "ref": "ResourceId_mORv1"
      },
      "onSuccess": {
        "ref": "ActionId_KyGxM"
      },
      "onFail": {
        "ref": "ActionId_NIYB0"
      },
      "type": "RedshiftCopyActivity",
      "output": {
        "ref": "DataNodeId_ExperimentsTable"
      }
    },
    {
      "name": "ExperimentsToRedShift_testflight",
      "id": "ActivityId_ExperimentsToRedShift_testflight",
      "schedule": {
        "ref": "DefaultSchedule"
      },
      "input": {
        "ref": "DataNodeId_SplytExperimentsTSV"
      },
      "insertMode": "OVERWRITE_EXISTING",
      "maxActiveInstances": "1",
      "runsOn": {
        "ref": "ResourceId_mORv1"
      },
      "onSuccess": {
        "ref": "ActionId_KyGxM"
      },
      "onFail": {
        "ref": "ActionId_NIYB0"
      },
      "type": "RedshiftCopyActivity",
      "output": {
        "ref": "DataNodeId_ExperimentsTable_testflight"
      }
    },
    {
      "name": "DataToRedShift_testflight",
      "id": "ActivityId_DataToRedShift_testflight",
      "input": {
        "ref": "DataNodeId_SplytDataTSV"
      },
      "schedule": {
        "ref": "DefaultSchedule"
      },
      "insertMode": "OVERWRITE_EXISTING",
      "maxActiveInstances": "1",
      "runsOn": {
        "ref": "ResourceId_mORv1"
      },
      "onSuccess": {
        "ref": "ActionId_KyGxM"
      },
      "onFail": {
        "ref": "ActionId_NIYB0"
      },
      "type": "RedshiftCopyActivity",
      "output": {
        "ref": "DataNodeId_DataTable_testflight"
      }
    },
    {
      "name": "SplytExperiments",
      "id": "DataNodeId_SplytExperiments",
      "schedule": {
        "ref": "DefaultSchedule"
      },
      "directoryPath": "s3://com.funplus.bithirdparty/splyt/bv.global.prod/test/experiments/#{format(minusDays(@scheduledStartTime,1),\"YYYY/MM/dd\")}/",
      "dataFormat": {
        "ref": "DataFormatId_fn00D"
      },
      "type": "S3DataNode"
    },
    {
      "name": "VariantsRedShiftTable_testflight",
      "id": "DataNodeId_VariantsTable_testflight",
      "schedule": {
        "ref": "DefaultSchedule"
      },
      "tableName": "variants",
      "type": "RedshiftDataNode",
      "database": {
        "ref": "RedshiftDatabaseId_testflight"
      }
    },
    {
      "name": "SplytDownloadExperiments",
      "id": "ActivityId_SplytExperiments",
      "schedule": {
        "ref": "DefaultSchedule"
      },
      "stdout": "s3://com.funplusgame.emr/logs/scripts/splyt/#{format(@scheduledStartTime,\"YYYY/MM/dd\")}/stdout",
      "command": "/mnt/ephemeral/venvpython27/bin/python /mnt/ephemeral/analytics/python/splyt.py -app bv.global.prod -dt #{format(minusDays(@scheduledStartTime,1),\"YYYY/MM/dd\")} -output ${OUTPUT1_STAGING_DIR} -type experiments -env funplus-barnvoyage-test",
      "maxActiveInstances": "1",
      "onSuccess": {
        "ref": "ActionId_KyGxM"
      },
      "onFail": {
        "ref": "ActionId_NIYB0"
      },
      "workerGroup": "dota",
      "stderr": "s3://com.funplusgame.emr/logs/scripts/splyt/#{format(@scheduledStartTime,\"YYYY/MM/dd\")}/stderr",
      "type": "ShellCommandActivity",
      "output": {
        "ref": "DataNodeId_SplytExperiments"
      },
      "stage": "true"
    },
    {
      "name": "SuccessNotification",
      "id": "ActionId_KyGxM",
      "message": "Start Time: #{node.@actualStartTime}\nEnd Time: #{node.@actualEndTime}",
      "subject": "SUCCESS: BV Splyt Test #{node.name} #{format(minusHours(node.@scheduledStartTime,1),\"YYYY/MM/dd/HH\")}\n",
      "role": "DataPipelineDefaultRole",
      "topicArn": "arn:aws:sns:us-west-2:921287511715:data-notification",
      "type": "SnsAlarm"
    },
    {
      "name": "DataToTSV",
      "id": "ActivityId_DataToTSV",
      "input": {
        "ref": "DataNodeId_SplytData"
      },
      "schedule": {
        "ref": "DefaultSchedule"
      },
      "maxActiveInstances": "1",
      "runsOn": {
        "ref": "EmrClusterId_Splyt"
      },
      "onSuccess": {
        "ref": "ActionId_KyGxM"
      },
      "onFail": {
        "ref": "ActionId_NIYB0"
      },
      "type": "EmrActivity",
      "output": {
        "ref": "DataNodeId_SplytDataTSV"
      },
      "preStepCommand": "if hadoop fs -test -e s3://com.funplusgame.bidata/etl/results/bv.global.prod/splyt/test/data/staging/daily/#{format(minusDays(@scheduledStartTime,1),'YYYY/MM/dd')}; then hadoop fs -rmr s3://com.funplusgame.bidata/etl/results/bv.global.prod/splyt/test/data/staging/daily/#{format(minusDays(@scheduledStartTime,1),'YYYY/MM/dd')}; fi",
      "step": "s3://com.funplusgame.bidata/dev/mr/jars/analytics-1.4-SNAPSHOT.jar,com.funplus.analytics.mr.SplytToTSV,-libjars,s3://com.funplusgame.bidata/dev/mr/jars/analytics-1.4-SNAPSHOT-dependencies.jar,s3://com.funplus.bithirdparty/splyt/bv.global.prod/test/data/#{format(minusDays(@scheduledStartTime,1),'YYYY/MM/dd')}/,s3://com.funplusgame.bidata/etl/results/bv.global.prod/splyt/test/data/staging/daily/#{format(minusDays(@scheduledStartTime,1),'YYYY/MM/dd')}/,data,bv.global.prod,test"
    }
  ]
}
