{
  "objects": [
    {
      "name": "FailureNotification",
      "id": "ActionId_NIYB0",
      "message": "Start Time: #{node.@actualStartTime}\nEnd Time: #{node.@actualEndTime}\n#{node.errorMessage}\n#{node.errorStackTrace}",
      "subject": "FAILURE: BV TESTFLIGHT EVENTS #{node.name} #{format(minusHours(node.@scheduledStartTime,1),\"YYYY/MM/dd/HH\")}",
      "role": "DataPipelineDefaultRole",
      "topicArn": "arn:aws:sns:us-west-2:921287511715:data-notification",
      "type": "SnsAlarm"
    },
    {
      "name": "S3Raw",
      "id": "DataNodeId_vd5fv",
      "schedule": {
        "ref": "DefaultSchedule"
      },
      "directoryPath": "s3://com.funplusgame.bidata/fluentd/bv.global.testflight/#{format(minusHours(@scheduledStartTime,1),'YYYY/MM/dd/HH')}/",
      "maxActiveInstances": "1",
      "dataFormat": {
        "ref": "DataFormatId_VUMhh"
      },
      "type": "S3DataNode"
    },
    {
      "name": "Hourly Schedule",
      "id": "DefaultSchedule",
      "startDateTime": "2014-10-16T18:30:00",
      "type": "Schedule",
      "period": "1 Hour"
    },
    {
      "name": "RedShiftDatabase",
      "id": "RedshiftDatabaseId_ghoOt",
      "databaseName": "bv_testflight",
      "username": "biadmin",
      "*password": "Halfquest_2014",
      "type": "RedshiftDatabase",
      "clusterId": "bicluster"
    },
    {
      "name": "SuccessNotification",
      "id": "ActionId_KyGxM",
      "message": "Start Time: #{node.@actualStartTime}\nEnd Time: #{node.@actualEndTime}",
      "subject": "SUCCESS: BV TESTFLIGHT EVENTS #{node.name} #{format(minusHours(node.@scheduledStartTime,1),\"YYYY/MM/dd/HH\")}\n",
      "role": "DataPipelineDefaultRole",
      "topicArn": "arn:aws:sns:us-west-2:921287511715:data-notification",
      "type": "SnsAlarm"
    },
    {
      "name": "TSV",
      "id": "DataFormatId_tKIH1",
      "type": "TSV"
    },
    {
      "name": "DeleteDataInRedShift",
      "id": "ActivityId_yXJ6w",
      "schedule": {
        "ref": "DefaultSchedule"
      },
      "maxActiveInstances": "1",
      "runsOn": {
        "ref": "ResourceId_mORv1"
      },
      "onSuccess": {
        "ref": "ActionId_KyGxM"
      },
      "onFail": {
        "ref": "ActionId_NIYB0"
      },
      "dependsOn": {
        "ref": "ActivityId_u0fJL"
      },
      "script": "delete from events_raw where trunc(ts) = '#{format(minusHours(@scheduledStartTime,1),\"YYYY-MM-dd\")}' and datepart('hour',ts) = #{format(minusHours(@scheduledStartTime,1),\"HH\")};",
      "type": "SqlActivity",
      "database": {
        "ref": "RedshiftDatabaseId_ghoOt"
      }
    },
    {
      "name": "ToRedShift",
      "id": "ActivityId_S5Rbj",
      "input": {
        "ref": "DataNodeId_nxF1m"
      },
      "schedule": {
        "ref": "DefaultSchedule"
      },
      "insertMode": "KEEP_EXISTING",
      "maxActiveInstances": "1",
      "runsOn": {
        "ref": "ResourceId_mORv1"
      },
      "onSuccess": {
        "ref": "ActionId_KyGxM"
      },
      "onFail": {
        "ref": "ActionId_NIYB0"
      },
      "dependsOn": {
        "ref": "ActivityId_yXJ6w"
      },
      "type": "RedshiftCopyActivity",
      "output": {
        "ref": "DataNodeId_50zwf"
      }
    },
    {
      "name": "RedShiftTable",
      "id": "DataNodeId_50zwf",
      "schedule": {
        "ref": "DefaultSchedule"
      },
      "tableName": "events_raw",
      "maxActiveInstances": "1",
      "type": "RedshiftDataNode",
      "database": {
        "ref": "RedshiftDatabaseId_ghoOt"
      }
    },
    {
      "name": "ToTSV",
      "id": "ActivityId_u0fJL",
      "input": {
        "ref": "DataNodeId_vd5fv"
      },
      "schedule": {
        "ref": "DefaultSchedule"
      },
      "maxActiveInstances": "1",
      "runsOn": {
        "ref": "EmrClusterId_yjoTZ"
      },
      "onSuccess": {
        "ref": "ActionId_KyGxM"
      },
      "onFail": {
        "ref": "ActionId_NIYB0"
      },
      "type": "EmrActivity",
      "output": {
        "ref": "DataNodeId_nxF1m"
      },
      "preStepCommand": "if hadoop fs -test -e s3://com.funplusgame.bidata/etl/results/bv.global.testflight/events/staging/hourly/#{format(minusHours(@scheduledStartTime,1),'YYYY/MM/dd/HH')}; then hadoop fs -rmr s3://com.funplusgame.bidata/etl/results/bv.global.testflight/events/staging/hourly/#{format(minusHours(@scheduledStartTime,1),'YYYY/MM/dd/HH')}; fi",
      "step": "s3://com.funplusgame.bidata/dev/mr/jars/analytics-1.1-SNAPSHOT.jar,com.funplus.analytics.mr.v1_1.ProductionEvents,-libjars,s3://com.funplusgame.bidata/dev/mr/jars/analytics-1.1-SNAPSHOT-dependencies.jar,-files,s3://com.funplusgame.bidata/dev/mr/files/GeoIP.dat,bv_testflight-job,s3://com.funplusgame.bidata/fluentd/bv.global.testflight/#{format(minusHours(@scheduledStartTime,1),'YYYY/MM/dd/HH')}/,s3://com.funplusgame.bidata/etl/results/bv.global.testflight/events/staging/hourly/#{format(minusHours(@scheduledStartTime,1),'YYYY/MM/dd/HH')}/"
    },
    {
      "name": "S3TSV",
      "id": "DataNodeId_nxF1m",
      "schedule": {
        "ref": "DefaultSchedule"
      },
      "directoryPath": "s3://com.funplusgame.bidata/etl/results/bv.global.testflight/events/staging/hourly/#{format(minusHours(@scheduledStartTime,1),'YYYY/MM/dd/HH')}",
      "maxActiveInstances": "1",
      "dataFormat": {
        "ref": "DataFormatId_tKIH1"
      },
      "type": "S3DataNode",
      "compression": "GZIP"
    },
    {
      "name": "BVEmrCluster",
      "id": "EmrClusterId_yjoTZ",
      "terminateAfter": "1 Hour",
      "emrLogUri": "s3://com.funplusgame.bidata/emr/logs/",
      "amiVersion": "2.4.2",
      "keyPair": "bidev-keypair",
      "masterInstanceType": "m1.medium",
      "enableDebugging": "true",
      "coreInstanceCount": "2",
      "logUri": "s3://com.funplusgame.bidata/emr/logs/",
      "type": "EmrCluster",
      "schedule": {
        "ref": "DefaultSchedule"
      },
      "hadoopVersion": "1.0.3",
      "coreInstanceType": "m1.medium",
      "maxActiveInstances": "1"
    },
    {
      "name": "Default",
      "id": "Default",
      "scheduleType": "CRON",
      "failureAndRerunMode": "CASCADE",
      "schedule": {
        "ref": "DefaultSchedule"
      },
      "pipelineLogUri": "s3://com.funplusgame.emr/logs/",
      "role": "DataPipelineDefaultRole",
      "resourceRole": "DataPipelineDefaultResourceRole"
    },
    {
      "name": "BVEC2Resource",
      "id": "ResourceId_mORv1",
      "terminateAfter": "1 Hour",
      "instanceType": "m1.small",
      "schedule": {
        "ref": "DefaultSchedule"
      },
      "keyPair": "bidev-keypair",
      "maxActiveInstances": "1",
      "logUri": "s3://com.funplusgame.bidata/emr/logs/",
      "role": "DataPipelineDefaultRole",
      "type": "Ec2Resource",
      "resourceRole": "DataPipelineDefaultResourceRole"
    },
    {
      "name": "JSON",
      "id": "DataFormatId_VUMhh",
      "columnSeparator": "\n",
      "type": "Custom"
    }
  ]
}
