{
  "objects": [
    {
      "name": "SuccessNotification",
      "id": "ActionId_oZACc",
      "message": "Start Time: #{node.@actualStartTime}\nEnd Time: #{node.@actualEndTime}",
      "subject": "SUCCESS: HA.ALL.PROD-SENDGRID-DAILY #{node.name} #{format(minusDays(node.@scheduledStartTime,1),\"YYYY-MM-dd\")}\n",
      "topicArn": "arn:aws:sns:us-west-2:921287511715:data-notification",
      "role": "DataPipelineDefaultRole",
      "type": "SnsAlarm"
    },
    {
      "name": "HASendgridEmrCluster",
      "id": "ResourceId_XEsXX",
      "terminateAfter": "1 Hour",
      "amiVersion": "3.4.0",
      "keyPair": "bidev-keypair",
      "schedule": {
        "ref": "DefaultSchedule"
      },
      "masterInstanceType": "m1.medium",
      "bootstrapAction": "s3://com.funplusgame.bidata/dev/scripts/hive_config_setup.sh",
      "coreInstanceType": "c3.2xlarge",
      "coreInstanceCount": "1",
      "onFail": {
        "ref": "ActionId_zo69P"
      },
      "type": "EmrCluster"
    },
    {
      "name": "DependencyFailureNotification",
      "id": "ActionId_AGrl7",
      "message": "s3://com.funplus.datawarehouse/semaphores/ha/app=ha.all.prod/job=raw_events/year=#{format(minusDays(node.@scheduledStartTime,1),'YYYY')}/month=#{format(minusDays(node.@scheduledStartTime,1),'MM')}/day=#{format(minusDays(node.@scheduledStartTime,1),'dd')}/hour=#{format(minusDays(node.@scheduledStartTime,1),'HH')}/SUCCESS does not exist.\nStart Time: #{node.@actualStartTime}\nEnd Time: #{node.@actualEndTime}\n#{node.errorMessage}\n#{node.errorStackTrace}",
      "subject": "FAILURE: HA.ALL.PROD-SENDGRID-DAILY - DEPENDENCY NOT COMPLETED #{node.name} #{format(minusDays(node.@scheduledStartTime,1),\"YYYY-MM-dd\")}\n",
      "topicArn": "arn:aws:sns:us-west-2:921287511715:data-notification",
      "role": "DataPipelineDefaultRole",
      "type": "SnsAlarm"
    },
    {
      "name": "SemaphoreStart",
      "id": "ActivityId_KQsvt1C",
      "schedule": {
        "ref": "DefaultSchedule"
      },
      "runsOn": {
        "ref": "ResourceId_XEsXX"
      },
      "maxActiveInstances": "1",
      "command": "if hadoop fs -test -d s3://com.funplus.datawarehouse/semaphores/ha/app=ha.all.prod/job=sendgrid-reports/year=#{format(minusDays(@scheduledStartTime,1),'YYYY')}/month=#{format(minusDays(@scheduledStartTime,1),'MM')}/day=#{format(minusDays(@scheduledStartTime,1),'dd')}; then hadoop fs -rmr s3://com.funplus.datawarehouse/semaphores/ha/app=ha.all.prod/job=sendgrid-reports//year=#{format(minusDays(@scheduledStartTime,1),'YYYY')}/month=#{format(minusDays(@scheduledStartTime,1),'MM')}/day=#{format(minusDays(@scheduledStartTime,1),'dd')}; fi",
      "onFail": {
        "ref": "ActionId_zo69P"
      },
      "type": "ShellCommandActivity"
    },
    {
      "name": "Failure Notification",
      "id": "ActionId_zo69P",
      "message": "Start Time: #{node.@actualStartTime}\nEnd Time: #{node.@actualEndTime}",
      "subject": "FAILURE: HA.ALL.PROD-SENDGRID-DAILY - #{node.name} #{format(minusDays(node.@scheduledStartTime,1),\"YYYY-MM-dd\")}",
      "topicArn": "arn:aws:sns:us-west-2:921287511715:data-notification",
      "role": "DataPipelineDefaultRole",
      "type": "SnsAlarm"
    },
    {
      "name": "FactSendgridSql",
      "id": "ActivityId_Ot7sL",
      "schedule": {
        "ref": "DefaultSchedule"
      },
      "scriptUri": "s3://com.funplusgame.bidata/dev/sql1.2/ha/fact_sendgrid.sql",
      "maxActiveInstances": "1",
      "onFail": {
        "ref": "ActionId_zo69P"
      },
      "workerGroup": "wg-ec2-farm",
      "dependsOn": {
        "ref": "ActivityId_5z715C"
      },
      "type": "SqlActivity",
      "database": {
        "ref": "RedshiftDatabaseId_OO84r"
      }
    },
    {
      "name": "SemaphoreFailureNotification",
      "id": "ActionId_PJpcO",
      "message": "Pipeline Schedule Run Time: #{node.@scheduledStartTime}\nPipeline Execution Start Time: #{node.@actualStartTime}\nPipeline Execution End Time: #{node.@actualEndTime}\nError Message:\n#{node.errorMessage}\nError StackTrace:\n#{node.errorStackTrace}",
      "subject": "FAILURE: HA.ALL.PROD-SENDGRID-DAILY - SEMAPHORE #{node.name} #{format(minusDays(node.@scheduledStartTime,1),\"YYYY-MM-dd\")}\n",
      "topicArn": "arn:aws:sns:us-west-2:921287511715:data-notification",
      "role": "DataPipelineDefaultRole",
      "type": "SnsAlarm"
    },
    {
      "name": "DianDianRedshiftDB",
      "id": "RedshiftDatabaseId_OO84r",
      "databaseName": "ff2pc",
      "username": "biadmin",
      "*password": "Halfquest_2014",
      "clusterId": "bicluster",
      "type": "RedshiftDatabase"
    },
    {
      "name": "AggSendgridRetentionSql",
      "id": "ActivityId_k84Cz",
      "schedule": {
        "ref": "DefaultSchedule"
      },
      "scriptUri": "s3://com.funplusgame.bidata/dev/sql1.2/ha/agg_sendgrid_retention.sql",
      "maxActiveInstances": "1",
      "onFail": {
        "ref": "ActionId_zo69P"
      },
      "workerGroup": "wg-ec2-farm",
      "dependsOn": {
        "ref": "ActivityId_Ot7sL"
      },
      "type": "SqlActivity",
      "database": {
        "ref": "RedshiftDatabaseId_OO84r"
      }
    },
    {
      "name": "Daily",
      "id": "DefaultSchedule",
      "startDateTime": "2015-04-06T06:45:00",
      "period": "1 Day",
      "type": "Schedule"
    },
    {
      "name": "RawSendgridDaily2Redshift",
      "id": "ActivityId_5z715C",
      "schedule": {
        "ref": "DefaultSchedule"
      },
      "command": "/usr/bin/python /mnt/funplus/analytics/python/copy_to_redshift.py  -c=/mnt/funplus/analytics/python/conf/ha_1_1.yaml  --table=raw_data.raw_sendgrid_daily --s3path=s3://com.funplus.datawarehouse/ha_1_2/copy/raw_sendgrid_daily/app=ha.all.prod/dt=#{format(minusDays(@scheduledStartTime,1),'YYYY-MM-dd')}/ --command-options=\"EMPTYASNULL DELIMITER '\\t' GZIP\" --pre-sql=\"delete from raw_data.raw_sendgrid_daily where day >= '#{format(minusDays(@scheduledStartTime,3),\"YYYY-MM-dd\")}' OR day <=  '#{format(minusDays(@scheduledStartTime,7),\"YYYY-MM-dd\")}';\"",
      "maxActiveInstances": "1",
      "onFail": {
        "ref": "ActionId_zo69P"
      },
      "workerGroup": "wg-ec2-farm",
      "dependsOn": {
        "ref": "ActivityId_mMX5XC"
      },
      "type": "ShellCommandActivity"
    },
    {
      "name": "ScriptSetup",
      "id": "ActivityId_vpD6N",
      "schedule": {
        "ref": "DefaultSchedule"
      },
      "scriptUri": "s3://com.funplusgame.bidata/dev/scripts/reports_script_generator.sh",
      "runsOn": {
        "ref": "ResourceId_XEsXX"
      },
      "maxActiveInstances": "1",
      "onFail": {
        "ref": "ActionId_zo69P"
      },
      "scriptArgument": [
        "-a ha.all.prod",
        "-f s3://com.funplusgame.bidata/dev/sql/init.sql",
        "-d #{format(minusDays(@scheduledStartTime,1),'YYYY-MM-dd HH:mm:ss')}",
        "-o s3://com.funplus.datawarehouse/sql_logs/ha/app=ha.all.prod/init-ha-reports-#{format(minusDays(@scheduledStartTime,1),'YYYYMMddHHmmss')}.hql",
        "-b 30",
        "-A ha.all.prod"
      ],
      "dependsOn": {
        "ref": "ActivityId_KQsvt1C"
      },
      "type": "ShellCommandActivity"
    },
    {
      "name": "RawSendgridDaily",
      "id": "ActivityId_mMX5XC",
      "schedule": {
        "ref": "DefaultSchedule"
      },
      "runsOn": {
        "ref": "ResourceId_XEsXX"
      },
      "maxActiveInstances": "1",
      "command": "/home/hadoop/hive/bin/hive -i s3://com.funplus.datawarehouse/sql_logs/ha/app=ha.all.prod/init-ha-reports-#{format(minusDays(@scheduledStartTime,1),'YYYYMMddHHmmss')}.hql -f s3://com.funplusgame.bidata/dev/hive/ha_1_2/raw_sendgrid_daily.hql",
      "dependsOn": {
        "ref": "ActivityId_vpD6N"
      },
      "type": "ShellCommandActivity"
    },
    {
      "name": "TimeoutNotification",
      "id": "ActionId_NAcg4",
      "message": "Task: #{node.name} is timedout",
      "subject": "TIMEOUT: HA.ALL.PROD-SENDGRID-DAILY #{node.name} #{format(minusDays(node.@scheduledStartTime,1),\"YYYY-MM-dd\")}\n",
      "topicArn": "arn:aws:sns:us-west-2:921287511715:data-notification",
      "role": "DataPipelineDefaultRole",
      "type": "SnsAlarm"
    },
    {
      "name": "SemaphoreEnd",
      "id": "ActivityId_SgdPU",
      "schedule": {
        "ref": "DefaultSchedule"
      },
      "runsOn": {
        "ref": "ResourceId_XEsXX"
      },
      "maxActiveInstances": "1",
      "command": "if hadoop fs -test -d s3://com.funplus.datawarehouse/semaphores/ha/app=ha.all.prod/job=eas_report/year=#{format(minusDays(@scheduledStartTime,1),'YYYY')}/month=#{format(minusDays(@scheduledStartTime,1),'MM')}/day=#{format(minusDays(@scheduledStartTime,1),'dd')}; then hadoop fs -rmr s3://com.funplus.datawarehouse/semaphores/ha/app=ha.all.prod/job=eas_reports/year=#{format(minusDays(@scheduledStartTime,1),'YYYY')}/month=#{format(minusDays(@scheduledStartTime,1),'MM')}/day=#{format(minusDays(@scheduledStartTime,1),'dd')}; fi;\necho \"1\" >SUCCESS;\nhadoop fs -mkdir -p s3://com.funplus.datawarehouse/semaphores/ha/app=ha.all.prod/job=eas_reports/year=#{format(minusDays(@scheduledStartTime,1),'YYYY')}/month=#{format(minusDays(@scheduledStartTime,1),'MM')}/day=#{format(minusDays(@scheduledStartTime,1),'dd')};\nhadoop dfs -put SUCCESS s3://com.funplus.datawarehouse/semaphores/ha/app=ha.all.prod/job=eas_reports/year=#{format(minusDays(@scheduledStartTime,1),'YYYY')}/month=#{format(minusDays(@scheduledStartTime,1),'MM')}/day=#{format(minusDays(@scheduledStartTime,1),'dd')}/;",
      "onSuccess": {
        "ref": "ActionId_oZACc"
      },
      "onFail": {
        "ref": "ActionId_zo69P"
      },
      "dependsOn": {
        "ref": "ActivityId_k84Cz"
      },
      "type": "ShellCommandActivity"
    },
    {
      "name": "Default",
      "id": "Default",
      "failureAndRerunMode": "CASCADE",
      "scheduleType": "CRON",
      "schedule": {
        "ref": "DefaultSchedule"
      },
      "pipelineLogUri": "s3://com.funplus.emr/logs/",
      "role": "DataPipelineDefaultRole",
      "resourceRole": "DataPipelineDefaultResourceRole"
    }
  ]
}
