{
  "$schema": "http://json-schema.org/draft-04/schema#",
  "type": "object",
  "properties": {
    "bi_version": {
      "type": "string"
    },
    "app_id": {
      "type": "string"
    },
    "ts": {
      "type": "integer"
    },
    "event": {
      "enum": [ "mission" ]
    },
    "user_id": {
      "type": "string"
    },
    "session_id": {
      "type": "string"
    },
    "properties": {
      "type": "object",
      "oneOf": [
        { "$ref": "#/definitions/pc_only" },
        { "$ref": "#/definitions/ios_only" },
        { "$ref": "#/definitions/android_only" }
      ]
    },
    "collections": {
      "type": "object",
      "properties": {
        "player_resources": {
          "type": "array",
          "minItems": 1,
          "items": { "$ref": "#/definitions/resource" },
          "uniqueItems": true
        },
        "ab_tests": {
          "type": "array",
          "minItems": 1,
          "items": { "$ref": "#/definitions/ab_test" },
          "uniqueItems": true
        },
        "resources_received": {
          "type": "array",
          "minItems": 1,
          "items": { "$ref": "#/definitions/resource" },
          "uniqueItems": true
        },
        "resources_spent": {
          "type": "array",
          "minItems": 1,
          "items": { "$ref": "#/definitions/resource" },
          "uniqueItems": true
        },
        "items_received": {
          "type": "array",
          "minItems": 1,
          "items": { "$ref": "#/definitions/item" },
          "uniqueItems": true
        },
        "items_spent": {
          "type": "array",
          "minItems": 1,
          "items": { "$ref": "#/definitions/item" },
          "uniqueItems": true
        },
        "mission_statistics": {
          "type": "array",
          "minItems": 1,
          "items": { "$ref": "#/definitions/name_value" },
          "uniqueItems": true
        },
        "mission_parameters": {
          "type": "array",
          "minItems": 1,
          "items": { "$ref": "#/definitions/name_value" },
          "uniqueItems": true
        },
        "mission_objectives": {
          "type": "array",
          "minItems": 1,
          "items": { "$ref": "#/definitions/mission_objective" },
          "uniqueItems": true
        }
      }
    }
  },
  "definitions": {
    "item": {
      "type": "object",
      "properties": {
        "item_id": {
          "type": "string"
        },
        "item_name": {
          "type": "string"
        },
        "item_class": {
          "type": "string"
        },
        "item_type": {
          "type": "string"
        },
        "item_amount": {
          "type": "number"
        }
      },
      "required": [
        "item_id",
        "item_amount"
      ]
    },
    "resource": {
      "type": "object",
      "properties": {
        "resource_id": {
          "type": "string"
        },
        "resource_name": {
          "type": "string"
        },
        "resource_type": {
          "type": "string"
        },
        "resource_amount": {
          "type": "number"
        }
      },
      "required": [
        "resource_id",
        "resource_amount"
      ]
    },
    "mission_objective": {
      "type": "object",
      "properties": {
        "objective_id": {
          "type": "string"
        },
        "objective_name": {
          "type": "string"
        },
        "objective_type": {
          "type": "string"
        },
        "objective_amount": {
          "type": "number"
        },
        "objective_amount_remaining": {
          "type": "number"
        }
      },
      "required": [
        "objective_id",
        "objective_amount",
        "objective_amount_remaining"
      ]
    },
    "name_value": {
      "type": "object",
      "properties": {
        "name": {
          "type": "string"
        },
        "value": {
          "type": "string"
        }
      },
      "required": [
        "name",
        "value"
      ]
    },
    "ab_test": {
      "type": "object",
      "properties": {
        "ab_experiment": {
          "type": "string"
        },
        "ab_variant": {
          "type": "string"
        }
      },
      "required": [
        "ab_experiment",
        "ab_variant"
      ]
    },
    "pc_only": {
      "properties": {
        "app_version": {
          "type": "string"
        },
        "gameserver_id": {
          "type": "string"
        },
        "os": {
          "type": "string"
        },
        "os_version": {
          "type": "string"
        },
        "browser": {
          "type": "string"
        },
        "browser_version": {
          "type": "string"
        },
        "ip": {
          "type": "string"
        },
        "lang": {
          "type": "string"
        },
        "level": {
          "type": "integer"
        },
        "mission_id": {
          "type": "string"
        },
        "mission_name": {
          "type": "string"
        },
        "mission_type": {
          "type": "string"
        },
        "mission_difficulty": {
          "type": "string"
        },
        "mission_status": {
          "type": "integer"
        },
        "mission_start_ts": {
          "type": "integer"
        },
        "mission_total_sec": {
          "type": "integer"
        }
      },
      "required": [
        "app_version",
        "os",
        "os_version",
        "browser",
        "browser_version",
        "ip",
        "lang",
        "level",
        "mission_status"
      ]
    },
    "ios_only": {
      "properties": {
        "app_version": {
          "type": "string"
        },
        "gameserver_id": {
          "type": "string"
        },
        "os": {
          "type": "string"
        },
        "os_version": {
          "type": "string"
        },
        "idfa": {
          "type": "string"
        },
        "idfv": {
          "type": "string"
        },
        "device": {
          "type": "string"
        },
        "ip": {
          "type": "string"
        },
        "lang": {
          "type": "string"
        },
        "level": {
          "type": "integer"
        },
        "mission_id": {
          "type": "string"
        },
        "mission_name": {
          "type": "string"
        },
        "mission_type": {
          "type": "string"
        },
        "mission_difficulty": {
          "type": "string"
        },
        "mission_status": {
          "type": "integer"
        },
        "mission_start_ts": {
          "type": "integer"
        },
        "mission_total_sec": {
          "type": "integer"
        }
      },
      "required": [
        "app_version",
        "os",
        "os_version",
        "idfa",
        "device",
        "ip",
        "lang",
        "level",
        "mission_status"
      ]
    },
    "android_only": {
      "properties": {
        "app_version": {
          "type": "string"
        },
        "gameserver_id": {
          "type": "string"
        },
        "os": {
          "type": "string"
        },
        "os_version": {
          "type": "string"
        },
        "gaid": {
          "type": "string"
        },
        "mac_address": {
          "type": "string"
        },
        "android_id": {
          "type": "string"
        },
        "device": {
          "type": "string"
        },
        "ip": {
          "type": "string"
        },
        "lang": {
          "type": "string"
        },
        "level": {
          "type": "integer"
        },
        "mission_id": {
          "type": "string"
        },
        "mission_name": {
          "type": "string"
        },
        "mission_type": {
          "type": "string"
        },
        "mission_difficulty": {
          "type": "string"
        },
        "mission_status": {
          "type": "integer"
        },
        "mission_start_ts": {
          "type": "integer"
        },
        "mission_total_sec": {
          "type": "integer"
        }
      },
      "required": [
        "app_version",
        "os",
        "os_version",
        "gaid",
        "mac_address",
        "device",
        "ip",
        "lang",
        "level",
        "mission_status"
      ]
    }
  },
  "required": [
    "bi_version",
    "app_id",
    "ts",
    "event",
    "user_id",
    "session_id"
  ]
}