{
  "objects": [
    {
      "id": "DataFormatId_Amebr",
      "name": "TSV",
      "type": "TSV"
    },
    {
      "id": "DataNodeId_6VS4B",
      "schedule": {
        "ref": "DefaultSchedule"
      },
      "filePath": "s3://com.funplusgame.bidata/etl/results/rs/events/staging/hourly/#{format(minusMinutes(@scheduledStartTime,60),'YYYY/MM/dd/HH')}/part-r-00000",
      "name": "S3TSV",
      "dataFormat": {
        "ref": "DataFormatId_Amebr"
      },
      "type": "S3DataNode"
    },
    {
      "id": "DefaultSchedule",
      "startDateTime": "2014-09-22T04:30:00",
      "endDateTime": "2014-09-22T23:30:00",
      "name": "Hourly",
      "type": "Schedule",
      "period": "1 Hour"
    },
    {
      "id": "Default",
      "scheduleType": "CRON",
      "failureAndRerunMode": "CASCADE",
      "schedule": {
        "ref": "DefaultSchedule"
      },
      "name": "Default",
      "role": "DataPipelineDefaultRole",
      "resourceRole": "DataPipelineDefaultResourceRole"
    },
    {
      "id": "DataFormatId_ccSmL",
      "name": "JSON",
      "columnSeparator": "\n",
      "type": "Custom"
    },
    {
      "id": "DataNodeId_aj73t",
      "schedule": {
        "ref": "DefaultSchedule"
      },
      "directoryPath": "s3://com.funplusgame.bidata/",
      "name": "S3Raw",
      "dataFormat": {
        "ref": "DataFormatId_ccSmL"
      },
      "type": "S3DataNode"
    },
    {
      "id": "RedshiftDatabaseId_jISp8",
      "databaseName": "rs",
      "username": "biadmin",
      "name": "RedshiftDatabase1",
      "*password": "Halfquest_2014",
      "type": "RedshiftDatabase",
      "clusterId": "bicluster"
    },
    {
      "id": "ActivityId_pLOJD",
      "input": {
        "ref": "DataNodeId_6VS4B"
      },
      "schedule": {
        "ref": "DefaultSchedule"
      },
      "insertMode": "KEEP_EXISTING",
      "name": "ToRedshift",
      "workerGroup": "daota",
      "type": "RedshiftCopyActivity",
      "output": {
        "ref": "DataNodeId_mHwdt"
      }
    },
    {
      "id": "DataNodeId_mHwdt",
      "schedule": {
        "ref": "DefaultSchedule"
      },
      "tableName": "events",
      "name": "Redshift Table",
      "type": "RedshiftDataNode",
      "database": {
        "ref": "RedshiftDatabaseId_jISp8"
      }
    }
  ]
}