{
  "objects": [
    {
      "name": "DefaultAction8",
      "id": "ActionId_mNL6X",
      "message": "Start Time: #{node.@actualStartTime}\nEnd Time: #{node.@actualEndTime}\n#{node.errorMessage}\n#{node.errorStackTrace}",
      "subject": "FAILURE: RS InGame REPORTS #{node.myDt}",
      "topicArn": "arn:aws:sns:us-west-2:921287511715:report-notification",
      "role": "DataPipelineDefaultRole",
      "type": "SnsAlarm"
    },
    {
      "name": "S3Raw",
      "id": "DataNodeId_aj73t",
      "schedule": {
        "ref": "DefaultSchedule"
      },
      "directoryPath": "s3://com.funplusgame.bidata/",
      "dataFormat": {
        "ref": "DataFormatId_ccSmL"
      },
      "type": "S3DataNode"
    },
    {
      "name": "DefaultAction7",
      "id": "ActionId_wDMTT",
      "message": "Start Time: #{node.@actualStartTime}\nEnd Time: #{node.@actualEndTime}\n",
      "subject": "SUCCESS: RS InGame REPORTS #{node.myDt}",
      "topicArn": "arn:aws:sns:us-west-2:921287511715:report-notification",
      "role": "DataPipelineDefaultRole",
      "type": "SnsAlarm"
    },
    {
      "name": "RS_KPI_ResEC2",
      "id": "ResourceId_FOzLn",
      "instanceType": "m1.xlarge",
      "terminateAfter": "3 Hours",
      "schedule": {
        "ref": "DefaultSchedule"
      },
      "actionOnTaskFailure": "terminate",
      "role": "DataPipelineDefaultRole",
      "type": "Ec2Resource",
      "resourceRole": "DataPipelineDefaultResourceRole"
    },
    {
      "name": "RS_InGameEC2",
      "id": "ResourceId_WWVrN",
      "instanceType": "m1.xlarge",
      "terminateAfter": "3 Hours",
      "schedule": {
        "ref": "DefaultSchedule"
      },
      "actionOnTaskFailure": "terminate",
      "role": "DataPipelineDefaultRole",
      "type": "Ec2Resource",
      "resourceRole": "DataPipelineDefaultResourceRole"
    },
    {
      "name": "DefaultAction1",
      "id": "ActionId_hxlFq",
      "message": "Start Time: #{node.@actualStartTime}\nEnd Time: #{node.@actualEndTime}\n",
      "subject": "SUCCESS: RS tbl_user EmrActivity #{node.myDt}",
      "topicArn": "arn:aws:sns:us-west-2:921287511715:report-notification",
      "role": "DataPipelineDefaultRole",
      "type": "SnsAlarm"
    },
    {
      "name": "DefaultAction2",
      "id": "ActionId_f18FP",
      "message": "Start Time: #{node.@actualStartTime}\nEnd Time: #{node.@actualEndTime}\n#{node.errorMessage}\n#{node.errorStackTrace}",
      "subject": "FAILURE: RS EmrActivity #{node.myDt}",
      "topicArn": "arn:aws:sns:us-west-2:921287511715:report-notification",
      "role": "DataPipelineDefaultRole",
      "type": "SnsAlarm"
    },
    {
      "name": "RS_KPI",
      "id": "ActivityId_8gJ1W",
      "schedule": {
        "ref": "DefaultSchedule"
      },
      "scriptUri": "s3://com.funplusgame.bidata/dev/sql/rs_reports_kpi.sql",
      "maxActiveInstances": "1",
      "runsOn": {
        "ref": "ResourceId_FOzLn"
      },
      "onSuccess": {
        "ref": "ActionId_4WhT4"
      },
      "onFail": {
        "ref": "ActionId_9gf69"
      },
      "scriptArgument": [
        "#{myDt}",
        "#{myDt}",
        "#{myDt}",
        "#{myDt}",
        "#{myDt}",
        "#{myDt}",
        "#{myDt}",
        "#{myDt}",
        "#{myDt}",
        "#{myDt}",
        "#{myDt}",
        "#{myDt}",
        "#{myDt}",
        "#{myDt}",
        "#{myDt}"
      ],
      "type": "SqlActivity",
      "myDt": "#{format(minusDays(@scheduledStartTime,1),\"YYYY-MM-dd\")}",
      "database": {
        "ref": "RedshiftDatabaseId_jISp8"
      }
    },
    {
      "name": "RS_EAS",
      "id": "ActivityId_R9ydp",
      "schedule": {
        "ref": "DefaultSchedule"
      },
      "scriptUri": "s3://com.funplusgame.bidata/dev/sql/rs_eas.sql",
      "runsOn": {
        "ref": "ResourceId_UrOFH"
      },
      "maxActiveInstances": "1",
      "onSuccess": {
        "ref": "ActionId_C59Jf"
      },
      "scriptArgument": [
        "#{myDt}",
        "#{myDt}"
      ],
      "onFail": {
        "ref": "ActionId_GQakf"
      },
      "type": "SqlActivity",
      "dependsOn": [
        {
          "ref": "ActivityId_pLOJD"
        },
        {
          "ref": "ActivityId_8gJ1W"
        }
      ],
      "myDt": "#{format(minusDays(@scheduledStartTime,1),\"YYYY-MM-dd\")}",
      "database": {
        "ref": "RedshiftDatabaseId_jISp8"
      }
    },
    {
      "name": "JSON",
      "id": "DataFormatId_ccSmL",
      "columnSeparator": "\n",
      "type": "Custom"
    },
    {
      "name": "RedshiftDatabase1",
      "id": "RedshiftDatabaseId_jISp8",
      "databaseName": "rs",
      "username": "biadmin",
      "*password": "Halfquest_2014",
      "type": "RedshiftDatabase",
      "clusterId": "bicluster"
    },
    {
      "name": "Default",
      "id": "Default",
      "scheduleType": "CRON",
      "failureAndRerunMode": "CASCADE",
      "schedule": {
        "ref": "DefaultSchedule"
      },
      "pipelineLogUri": "s3://com.funplusgame.emr/pipeline/",
      "role": "DataPipelineDefaultRole",
      "resourceRole": "DataPipelineDefaultResourceRole"
    },
    {
      "name": "DefaultEmrCluster2",
      "id": "EmrClusterId_QYGBK",
      "region": "us-west-2",
      "terminateAfter": "8 Hours",
      "emrLogUri": "s3://com.funplusgame.bidata/logs/RSUserTSV/",
      "schedule": {
        "ref": "DefaultSchedule"
      },
      "hadoopVersion": "1.0.3",
      "masterInstanceType": "m1.large",
      "coreInstanceType": "m1.xlarge",
      "enableDebugging": "true",
      "coreInstanceCount": "3",
      "type": "EmrCluster"
    },
    {
      "name": "RS_EAS_FAILURE",
      "id": "ActionId_GQakf",
      "message": "Start Time: #{node.@actualStartTime}\nEnd Time: #{node.@actualEndTime}\n#{node.errorMessage}\n#{node.errorStackTrace}",
      "subject": "FAILURE: RS RedShiftActivity #{node.myDt}",
      "topicArn": "arn:aws:sns:us-west-2:921287511715:report-notification",
      "role": "DataPipelineDefaultRole",
      "type": "SnsAlarm"
    },
    {
      "name": "S3TSV",
      "id": "DataNodeId_6VS4B",
      "schedule": {
        "ref": "DefaultSchedule"
      },
      "filePath": "s3://com.funplusgame.bidata/etl/results/rs/app_user/#{format(@scheduledStartTime,'YYYYMMdd')}/part-r-00000",
      "dataFormat": {
        "ref": "DataFormatId_Amebr"
      },
      "type": "S3DataNode"
    },
    {
      "name": "RS_EAS_SUCCESS",
      "id": "ActionId_C59Jf",
      "message": "Start Time: #{node.@actualStartTime}\nEnd Time: #{node.@actualEndTime}\n",
      "subject": "SUCCESS: RS EAS  #{node.myDt}",
      "topicArn": "arn:aws:sns:us-west-2:921287511715:report-notification",
      "role": "DataPipelineDefaultRole",
      "type": "SnsAlarm"
    },
    {
      "name": "Redshift Table",
      "id": "DataNodeId_mHwdt",
      "schedule": {
        "ref": "DefaultSchedule"
      },
      "tableName": "tbl_user",
      "type": "RedshiftDataNode",
      "database": {
        "ref": "RedshiftDatabaseId_jISp8"
      }
    },
    {
      "name": "TSV",
      "id": "DataFormatId_Amebr",
      "type": "TSV"
    },
    {
      "name": "DefaultAction5",
      "id": "ActionId_4WhT4",
      "message": "Start Time: #{node.@actualStartTime}\nEnd Time: #{node.@actualEndTime}\n",
      "subject": "SUCCESS: RS KPI REPORTS #{node.myDt}",
      "topicArn": "arn:aws:sns:us-west-2:921287511715:report-notification",
      "role": "DataPipelineDefaultRole",
      "type": "SnsAlarm"
    },
    {
      "name": "DefaultAction4",
      "id": "ActionId_AtU5K",
      "message": "Start Time: #{node.@actualStartTime}\nEnd Time: #{node.@actualEndTime}\n#{node.errorMessage}\n#{node.errorStackTrace}",
      "subject": "FAILURE: RS RedShiftActivity #{node.myDt}",
      "topicArn": "arn:aws:sns:us-west-2:921287511715:report-notification",
      "role": "DataPipelineDefaultRole",
      "type": "SnsAlarm"
    },
    {
      "name": "Daily",
      "id": "DefaultSchedule",
      "startDateTime": "2014-10-07T01:30:00",
      "type": "Schedule",
      "period": "1 Day"
    },
    {
      "name": "ToRedshift",
      "id": "ActivityId_pLOJD",
      "input": {
        "ref": "DataNodeId_6VS4B"
      },
      "schedule": {
        "ref": "DefaultSchedule"
      },
      "insertMode": "TRUNCATE",
      "runsOn": {
        "ref": "ResourceId_0eUVb"
      },
      "onSuccess": {
        "ref": "ActionId_9f5a1"
      },
      "onFail": {
        "ref": "ActionId_AtU5K"
      },
      "type": "RedshiftCopyActivity",
      "output": {
        "ref": "DataNodeId_mHwdt"
      },
      "myDt": "#{format(minusDays(@scheduledStartTime,1),\"YYYY-MM-dd\")}"
    },
    {
      "name": "ToTSV",
      "id": "ActivityId_Ag6tJ",
      "input": {
        "ref": "DataNodeId_aj73t"
      },
      "schedule": {
        "ref": "DefaultSchedule"
      },
      "runsOn": {
        "ref": "EmrClusterId_QYGBK"
      },
      "onSuccess": {
        "ref": "ActionId_hxlFq"
      },
      "onFail": {
        "ref": "ActionId_f18FP"
      },
      "output": {
        "ref": "DataNodeId_6VS4B"
      },
      "type": "EmrActivity",
      "myDt": "#{format(minusDays(@scheduledStartTime,1),\"YYYY-MM-dd\")}",
      "step": "s3://com.funplusgame.bidata/job/RSUserToTSVMulti.jar,com.funplus.analytics.mr.RSUserToTSVMulti,-files,s3://com.funplusgame.bidata/job/GeoIP.dat,-libjars,s3://com.funplusgame.bidata/job/jsongeoip.jar,#{format(@scheduledStartTime,'YYYYMMdd')}/,s3://com.funplusgame.bidata/etl/results/rs/app_user/#{format(@scheduledStartTime,'YYYYMMdd')}/"
    },
    {
      "name": "DefaultAction3",
      "id": "ActionId_9f5a1",
      "message": "Start Time: #{node.@actualStartTime}\nEnd Time: #{node.@actualEndTime}\n",
      "subject": "SUCCESS: RS tbl_user RedShiftCopyActivity #{node.myDt}",
      "topicArn": "arn:aws:sns:us-west-2:921287511715:report-notification",
      "role": "DataPipelineDefaultRole",
      "type": "SnsAlarm"
    },
    {
      "name": "DeRS_EAS",
      "id": "ResourceId_UrOFH",
      "instanceType": "m1.xlarge",
      "terminateAfter": "3 Hours",
      "schedule": {
        "ref": "DefaultSchedule"
      },
      "actionOnTaskFailure": "terminate",
      "role": "DataPipelineDefaultRole",
      "type": "Ec2Resource",
      "resourceRole": "DataPipelineDefaultResourceRole"
    },
    {
      "name": "DefaultEC2",
      "id": "ResourceId_0eUVb",
      "terminateAfter": "8 Hours",
      "schedule": {
        "ref": "DefaultSchedule"
      },
      "role": "DataPipelineDefaultRole",
      "type": "Ec2Resource",
      "resourceRole": "DataPipelineDefaultResourceRole"
    },
    {
      "name": "RS_InGame",
      "id": "ActivityId_mTYL9",
      "schedule": {
        "ref": "DefaultSchedule"
      },
      "scriptUri": "s3://com.funplusgame.bidata/dev/sql/rs_reports_ingame.sql",
      "maxActiveInstances": "1",
      "runsOn": {
        "ref": "ResourceId_WWVrN"
      },
      "onSuccess": {
        "ref": "ActionId_wDMTT"
      },
      "onFail": {
        "ref": "ActionId_mNL6X"
      },
      "scriptArgument": [
        "#{myDt}",
        "#{myDt}",
        "#{myDt}",
        "#{myDt}",
        "#{myDt}",
        "#{myDt}",
        "#{myDt}",
        "#{myDt}",
        "#{myDt}",
        "#{myDt}",
        "#{myDt}",
        "#{myDt}",
        "#{myDt}",
        "#{myDt}",
        "#{myDt}",
        "#{myDt}"
      ],
      "type": "SqlActivity",
      "dependsOn": {
        "ref": "ActivityId_8gJ1W"
      },
      "myDt": "#{format(minusDays(@scheduledStartTime,1),\"YYYY-MM-dd\")}",
      "database": {
        "ref": "RedshiftDatabaseId_jISp8"
      }
    },
    {
      "name": "DefaultAction6",
      "id": "ActionId_9gf69",
      "message": "Start Time: #{node.@actualStartTime}\nEnd Time: #{node.@actualEndTime}\n#{node.errorMessage}\n#{node.errorStackTrace}",
      "subject": "FAILURE: RS KPI REPORTS #{node.myDt}",
      "topicArn": "arn:aws:sns:us-west-2:921287511715:report-notification",
      "role": "DataPipelineDefaultRole",
      "type": "SnsAlarm"
    }
  ]
}
