{
  "objects": [
    {
      "name": "DBSemaphoreEnd",
      "id": "ActivityId_tJr9w_US",
      "schedule": {
        "ref": "DefaultSchedule"
      },
      "dependsOn": {
        "ref": "ActivityId_qYIIq"
      },
      "maxActiveInstances": "1",
      "workerGroup": "wg-ec2-pentaho",
      "type": "ShellCommandActivity",
      "command": "/mnt/funplus/softwares/data-integration/kitchen.sh -rep=prod -job=common/Semaphore_Success -param:JOB_ID=finance-fruitscoot.flash.prod-currency_daily-pilot -param:RPT_DATE=#{format(minusDays(@scheduledStartTime,1),'YYYY-MM-dd')}"
    },
    {
      "name": "GenerateFact",
      "id": "ActivityId_coanY",
      "schedule": {
        "ref": "DefaultSchedule"
      },
      "database": {
        "ref": "DatabaseId_V6lmm"
      },
      "onLateAction": {
        "ref": "ActionId_4fBlk_US"
      },
      "dependsOn": {
        "ref": "ActivityId_SlVNx"
      },
      "scriptUri": "s3://com.funplus.data-code/redshift/2.0/finance/fact_currency_transaction.sql",
      "onFail": {
        "ref": "ActionId_NIYB0_US"
      },
      "maxActiveInstances": "1",
      "lateAfterTimeout": "2 Hours",
      "workerGroup": "wg-ec2-util",
      "type": "SqlActivity"
    },
    {
      "name": "TimeoutNotification",
      "id": "ActionId_4fBlk_US",
      "role": "DataPipelineDefaultRole",
      "subject": "TIMEOUT: FINANCE-FRUITSCOOT.FLASH.PROD-CURRENCY_DAILY-PILOT #{node.name} #{format(minusDays(node.@scheduledStartTime,1),'YYYY-MM-dd')}",
      "message": "Pipeline Id: #{node.@pipelineId}\nPipeline URL: https://console.aws.amazon.com/datapipeline/home?region=us-west-2#ExecutionDetailsPlace:pipelineId=#{node.@pipelineId}&show=latest\nPipeline Schedule Run Time: #{node.@scheduledStartTime}\nPipeline Execution Start Time: #{node.@actualStartTime}\nPipeline Execution End Time: #{node.@actualEndTime}\nError Message:\n#{node.errorMessage}\nError StackTrace:\n#{node.errorStackTrace}",
      "type": "SnsAlarm",
      "topicArn": "arn:aws:sns:us-west-2:921287511715:data-notification-dev"
    },
    {
      "name": "SuccessNotification",
      "id": "ActionId_KyGxM_US",
      "role": "DataPipelineDefaultRole",
      "subject": "SUCCESS: FINANCE-FRUITSCOOT.FLASH.PROD-CURRENCY_DAILY-PILOT #{node.name} #{format(minusDays(node.@scheduledStartTime,1),'YYYY-MM-dd')}",
      "message": "Start Time: #{node.@actualStartTime}\nEnd Time: #{node.@actualEndTime}",
      "type": "SnsAlarm",
      "topicArn": "arn:aws:sns:us-west-2:921287511715:data-notification-dev"
    },
    {
      "name": "RedshiftDatabase",
      "id": "DatabaseId_V6lmm",
      "databaseName": "finance",
      "*password": "Halfquest_2014",
      "clusterId": "kpitest",
      "type": "RedshiftDatabase",
      "username": "biadmin"
    },
    {
      "name": "FailureNotification",
      "id": "ActionId_NIYB0_US",
      "role": "DataPipelineDefaultRole",
      "subject": "FAILURE: FINANCE-FRUITSCOOT.FLASH.PROD-CURRENCY_DAILY-PILOT #{node.name} #{format(minusDays(node.@scheduledStartTime,1),'YYYY-MM-dd')}",
      "message": "Pipeline Id: #{node.@pipelineId}\nPipeline URL: https://console.aws.amazon.com/datapipeline/home?region=us-west-2#ExecutionDetailsPlace:pipelineId=#{node.@pipelineId}&show=latest\nPipeline Schedule Run Time: #{node.@scheduledStartTime}\nPipeline Execution Start Time: #{node.@actualStartTime}\nPipeline Execution End Time: #{node.@actualEndTime}\nError Message:\n#{node.errorMessage}\nError StackTrace:\n#{node.errorStackTrace}",
      "type": "SnsAlarm",
      "topicArn": "arn:aws:sns:us-west-2:921287511715:data-notification-dev"
    },
    {
      "name": "Default",
      "id": "Default",
      "failureAndRerunMode": "CASCADE",
      "schedule": {
        "ref": "DefaultSchedule"
      },
      "resourceRole": "DataPipelineDefaultResourceRole",
      "pipelineLogUri": "s3://com.funplusgame.emr/logs/",
      "role": "DataPipelineDefaultRole",
      "scheduleType": "CRON"
    },
    {
      "name": "CleanupS3-Fact",
      "id": "PreconditionId_nZ9Hz",
      "onLateAction": {
        "ref": "ActionId_4fBlk_US"
      },
      "onFail": {
        "ref": "ActionId_NIYB0_US"
      },
      "lateAfterTimeout": "2 Hours",
      "type": "ShellCommandPrecondition",
      "command": "s3cmd del s3://com.funplus.data-kpitest/finance2.0/fruitscoot.flash.prod/input/currency/fact_currency_transaction/#{format(minusDays(@scheduledStartTime,1),'YYYYMMdd')}/*"
    },
    {
      "name": "UnloadFactToS3",
      "id": "ActivityId_R5jtU",
      "onLateAction": {
        "ref": "ActionId_4fBlk_US"
      },
      "onFail": {
        "ref": "ActionId_NIYB0_US"
      },
      "dependsOn": {
        "ref": "ActivityId_coanY"
      },
      "lateAfterTimeout": "2 Hours",
      "precondition": {
        "ref": "PreconditionId_nZ9Hz"
      },
      "type": "SqlActivity",
      "script": "UNLOAD ('SELECT * FROM processed.fact_currency_transaction WHERE ts_pretty >=  (select start_date from processed.tmp_start_date)') TO 's3://com.funplus.data-kpitest/finance2.0/fruitscoot.flash.prod/input/currency/fact_currency_transaction/#{format(minusDays(@scheduledStartTime,1),'YYYYMMdd')}/' CREDENTIALS 'aws_access_key_id=AKIAJRKDNC52OAINDWKA;aws_secret_access_key=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' DELIMITER '\\t' GZIP PARALLEL OFF",
      "schedule": {
        "ref": "DefaultSchedule"
      },
      "database": {
        "ref": "DatabaseId_V6lmm"
      },
      "maxActiveInstances": "1",
      "workerGroup": "wg-ec2-util"
    },
    {
      "name": "PrepareData",
      "id": "ActivityId_SlVNx",
      "schedule": {
        "ref": "DefaultSchedule"
      },
      "onLateAction": {
        "ref": "ActionId_4fBlk_US"
      },
      "onFail": {
        "ref": "ActionId_NIYB0_US"
      },
      "dependsOn": {
        "ref": "ActivityId_m8inJ_US"
      },
      "maxActiveInstances": "1",
      "lateAfterTimeout": "2 Hours",
      "workerGroup": "wg-ec2-util",
      "type": "ShellCommandActivity",
      "command": "set -e;\ns3cmd del s3://com.funplus.data-kpitest/finance2.0/fruitscoot.flash.prod/dim_user/#{format(minusDays(@scheduledStartTime,1),'YYYY-MM-dd')}/*\n/usr/bin/python /mnt/funplus/analytics/python/copy_between_redshift_culster.py -st=kpi_processed.dim_user -sc=/mnt/funplus/analytics/python/conf/kpitest_2_0.yaml -s3path=s3://com.funplus.data-kpitest/finance2.0/fruitscoot.flash.prod/dim_user/#{format(minusDays(@scheduledStartTime,1),'YYYY-MM-dd')}/ -tc=/mnt/funplus/analytics/python/conf/finance_2_0.yaml -select=\"WHERE app_id=\\\\'fruitscoot.flash.prod\\\\'\" -tt=processed.dim_user --preSqlForTarget=\"DELETE FROM processed.dim_user where app_id='fruitscoot.flash.prod' ;\"   --command-options=\"GZIP\"\ns3cmd del s3://com.funplus.data-kpitest/finance2.0/fruitscoot.flash.prod/currency/#{format(minusDays(@scheduledStartTime,1),'YYYY-MM-dd')}/*\n/usr/bin/python /mnt/funplus/analytics/python/copy_between_redshift_culster.py -st=currency -sc=/mnt/funplus/analytics/python/conf/kpitest_2_0.yaml -s3path=s3://com.funplus.data-kpitest/finance2.0/fruitscoot.flash.prod/currency/#{format(minusDays(@scheduledStartTime,1),'YYYY-MM-dd')}/ -tc=/mnt/funplus/analytics/python/conf/finance_2_0.yaml -select=\"WHERE dt > \\\\'#{format(minusDays(@scheduledStartTime,7),'YYYY-MM-dd')}\\\\'\" -tt=processed.currency --preSqlForTarget=\"DELETE FROM processed.currency where dt > '#{format(minusDays(@scheduledStartTime,7),'YYYY-MM-dd')}' ;\"   --command-options=\"GZIP\"\n/usr/bin/python /mnt/funplus/analytics/python/copy_to_redshift.py -c=/mnt/funplus/analytics/python/conf/finance_2_0.yaml --table=raw_events.payment --s3path=s3://com.funplus.data-funplus/kinesis/funplus_core/game=fruitscoot/event=payment/app=fruitscoot.flash.prod/year=#{format(minusDays(@scheduledStartTime,1),'YYYY')}/month=#{format(minusDays(@scheduledStartTime,1),'MM')}/day=#{format(minusDays(@scheduledStartTime,1),'dd')}/ --command-options=\"JSON 's3://com.funplus.data-code/redshift/2.0/jsonpaths/raw_events.json' GZIP\" --pre-sql=\"update processed.tmp_start_date set start_date = '#{format(minusDays(@scheduledStartTime,7),\"YYYY-MM-dd\")}'; delete from raw_events.payment where ts_pretty = '#{format(minusDays(@scheduledStartTime,1),'YYYY-MM-dd')}';\"\n/usr/bin/python /mnt/funplus/analytics/python/copy_to_redshift.py -c=/mnt/funplus/analytics/python/conf/finance_2_0.yaml --table=transaction_staging --s3path=s3://com.funplusgame.bidata/logserver/finance/fruitscoot.flash.prod/#{format(minusDays(@scheduledStartTime,1),'YYYY')}/#{format(minusDays(@scheduledStartTime,1),'MM')}/#{format(minusDays(@scheduledStartTime,1),'dd')}/ --command-options=\"JSON 's3://com.funplus.data-code/redshift/2.0/jsonpaths/raw_events.json' GZIP\" --pre-sql=\"delete from raw_events.transaction where ts_pretty = '#{format(minusDays(@scheduledStartTime,1),'YYYY-MM-dd')}';create temporary table transaction_staging (like raw_events.transaction);\" --post-sql=\"INSERT INTO raw_events.transaction SELECT data_version, app_id, ts, TIMESTAMP 'epoch' + CAST(ts AS BIGINT) * INTERVAL '0.001 second', user_id, session_id, event, properties, collections FROM transaction_staging;\""
    },
    {
      "name": "SparkActivity",
      "id": "ActivityId_ArksT",
      "schedule": {
        "ref": "DefaultSchedule"
      },
      "onLateAction": {
        "ref": "ActionId_4fBlk_US"
      },
      "onFail": {
        "ref": "ActionId_NIYB0_US"
      },
      "dependsOn": [
        {
          "ref": "ActivityId_rNYda"
        },
        {
          "ref": "ActivityId_R5jtU"
        }
      ],
      "maxActiveInstances": "1",
      "lateAfterTimeout": "2 Hours",
      "workerGroup": "wg-emr-finance",
      "type": "ShellCommandActivity",
      "command": "set -e\nhdfs dfs -rm -r -f s3://com.funplus.data-kpitest/finance2.0/fruitscoot.flash.prod/output/currency/#{format(minusDays(@scheduledStartTime,1),'YYYYMMdd')}\nrm -f finance.sh\nhdfs dfs -get s3://com.funplusgame.bidata/dev/scripts/finance.sh\n/bin/sh finance.sh -t CurrencyJob -i s3://com.funplus.data-kpitest/finance2.0/fruitscoot.flash.prod/input/currency/*/#{format(minusDays(@scheduledStartTime,1),'YYYYMMdd')}/* -o s3://com.funplus.data-kpitest/finance2.0/fruitscoot.flash.prod/output/currency/#{format(minusDays(@scheduledStartTime,1),'YYYYMMdd')}/"
    },
    {
      "name": "RedshiftActivity",
      "id": "ActivityId_qYIIq",
      "schedule": {
        "ref": "DefaultSchedule"
      },
      "onLateAction": {
        "ref": "ActionId_4fBlk_US"
      },
      "database": {
        "ref": "DatabaseId_V6lmm"
      },
      "dependsOn": {
        "ref": "ActivityId_R5jtDP"
      },
      "onFail": {
        "ref": "ActionId_NIYB0_US"
      },
      "scriptUri": "s3://com.funplus.data-code/redshift/2.0/finance/agg_currency_transaction.sql",
      "lateAfterTimeout": "2 Hours",
      "maxActiveInstances": "1",
      "workerGroup": "wg-ec2-util",
      "type": "SqlActivity"
    },
    {
      "name": "UnloadDimToS3",
      "id": "ActivityId_rNYda",
      "onLateAction": {
        "ref": "ActionId_4fBlk_US"
      },
      "onFail": {
        "ref": "ActionId_NIYB0_US"
      },
      "dependsOn": {
        "ref": "ActivityId_coanY"
      },
      "lateAfterTimeout": "2 Hours",
      "precondition": {
        "ref": "PreconditionId_JahpX"
      },
      "type": "SqlActivity",
      "script": "UNLOAD ('SELECT id, updated_ts, ts, app_id, user_id, currency_type, currency_balance, usd_balance, cost_per_unit FROM processed.dim_currency_balance WHERE updated_ts < (select start_date from processed.tmp_start_date)') TO 's3://com.funplus.data-kpitest/finance2.0/fruitscoot.flash.prod/input/currency/dim_currency_balance/#{format(minusDays(@scheduledStartTime,1),'YYYYMMdd')}/' CREDENTIALS 'aws_access_key_id=AKIAJRKDNC52OAINDWKA;aws_secret_access_key=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' DELIMITER '\\t' GZIP PARALLEL OFF",
      "schedule": {
        "ref": "DefaultSchedule"
      },
      "database": {
        "ref": "DatabaseId_V6lmm"
      },
      "maxActiveInstances": "1",
      "workerGroup": "wg-ec2-util"
    },
    {
      "name": "CleanupS3-Dim",
      "id": "PreconditionId_JahpX",
      "onLateAction": {
        "ref": "ActionId_4fBlk_US"
      },
      "onFail": {
        "ref": "ActionId_NIYB0_US"
      },
      "lateAfterTimeout": "2 Hours",
      "type": "ShellCommandPrecondition",
      "command": "s3cmd del s3://com.funplus.data-kpitest/finance2.0/fruitscoot.flash.prod/input/currency/dim_currency_balance/#{format(minusDays(@scheduledStartTime,1),'YYYYMMdd')}/*\n"
    },
    {
      "name": "DBSemaphoreStart",
      "id": "ActivityId_m8inJ_US",
      "schedule": {
        "ref": "DefaultSchedule"
      },
      "maxActiveInstances": "1",
      "workerGroup": "wg-ec2-pentaho",
      "type": "ShellCommandActivity",
      "command": "/mnt/funplus/softwares/data-integration/kitchen.sh -rep=prod -job=common/Semaphore_Start -param:JOB_ID=finance-fruitscoot.flash.prod-currency_daily-pilot -param:RPT_DATE=#{format(minusDays(@scheduledStartTime,1),'YYYY-MM-dd')}"
    },
    {
      "name": "CopyProcessedToRedshit",
      "id": "ActivityId_R5jtDP",
      "schedule": {
        "ref": "DefaultSchedule"
      },
      "onLateAction": {
        "ref": "ActionId_4fBlk_US"
      },
      "onFail": {
        "ref": "ActionId_NIYB0_US"
      },
      "dependsOn": {
        "ref": "ActivityId_ArksT"
      },
      "lateAfterTimeout": "2 Hours",
      "workerGroup": "wg-ec2-util",
      "type": "ShellCommandActivity",
      "command": "/usr/bin/python /mnt/funplus/analytics/python/copy_to_redshift.py  -c=/mnt/funplus/analytics/python/conf/finance_2_0.yaml  --table=processed.processed_currency_transaction --s3path=s3://com.funplus.data-kpitest/finance2.0/fruitscoot.flash.prod/output/currency/#{format(minusDays(@scheduledStartTime,1),'YYYYMMdd')}/ --command-options=\"EMPTYASNULL IGNOREBLANKLINES DELIMITER '\\t' GZIP\" --pre-sql=\"delete from processed.processed_currency_transaction where ts_pretty >= (select start_date from processed.tmp_start_date);\""
    },
    {
      "name": "Daily",
      "id": "DefaultSchedule",
      "period": "1 Day",
      "startDateTime": "2015-09-15T12:00:00",
      "type": "Schedule"
    }
  ]
}
