{
    "ResponseMetadata": {
        "HTTPStatusCode": 200,
        "RequestId": "bb18b3e9-c4ae-11e5-aae6-adcbbfa3bd48"
    },
    "parameterObjects": [],
    "pipelineObjects": [
        {
            "fields": [
                {
                    "key": "schedule",
                    "refValue": "DefaultSchedule"
                },
                {
                    "key": "database",
                    "refValue": "DatabaseId_cwJwW"
                },
                {
                    "key": "onLateAction",
                    "refValue": "ActionId_nW6am"
                },
                {
                    "key": "onFail",
                    "refValue": "ActionId_hOUCF"
                },
                {
                    "key": "scriptUri",
                    "stringValue": "${dailyaggURL}"
                },
                {
                    "key": "dependsOn",
                    "refValue": "ShellCommandActivityId_cGSjj"
                },
                {
                    "key": "lateAfterTimeout",
                    "stringValue": "1 Hour"
                },
                {
                    "key": "maxActiveInstances",
                    "stringValue": "1"
                },
                {
                    "key": "workerGroup",
                    "stringValue": "${workergroup}"
                },
                {
                    "key": "type",
                    "stringValue": "SqlActivity"
                }
            ],
            "id": "ActivityId_xzXxG",
            "name": "DailyAgg"
        },
        {
            "fields": [
                {
                    "key": "subject",
                    "stringValue": "TIMEOUT: ${game}-CUSTOM-2.0 #{node.name} #{format(minusDays(node.@scheduledStartTime,1),'YYYY-MM-dd')}\n"
                },
                {
                    "key": "type",
                    "stringValue": "SnsAlarm"
                },
                {
                    "key": "message",
                    "stringValue": "Pipeline Schedule Run Time: #{node.@scheduledStartTime}\nPipeline Execution Start Time: #{node.@actualStartTime}\nPipeline Execution End Time: #{node.@actualEndTime}\nError Message:\n#{node.errorMessage}\nError StackTrace:\n#{node.errorStackTrace}"
                },
                {
                    "key": "topicArn",
                    "stringValue": "arn:aws:sns:us-west-2:921287511715:data-notification"
                }
            ],
            "id": "ActionId_nW6am",
            "name": "TimeoutNotification"
        },
        {
            "fields": [
                {
                    "key": "schedule",
                    "refValue": "DefaultSchedule"
                },
                {
                    "key": "onLateAction",
                    "refValue": "ActionId_nW6am"
                },
                {
                    "key": "onFail",
                    "refValue": "ActionId_hOUCF"
                },
                {
                    "key": "maxActiveInstances",
                    "stringValue": "1"
                },
                {
                    "key": "lateAfterTimeout",
                    "stringValue": "1 Hour"
                },
                {
                    "key": "workerGroup",
                    "stringValue": "wg-ec2-pentaho"
                },
                {
                    "key": "type",
                    "stringValue": "ShellCommandActivity"
                },
                {
                    "key": "command",
                    "stringValue": "/mnt/funplus/softwares/data-integration/kitchen.sh -rep=prod -job=common/Semaphore_Start -param:JOB_ID=${game}-custom-reports_daily -param:RPT_DATE=#{format(minusDays(@scheduledStartTime,1),'YYYY-MM-dd')}"
                }
            ],
            "id": "ShellCommandActivityId_cGSjj",
            "name": "SemaphoreStart"
        },
        {
            "fields": [
                {
                    "key": "subject",
                    "stringValue": "FAILURE: ${game}-CUSTOM-2.0 #{node.name} #{format(minusDays(node.@scheduledStartTime,1),'YYYY-MM-dd')}"
                },
                {
                    "key": "type",
                    "stringValue": "SnsAlarm"
                },
                {
                    "key": "message",
                    "stringValue": "Pipeline Schedule Run Time: #{node.@scheduledStartTime}\nPipeline Execution Start Time: #{node.@actualStartTime}\nPipeline Execution End Time: #{node.@actualEndTime}\nError Message:\n#{node.errorMessage}\nError StackTrace:\n#{node.errorStackTrace}"
                },
                {
                    "key": "topicArn",
                    "stringValue": "arn:aws:sns:us-west-2:921287511715:data-notification"
                }
            ],
            "id": "ActionId_hOUCF",
            "name": "FailureNotification"
        },
        {
            "fields": [
                {
                    "key": "databaseName",
                    "stringValue": "custom"
                },
                {
                    "key": "*password",
                    "stringValue": "Halfquest_2014"
                },
                {
                    "key": "clusterId",
                    "stringValue": "custom-diandian"
                },
                {
                    "key": "type",
                    "stringValue": "RedshiftDatabase"
                },
                {
                    "key": "username",
                    "stringValue": "biadmin"
                }
            ],
            "id": "DatabaseId_cwJwW",
            "name": "custom-diandian"
        },
        {
            "fields": [
                {
                    "key": "failureAndRerunMode",
                    "stringValue": "CASCADE"
                },
                {
                    "key": "schedule",
                    "refValue": "DefaultSchedule"
                },
                {
                    "key": "resourceRole",
                    "stringValue": "DataPipelineDefaultResourceRole"
                },
                {
                    "key": "pipelineLogUri",
                    "stringValue": "s3://com.funplusgame.emr/logs/"
                },
                {
                    "key": "role",
                    "stringValue": "DataPipelineDefaultRole"
                },
                {
                    "key": "scheduleType",
                    "stringValue": "cron"
                }
            ],
            "id": "Default",
            "name": "Default"
        },
        {
            "fields": [
                {
                    "key": "period",
                    "stringValue": "1 Day"
                },
                {
                    "key": "startDateTime",
                    "stringValue": "${starttime}"
                },
                {
                    "key": "type",
                    "stringValue": "Schedule"
                }
            ],
            "id": "DefaultSchedule",
            "name": "Every 1 Day"
        },
        {
            "fields": [
                {
                    "key": "schedule",
                    "refValue": "DefaultSchedule"
                },
                {
                    "key": "database",
                    "refValue": "DatabaseId_cwJwW"
                },
                {
                    "key": "onLateAction",
                    "refValue": "ActionId_nW6am"
                },
                {
                    "key": "onFail",
                    "refValue": "ActionId_hOUCF"
                },
                {
                    "key": "scriptUri",
                    "stringValue": "${dailycustomURL}"
                },
                {
                    "key": "dependsOn",
                    "refValue": "ActivityId_xzXxG"
                },
                {
                    "key": "lateAfterTimeout",
                    "stringValue": "1 Hour"
                },
                {
                    "key": "maxActiveInstances",
                    "stringValue": "1"
                },
                {
                    "key": "workerGroup",
                    "stringValue": "${workergroup}"
                },
                {
                    "key": "type",
                    "stringValue": "SqlActivity"
                }
            ],
            "id": "ActivityId_tJrUx",
            "name": "DailyCustom"
        },
        {
            "fields": [
                {
                    "key": "schedule",
                    "refValue": "DefaultSchedule"
                },
                {
                    "key": "onLateAction",
                    "refValue": "ActionId_nW6am"
                },
                {
                    "key": "dependsOn",
                    "refValue": "ActivityId_tJrUx"
                },
                {
                    "key": "maxActiveInstances",
                    "stringValue": "1"
                },
                {
                    "key": "lateAfterTimeout",
                    "stringValue": "1 Hour"
                },
                {
                    "key": "workerGroup",
                    "stringValue": "wg-ec2-pentaho"
                },
                {
                    "key": "type",
                    "stringValue": "ShellCommandActivity"
                },
                {
                    "key": "command",
                    "stringValue": "/mnt/funplus/softwares/data-integration/kitchen.sh -rep=prod -job=common/Semaphore_Success -param:JOB_ID=${game}-custom-reports_daily -param:RPT_DATE=#{format(minusDays(@scheduledStartTime,1),'YYYY-MM-dd')}"
                }
            ],
            "id": "ShellCommandActivityId_cocdb",
            "name": "SemaphoreEnd"
        }
    ]
}
