{
  "objects": [
    {
      "name": "Default",
      "id": "Default",
      "scheduleType": "CRON",
      "failureAndRerunMode": "CASCADE",
      "schedule": {
        "ref": "DefaultSchedule"
      },
      "pipelineLogUri": "s3://com.funplusgame.emr/logs/",
      "role": "DataPipelineDefaultRole",
      "resourceRole": "DataPipelineDefaultResourceRole"
    },
    {
      "name": "ToTSV",
      "id": "ActivityId_u0fJL",
      "precondition": {
        "ref": "PreconditionId_mU4vG"
      },
      "input": {
        "ref": "DataNodeId_vd5fv"
      },
      "schedule": {
        "ref": "DefaultSchedule"
      },
      "maxActiveInstances": "1",
      "onSuccess": {
        "ref": "ActionId_KyGxM"
      },
      "onFail": {
        "ref": "ActionId_NIYB0"
      },
      "workerGroup": "wg-emr-dist",
      "type": "EmrActivity",
      "output": {
        "ref": "DataNodeId_nxF1m"
      },
      "preStepCommand": "if hadoop fs -test -e s3://com.funplusgame.bidata/etl/results/pkr.ar.prod/adjust/staging/daily/#{format(minusDays(@scheduledStartTime,1),'YYYY/MM/dd')}; then hadoop fs -rmr s3://com.funplusgame.bidata/etl/results/pkr.ar.prod/adjust/staging/daily/#{format(minusDays(@scheduledStartTime,1),'YYYY/MM/dd')}; fi",
      "step": "s3://com.funplusgame.bidata/dev/mr/jars/analytics-1.0-SNAPSHOT.jar,com.funplus.analytics.mr.AdjustTSV,-libjars,s3://com.funplusgame.bidata/job/jsongeoip.jar,s3://com.funplusgame.bidata/adjust/pkr.ar.prod/#{format(minusDays(@scheduledStartTime,1),'YYYY/MM/dd')}/,s3://com.funplusgame.bidata/etl/results/pkr.ar.prod/adjust/staging/daily/#{format(minusDays(@scheduledStartTime,1),'YYYY/MM/dd')}/"
    },
    {
      "name": "JSON",
      "id": "DataFormatId_VUMhh",
      "columnSeparator": "\n",
      "type": "Custom"
    },
    {
      "name": "SuccessNotification",
      "id": "ActionId_KyGxM",
      "message": "Start Time: #{node.@actualStartTime}\nEnd Time: #{node.@actualEndTime}",
      "subject": "SUCCESS: Poker Adjust #{node.name} #{format(minusDays(node.@scheduledStartTime,1),\"YYYY-MM-dd\")}\n",
      "role": "DataPipelineDefaultRole",
      "topicArn": "arn:aws:sns:us-west-2:921287511715:data-notification",
      "type": "SnsAlarm"
    },
    {
      "name": "Every 1 day",
      "id": "DefaultSchedule",
      "startDateTime": "2015-03-25T01:00:00",
      "type": "Schedule",
      "period": "1 days"
    },
    {
      "name": "CheckInputExistsPreCondition",
      "id": "PreconditionId_mU4vG",
      "preconditionTimeout": "30 Minutes",
      "retryDelay": "10 Minutes",
      "maximumRetries": "3",
      "role": "DataPipelineDefaultRole",
      "onFail": {
        "ref": "ActionId_f5jbg"
      },
      "s3Prefix": "s3://com.funplusgame.bidata/adjust/pkr.ar.prod/#{format(minusDays(node.@scheduledStartTime,1),'YYYY/MM/dd')}/",
      "type": "S3PrefixNotEmpty"
    },
    {
      "name": "S3TSV",
      "id": "DataNodeId_nxF1m",
      "schedule": {
        "ref": "DefaultSchedule"
      },
      "directoryPath": "s3://com.funplusgame.bidata/etl/results/pkr.ar.prod/adjust/staging/daily/#{format(minusDays(@scheduledStartTime,1),'YYYY/MM/dd')}/",
      "dataFormat": {
        "ref": "DataFormatId_tKIH1"
      },
      "type": "S3DataNode",
      "compression": "GZIP"
    },
    {
      "name": "ToRedShift",
      "id": "ActivityId_S5Rbj",
      "stdout": "s3://com.funplusgame.emr/logs/scripts/pkr.ar.prod/#{format(@scheduledStartTime,\"YYYY/MM/dd\")}/stdout-adjust",
      "maximumRetries": "0",
      "onSuccess": {
        "ref": "ActionId_KyGxM"
      },
      "lateAfterTimeout": "1 Hour",
      "stderr": "s3://com.funplusgame.emr/logs/scripts/pkr.ar.prod/#{format(@scheduledStartTime,\"YYYY/MM/dd\")}/stderr-adjust",
      "workerGroup": "wg-ec2-dist",
      "dependsOn": {
        "ref": "ActivityId_u0fJL"
      },
      "type": "ShellCommandActivity",
      "stage": "false",
      "schedule": {
        "ref": "DefaultSchedule"
      },
      "command": "/usr/bin/python /mnt/funplus/analytics/python/copy_to_redshift.py -c=/mnt/funplus/analytics/python/conf/poker.yaml --table=adjust --s3path=s3://com.funplusgame.bidata/etl/results/pkr.ar.prod/adjust/staging/daily/#{format(minusDays(@scheduledStartTime,1),'YYYY/MM/dd')}/ --command-options=\"DELIMITER '\\t' GZIP\" --pre-sql=\"delete from adjust where date(ts) = '#{format(minusDays(@scheduledStartTime,1),'YYYY-MM-dd')}' and game='pkr.ar.prod';\"",
      "maxActiveInstances": "1",
      "onFail": {
        "ref": "ActionId_NIYB0"
      },
      "onLateAction": {
        "ref": "ActionId_NIYB0"
      }
    },
    {
      "name": "TSV",
      "id": "DataFormatId_tKIH1",
      "type": "TSV"
    },
    {
      "name": "RedShiftDatabase",
      "id": "RedshiftDatabaseId_ghoOt",
      "databaseName": "poker",
      "username": "biadmin",
      "*password": "Halfquest_2014",
      "type": "RedshiftDatabase",
      "clusterId": "bicluster"
    },
    {
      "name": "S3Raw",
      "id": "DataNodeId_vd5fv",
      "schedule": {
        "ref": "DefaultSchedule"
      },
      "directoryPath": "s3://com.funplusgame.bidata/adjust/pkr.ar.prod/#{format(minusDays(@scheduledStartTime,1),'YYYY/MM/dd')}/",
      "dataFormat": {
        "ref": "DataFormatId_VUMhh"
      },
      "type": "S3DataNode"
    },
    {
      "name": "DataNotExistsNotification",
      "id": "ActionId_f5jbg",
      "message": "Start Time: #{node.@actualStartTime}\nEnd Time: #{node.@actualEndTime}\n\ns3://com.funplusgame.bidata/adjust/pkr.ar.prod/#{format(minusDays(node.@scheduledStartTime,1),'YYYY/MM/dd')}/",
      "subject": "FAILURE:  Poker Adjust NO INPUT DATA #{node.name} #{format(minusDays(node.@scheduledStartTime,1),'YYYY/MM/dd')}",
      "role": "DataPipelineDefaultRole",
      "topicArn": "arn:aws:sns:us-west-2:921287511715:data-notification",
      "type": "SnsAlarm"
    },
    {
      "name": "FailureNotification",
      "id": "ActionId_NIYB0",
      "message": "Start Time: #{node.@actualStartTime}\nEnd Time: #{node.@actualEndTime}\n#{node.errorMessage}\n#{node.errorStackTrace}",
      "subject": "FAILURE: Poker Adjust #{node.name} #{format(minusDays(node.@scheduledStartTime,1),\"YYYY-MM-dd\")}\n",
      "role": "DataPipelineDefaultRole",
      "topicArn": "arn:aws:sns:us-west-2:921287511715:data-notification",
      "type": "SnsAlarm"
    }
  ]
}
