{
  "objects": [
    {
      "id": "DataNodeId_R0im0",
      "schedule": {
        "ref": "DefaultSchedule"
      },
      "tableName": "mat",
      "name": "RedShiftDataNode",
      "workerGroup": "etl",
      "type": "RedshiftDataNode",
      "database": {
        "ref": "RedshiftDatabaseId_KBe7U"
      }
    },
    {
      "id": "RedshiftDatabaseId_KBe7U",
      "databaseName": "daota",
      "username": "biadmin",
      "name": "DefaultRedshiftDatabase1",
      "*password": "Halfquest_2014",
      "clusterId": "bicluster-farm",
      "type": "RedshiftDatabase"
    },
    {
      "id": "ActivityId_JTEYV",
      "schedule": {
        "ref": "DefaultSchedule"
      },
      "stdout": "s3://com.funplusgame.emr/logs/scripts/mat/#{format(@scheduledStartTime,\"YYYY/MM/dd\")}/stdout",
      "name": "MATAPI",
      "maxActiveInstances": "1",
      "command": "/mnt/data/venvpython27/bin/python /mnt/data/analytics/python/mat.py -app DT_ZH_ANDROID -dt #{format(minusDays(@scheduledStartTime,1),\"YYYY-MM-dd\")} -output ${OUTPUT1_STAGING_DIR}",
      "maximumRetries": "0",
      "workerGroup": "etl",
      "stderr": "s3://com.funplusgame.emr/logs/scripts/mat/#{format(@scheduledStartTime,\"YYYY/MM/dd\")}/stderr",
      "type": "ShellCommandActivity",
      "output": {
        "ref": "DataNodeId_XdWSP"
      },
      "stage": "true"
    },
    {
      "id": "DefaultSchedule",
      "startDateTime": "2014-08-08T01:00:00",
      "name": "Every 1 day",
      "type": "Schedule",
      "period": "1 days"
    },
    {
      "id": "Default",
      "scheduleType": "CRON",
      "failureAndRerunMode": "CASCADE",
      "schedule": {
        "ref": "DefaultSchedule"
      },
      "name": "Default",
      "pipelineLogUri": "s3://com.funplusgame.emr/logs/",
      "role": "DataPipelineDefaultRole",
      "resourceRole": "DataPipelineDefaultResourceRole"
    },
    {
      "id": "DataNodeId_XdWSP",
      "schedule": {
        "ref": "DefaultSchedule"
      },
      "name": "S3",
      "directoryPath": "s3://com.funplusgame.bidata/mat/DT_ZH_ANDROID/#{format(minusDays(@scheduledStartTime,1),\"YYYY/MM/dd\")}/",
      "dataFormat": {
        "ref": "DataFormatId_fn00D"
      },
      "workerGroup": "etl",
      "type": "S3DataNode",
      "compression": "GZIP"
    },
    {
      "id": "DataFormatId_fn00D",
      "name": "CSV",
      "type": "CSV"
    },
    {
      "id": "ActivityId_j3W9M",
      "input": {
        "ref": "DataNodeId_XdWSP"
      },
      "schedule": {
        "ref": "DefaultSchedule"
      },
      "insertMode": "OVERWRITE_EXISTING",
      "name": "RedShiftCopy",
      "maxActiveInstances": "1",
      "maximumRetries": "0",
      "workerGroup": "etl",
      "type": "RedshiftCopyActivity",
      "output": {
        "ref": "DataNodeId_R0im0"
      }
    }
  ]
}