{
    "id": "ha_1_2",
    "shortname" : "ha",
    "apps" : [
                "ha.us.prod",
                "ha.th.prod"
    ],
    "schema" : "processed_new",
    "app_all" : "ha.all.prod",
    "workerGroup" : "wg-ec2-ha",
    
    "database_databaseName" : "ff2pc",
    "database_username" : "biadmin",
    "database_password" : "Halfquest_2014",
    "database_clusterId": "bicluster",
    
    "EMRcluster_name": "HAEmrCluster",
    "EMRcluster_terminateAfter": "240 Minutes",
    "EMRcluster_coreInstanceCount": "10",
    
    "pipelineName": "HA.US.PROD-REPORTS-DAILY",
    "events" : [
                "achievement",
                "facebook_register",
                "gift_received",
                "item_actioned",
                "level_up",
                "load_step",
                "message_sent",
                "mission",
                "new_user",
                "payment",
                "personal_info",
                "session_end",
                "session_start",
                "timer",
                "transaction",
                "tutorial"
    ]
}
