{
  "objects": [
    {
      "name": "EmrCluster",
      "id": "EmrClusterId_yjoTZ",
      "terminateAfter": "1 Hour",
      "emrLogUri": "s3://com.funplusgame.bidata/emr/logs/",
      "amiVersion": "2.4.2",
      "keyPair": "bidev-keypair",
      "masterInstanceType": "m1.medium",
      "enableDebugging": "true",
      "coreInstanceCount": "2",
      "logUri": "s3://com.funplusgame.bidata/emr/logs/",
      "type": "EmrCluster",
      "schedule": {
        "ref": "DefaultSchedule"
      },
      "hadoopVersion": "1.0.3",
      "coreInstanceType": "m1.medium",
      "maxActiveInstances": "1"
    },
    {
      "name": "CheckQuestInputExistsPreCondition",
      "id": "PreconditionId_mfqh5",
      "preconditionTimeout": "5 Minutes",
      "maximumRetries": "1",
      "onSuccess": {
        "ref": "ActionId_KyGxM"
      },
      "role": "DataPipelineDefaultRole",
      "onFail": {
        "ref": "ActionId_T8nzr"
      },
      "s3Prefix": "s3://com.funplus.datawarehouse/farm_1_1/events/quest/app=${app}/year=#{format(minusDays(@scheduledStartTime,1),'YYYY')}/month=#{format(minusDays(@scheduledStartTime,1),'MM')}/day=#{format(minusDays(@scheduledStartTime,1),'dd')}/",
      "type": "S3PrefixNotEmpty"
    },
    {
      "name": "TutorialExecuteSQLFile",
      "id": "ActivityId_k9i73",
      "schedule": {
        "ref": "DefaultSchedule"
      },
      "scriptUri": "s3://com.funplusgame.bidata/dev/sql/${tutorial_report_sql}",
      "maxActiveInstances": "1",
      "runsOn": {
        "ref": "ResourceId_mORv1"
      },
      "onSuccess": {
        "ref": "ActionId_KyGxM"
      },
      "scriptArgument": [
        "#{format(minusDays(@scheduledStartTime,1),'YYYY-MM-dd')}",
        "${app}",
        "${app}",
        "${app}"
      ],
      "onFail": {
        "ref": "ActionId_NIYB0"
      },
      "dependsOn": {
        "ref": "ActivityId_S5Rbj"
      },
      "type": "SqlActivity",
      "database": {
        "ref": "RedshiftDatabaseId_ghoOt"
      }
    },
    {
      "name": "QuestExecuteSQLFile",
      "id": "ActivityId_9juEc",
      "schedule": {
        "ref": "DefaultSchedule"
      },
      "scriptUri": "s3://com.funplusgame.bidata/dev/sql/${quest_report_sql}",
      "maxActiveInstances": "1",
      "runsOn": {
        "ref": "ResourceId_mORv1"
      },
      "onSuccess": {
        "ref": "ActionId_KyGxM"
      },
      "scriptArgument": [
        "#{format(minusDays(@scheduledStartTime,1),'YYYY-MM-dd')}",
        "${app}",
        "#{format(minusDays(@scheduledStartTime,1),'YYYY-MM-dd')}",
        "${app}"
      ],
      "onFail": {
        "ref": "ActionId_NIYB0"
      },
      "dependsOn": {
        "ref": "ActivityId_qGceK"
      },
      "type": "SqlActivity",
      "database": {
        "ref": "RedshiftDatabaseId_ghoOt"
      }
    },
    {
      "name": "Every 1 day",
      "id": "DefaultSchedule",
      "startDateTime": "${start_date}T${start_time}",
      "type": "Schedule",
      "period": "1 days"
    },
    {
      "name": "TSV",
      "id": "DataFormatId_tKIH1",
      "type": "TSV"
    },
    {
      "name": "RedShiftDatabase",
      "id": "RedshiftDatabaseId_ghoOt",
      "databaseName": "${db_name}",
      "username": "${db_username}",
      "*password": "${db_password}",
      "type": "RedshiftDatabase",
      "clusterId": "${cluster_id}"
    },
    {
      "name": "DataNotExistsNotification",
      "id": "ActionId_T8nzr",
      "message": "Start Time: #",
      "subject": "FAILURE: NO INPUT FOUND ${email_subject} #{node.name} #{format(minusHours(node.@scheduledStartTime,1),\"YYYY/MM/dd/HH\")}",
      "role": "DataPipelineDefaultRole",
      "topicArn": "arn:aws:sns:us-west-2:921287511715:${email_notification}",
      "type": "SnsAlarm"
    },
    {
      "name": "TutorialToRedShift",
      "id": "ActivityId_S5Rbj",
      "input": {
        "ref": "DataNodeId_vd5fv"
      },
      "schedule": {
        "ref": "DefaultSchedule"
      },
      "stdout": "s3://com.funplusgame.emr/logs/scripts/tutorial/#{format(@scheduledStartTime,\"YYYY/MM/dd\")}/stdout",
      "maxActiveInstances": "1",
      "command": "/usr/bin/python /mnt/ephemeral/analytics/python/copy_to_redshift.py  -c=/mnt/ephemeral/analytics/python/conf/farm.yaml  --table=raw_tutorial --s3path=s3://com.funplus.datawarehouse/farm_1_1/events/tutorial/app=${app}/year=#{format(minusDays(@scheduledStartTime,1),\"YYYY\")}/month=#{format(minusDays(@scheduledStartTime,1),\"MM\")}/day=#{format(minusDays(@scheduledStartTime,1),\"dd\")}/ --command-options=json,s3://com.funplusgame.bidata/test/raw_tutorial_path.json,gzip --pre-sql=\"delete from raw_tutorial where app='${app}' and trunc(ts_pretty) ='#{format(minusDays(@scheduledStartTime,1),'YYYY-MM-dd')}';\"",
      "onSuccess": {
        "ref": "ActionId_KyGxM"
      },
      "onFail": {
        "ref": "ActionId_NIYB0"
      },
      "stderr": "s3://com.funplusgame.emr/logs/scripts/tutorial/#{format(@scheduledStartTime,\"YYYY/MM/dd\")}/stderr",
      "workerGroup": "dota",
      "type": "ShellCommandActivity",
      "stage": "true"
    },
    {
      "name": "CheckTutorialInputExistsPreCondition",
      "id": "PreconditionId_xa2xH",
      "preconditionTimeout": "5 Minutes",
      "maximumRetries": "1",
      "onSuccess": {
        "ref": "ActionId_KyGxM"
      },
      "role": "DataPipelineDefaultRole",
      "onFail": {
        "ref": "ActionId_T8nzr"
      },
      "s3Prefix": "s3://com.funplus.datawarehouse/farm_1_1/events/tutorial/app=${app}/year=#{format(minusDays(@scheduledStartTime,1),'YYYY')}/month=#{format(minusDays(@scheduledStartTime,1),'MM')}/day=#{format(minusDays(@scheduledStartTime,1),'dd')}/",
      "type": "S3PrefixNotEmpty"
    },
    {
      "name": "Default",
      "id": "Default",
      "scheduleType": "CRON",
      "failureAndRerunMode": "CASCADE",
      "schedule": {
        "ref": "DefaultSchedule"
      },
      "pipelineLogUri": "s3://com.funplusgame.emr/logs/",
      "role": "DataPipelineDefaultRole",
      "resourceRole": "DataPipelineDefaultResourceRole"
    },
    {
      "name": "TutorialS3Raw",
      "id": "DataNodeId_vd5fv",
      "precondition": {
        "ref": "PreconditionId_xa2xH"
      },
      "schedule": {
        "ref": "DefaultSchedule"
      },
      "directoryPath": "s3://com.funplus.datawarehouse/farm_1_1/events/tutorial/app=${app}/year=#{format(minusDays(@scheduledStartTime,1),'YYYY')}/month=#{format(minusDays(@scheduledStartTime,1),'MM')}/day=#{format(minusDays(@scheduledStartTime,1),'dd')}/",
      "dataFormat": {
        "ref": "DataFormatId_VUMhh"
      },
      "type": "S3DataNode"
    },
    {
      "name": "FailureNotification",
      "id": "ActionId_NIYB0",
      "message": "Start Time: #{node.@actualStartTime}\nEnd Time: #{node.@actualEndTime}\n#{node.errorMessage}\n#{node.errorStackTrace}",
      "subject": "FAILURE: ${email_subject} #{node.name} #{format(minusHours(node.@scheduledStartTime,1),\"YYYY/MM/dd/HH\")}",
      "role": "DataPipelineDefaultRole",
      "topicArn": "arn:aws:sns:us-west-2:921287511715:${email_notification}",
      "type": "SnsAlarm"
    },
    {
      "name": "QuestToRedshift",
      "id": "ActivityId_qGceK",
      "input": {
        "ref": "DataNodeId_2AEup"
      },
      "schedule": {
        "ref": "DefaultSchedule"
      },
      "stdout": "s3://com.funplusgame.emr/logs/scripts/quest/#{format(@scheduledStartTime,\"YYYY/MM/dd\")}/stdout",
      "maxActiveInstances": "1",
      "command": "/usr/bin/python /mnt/ephemeral/analytics/python/copy_to_redshift.py  -c=/mnt/ephemeral/analytics/python/conf/farm.yaml  --table=raw_quest --s3path=s3://com.funplus.datawarehouse/farm_1_1/events/quest/app=${app}/year=#{format(minusDays(@scheduledStartTime,1),\"YYYY\")}/month=#{format(minusDays(@scheduledStartTime,1),\"MM\")}/day=#{format(minusDays(@scheduledStartTime,1),\"dd\")}/ --command-options=json,s3://com.funplusgame.bidata/test/raw_quest_path.json,gzip --pre-sql=\"delete from raw_quest where app='${app}' and trunc(ts_pretty) ='#{format(minusDays(@scheduledStartTime,1),'YYYY-MM-dd')}';\"",
      "onSuccess": {
        "ref": "ActionId_KyGxM"
      },
      "onFail": {
        "ref": "ActionId_NIYB0"
      },
      "stderr": "s3://com.funplusgame.emr/logs/scripts/quest/#{format(@scheduledStartTime,\"YYYY/MM/dd\")}/stderr",
      "workerGroup": "dota",
      "type": "ShellCommandActivity",
      "stage": "true"
    },
    {
      "name": "EC2Resource",
      "id": "ResourceId_mORv1",
      "terminateAfter": "1 Hour",
      "instanceType": "m1.small",
      "schedule": {
        "ref": "DefaultSchedule"
      },
      "keyPair": "bidev-keypair",
      "maxActiveInstances": "1",
      "logUri": "s3://com.funplusgame.bidata/emr/logs/",
      "role": "DataPipelineDefaultRole",
      "type": "Ec2Resource",
      "resourceRole": "DataPipelineDefaultResourceRole"
    },
    {
      "name": "SuccessNotification",
      "id": "ActionId_KyGxM",
      "message": "Start Time: #{node.@actualStartTime}\nEnd Time: #{node.@actualEndTime}",
      "subject": "SUCCESS: ${email_subject} #{node.name} #{format(minusHours(node.@scheduledStartTime,1),\"YYYY/MM/dd/HH\")}\n",
      "role": "DataPipelineDefaultRole",
      "topicArn": "arn:aws:sns:us-west-2:921287511715:${email_notification}",
      "type": "SnsAlarm"
    },
    {
      "name": "QuestS3Raw",
      "id": "DataNodeId_2AEup",
      "precondition": {
        "ref": "PreconditionId_mfqh5"
      },
      "schedule": {
        "ref": "DefaultSchedule"
      },
      "directoryPath": "s3://com.funplus.datawarehouse/farm_1_1/events/quest/app=${app}/year=#{format(minusDays(@scheduledStartTime,1),'YYYY')}/month=#{format(minusDays(@scheduledStartTime,1),'MM')}/day=#{format(minusDays(@scheduledStartTime,1),'dd')}/",
      "dataFormat": {
        "ref": "DataFormatId_VUMhh"
      },
      "type": "S3DataNode"
    },
    {
      "name": "JSON",
      "id": "DataFormatId_VUMhh",
      "columnSeparator": "\n",
      "type": "Custom"
    }
  ]
}
