{
  "objects": [
    {
      "name": "JSON",
      "id": "DataFormatId_VUMhh",
      "columnSeparator": "\n",
      "type": "Custom"
    },
    {
      "name": "TSV",
      "id": "DataFormatId_tKIH1",
      "type": "TSV"
    },
    {
      "name": "CheckInputExistsPreCondition",
      "id": "PreconditionId_BssdV",
      "preconditionTimeout": "30 Minutes",
      "retryDelay": "10 Minutes",
      "maximumRetries": "3",
      "lateAfterTimeout": "30 Minutes",
      "role": "DataPipelineDefaultRole",
      "onFail": {
        "ref": "ActionId_rwPyz"
      },
      "s3Prefix": "s3://com.funplusgame.bidata/etl/farm/us/mysql/tbl_user/#{format(node.@scheduledStartTime,'YYYYMMdd')}/",
      "type": "S3PrefixNotEmpty",
      "onLateAction": {
        "ref": "ActionId_rwPyz"
      }
    },
    {
      "name": "FailureNotification",
      "id": "ActionId_NIYB0",
      "message": "Start Time: #{node.@actualStartTime}\nEnd Time: #{node.@actualEndTime}\n#{node.errorMessage}\n#{node.errorStackTrace}",
      "subject": "FAILURE: FARM TBL_USER DAILY #{node.name} #{format(node.@scheduledStartTime,\"YYYY/MM/dd\")}",
      "role": "DataPipelineDefaultRole",
      "topicArn": "arn:aws:sns:us-west-2:921287511715:data-notification",
      "type": "SnsAlarm"
    },
    {
      "name": "TimeoutNotification",
      "id": "ActionId_5tW1p",
      "message": "Start Time: #{node.@actualStartTime}\nEnd Time: #{node.@actualEndTime}",
      "subject": "TIMEOUT: FARM TBL_USER DAILY #{node.name} #{format(node.@scheduledStartTime,\"YYYY/MM/dd\")}",
      "topicArn": "arn:aws:sns:us-west-2:921287511715:data-notification",
      "role": "DataPipelineDefaultRole",
      "type": "SnsAlarm"
    },
    {
      "name": "DumpTbl_User",
      "id": "ActivityId_b0rvl",
      "precondition": {
        "ref": "PreconditionId_BssdV"
      },
      "schedule": {
        "ref": "DefaultSchedule"
      },
      "scriptUri": "s3://com.funplusgame.bidata/dev/hive/farm_1_1/ff_tbl_user_upd.sql",
      "maxActiveInstances": "1",
      "onSuccess": {
        "ref": "ActionId_KyGxM"
      },
      "onFail": {
        "ref": "ActionId_NIYB0"
      },
      "workerGroup": "wg-ec2-farm",
      "dependsOn": {
        "ref": "ActivityId_B7Zbc"
      },
      "type": "SqlActivity",
      "database": {
        "ref": "RedshiftDatabaseId_ghoOt"
      }
    },
    {
      "name": "Every 1 day",
      "id": "DefaultSchedule",
      "startDateTime": "2015-03-26T01:00:00",
      "type": "Schedule",
      "period": "1 Day"
    },
    {
      "name": "SuccessNotification",
      "id": "ActionId_KyGxM",
      "message": "Start Time: #{node.@actualStartTime}\nEnd Time: #{node.@actualEndTime}",
      "subject": "SUCCESS: FARM TBL_USER DAILY #{node.name} #{format(node.@scheduledStartTime,\"YYYY/MM/dd\")}\n",
      "role": "DataPipelineDefaultRole",
      "topicArn": "arn:aws:sns:us-west-2:921287511715:data-notification",
      "type": "SnsAlarm"
    },
    {
      "name": "SetupScript",
      "id": "ActivityId_B7Zbc",
      "schedule": {
        "ref": "DefaultSchedule"
      },
      "command": "if hadoop fs -test -e s3://com.funplusgame.bidata/dev/hive/farm_1_1/ff_tbl_user_upd.sql; then hadoop fs -rm s3://com.funplusgame.bidata/dev/hive/farm_1_1/ff_tbl_user_upd.sql; fi\nhadoop fs -cat s3://com.funplusgame.bidata/dev/hive/farm_1_1/ff_tbl_user.sql > /tmp/ff_tbl_user.sql\nsed -i 's/${RPT_DATE_NOHYPHEN}/#{format(@scheduledStartTime,\"YYYYMMdd\")}/g' /tmp/ff_tbl_user.sql\nhadoop fs -copyFromLocal /tmp/ff_tbl_user.sql s3://com.funplusgame.bidata/dev/hive/farm_1_1/ff_tbl_user_upd.sql\nrm /tmp/ff_tbl_user.sql",
      "workerGroup": "wg-emr-farm",
      "type": "ShellCommandActivity"
    },
    {
      "name": "DataNotExistsNotification",
      "id": "ActionId_rwPyz",
      "message": "Start Time: #{node.@actualStartTime}\nEnd Time: #{node.@actualEndTime}\n\ns3://com.funplusgame.bidata/etl/farm/us/mysql/tbl_user/#{format(node.@scheduledStartTime,'YYYYMMdd')}/ does not exist.",
      "subject": "FAILURE:  FARM TBL_USER DAILY NO INPUT DATA #{node.name} #{format(node.@scheduledStartTime,\"YYYY/MM/dd\")}",
      "role": "DataPipelineDefaultRole",
      "topicArn": "arn:aws:sns:us-west-2:921287511715:data-notification",
      "type": "SnsAlarm"
    },
    {
      "name": "Default",
      "id": "Default",
      "scheduleType": "CRON",
      "failureAndRerunMode": "CASCADE",
      "schedule": {
        "ref": "DefaultSchedule"
      },
      "pipelineLogUri": "s3://com.funplusgame.emr/logs/",
      "role": "DataPipelineDefaultRole",
      "resourceRole": "DataPipelineDefaultResourceRole"
    },
    {
      "name": "RedShiftDatabase",
      "id": "RedshiftDatabaseId_ghoOt",
      "databaseName": "farm",
      "username": "biadmin",
      "*password": "Halfquest_2014",
      "type": "RedshiftDatabase",
      "clusterId": "bicluster"
    }
  ]
}
